[
    [
        "BardM0_Lim",
        [
            [
                [
                    0,
                    0
                ],
                [
                    128,
                    160,
                    128
                ]
            ],
            [
                [
                    1,
                    0
                ],
                [
                    49,
                    32,
                    116
                ]
            ],
            [
                [
                    2,
                    0
                ],
                [
                    19,
                    164,
                    212
                ]
            ],
            [
                [
                    3,
                    0
                ],
                [
                    61,
                    100,
                    191
                ]
            ],
            [
                [
                    4,
                    0
                ],
                [
                    40,
                    40,
                    40
                ]
            ],
            [
                [
                    5,
                    0
                ],
                [
                    99,
                    74,
                    74
                ]
            ],
            [
                [
                    6,
                    0
                ],
                [
                    239,
                    156,
                    82
                ]
            ],
            [
                [
                    7,
                    0
                ],
                [
                    7,
                    91,
                    40
                ]
            ],
            [
                [
                    0,
                    1
                ],
                [
                    168,
                    232,
                    248
                ]
            ],
            [
                [
                    1,
                    1
                ],
                [
                    112,
                    176,
                    208
                ]
            ],
            [
                [
                    2,
                    1
                ],
                [
                    27,
                    152,
                    66
                ]
            ],
            [
                [
                    3,
                    1
                ],
                [
                    248,
                    248,
                    248
                ]
            ],
            [
                [
                    4,
                    1
                ],
                [
                    248,
                    248,
                    208
                ]
            ],
            [
                [
                    5,
                    1
                ],
                [
                    248,
                    192,
                    144
                ]
            ],
            [
                [
                    6,
                    1
                ],
                [
                    45,
                    208,
                    83
                ]
            ],
            [
                [
                    7,
                    1
                ],
                [
                    255,
                    230,
                    8
                ]
            ]
        ]
    ]
]