[
    [
        "Brigand5_Lychee",
        [
            [
                [
                    0,
                    0
                ],
                [
                    128,
                    160,
                    128
                ]
            ],
            [
                [
                    1,
                    0
                ],
                [
                    64,
                    96,
                    128
                ]
            ],
            [
                [
                    2,
                    0
                ],
                [
                    40,
                    40,
                    40
                ]
            ],
            [
                [
                    3,
                    0
                ],
                [
                    240,
                    240,
                    240
                ]
            ],
            [
                [
                    4,
                    0
                ],
                [
                    208,
                    144,
                    96
                ]
            ],
            [
                [
                    5,
                    0
                ],
                [
                    144,
                    176,
                    208
                ]
            ],
            [
                [
                    6,
                    0
                ],
                [
                    232,
                    192,
                    136
                ]
            ],
            [
                [
                    7,
                    0
                ],
                [
                    112,
                    72,
                    48
                ]
            ],
            [
                [
                    0,
                    1
                ],
                [
                    104,
                    136,
                    168
                ]
            ],
            [
                [
                    1,
                    1
                ],
                [
                    160,
                    96,
                    48
                ]
            ],
            [
                [
                    2,
                    1
                ],
                [
                    248,
                    248,
                    208
                ]
            ],
            [
                [
                    3,
                    1
                ],
                [
                    100,
                    76,
                    66
                ]
            ],
            [
                [
                    4,
                    1
                ],
                [
                    67,
                    46,
                    35
                ]
            ],
            [
                [
                    5,
                    1
                ],
                [
                    160,
                    144,
                    120
                ]
            ],
            [
                [
                    6,
                    1
                ],
                [
                    184,
                    168,
                    120
                ]
            ],
            [
                [
                    7,
                    1
                ],
                [
                    136,
                    112,
                    88
                ]
            ]
        ]
    ]
]