[
    [
        "Corsair0_GenericBlue",
        [
            [
                [
                    0,
                    0
                ],
                [
                    128,
                    160,
                    128
                ]
            ],
            [
                [
                    1,
                    0
                ],
                [
                    88,
                    216,
                    176
                ]
            ],
            [
                [
                    2,
                    0
                ],
                [
                    112,
                    72,
                    48
                ]
            ],
            [
                [
                    3,
                    0
                ],
                [
                    168,
                    104,
                    56
                ]
            ],
            [
                [
                    4,
                    0
                ],
                [
                    200,
                    136,
                    88
                ]
            ],
            [
                [
                    5,
                    0
                ],
                [
                    232,
                    192,
                    136
                ]
            ],
            [
                [
                    6,
                    0
                ],
                [
                    248,
                    248,
                    208
                ]
            ],
            [
                [
                    7,
                    0
                ],
                [
                    248,
                    248,
                    248
                ]
            ],
            [
                [
                    0,
                    1
                ],
                [
                    40,
                    40,
                    40
                ]
            ],
            [
                [
                    1,
                    1
                ],
                [
                    248,
                    248,
                    8
                ]
            ],
            [
                [
                    2,
                    1
                ],
                [
                    40,
                    88,
                    160
                ]
            ],
            [
                [
                    3,
                    1
                ],
                [
                    72,
                    160,
                    200
                ]
            ],
            [
                [
                    4,
                    1
                ],
                [
                    200,
                    216,
                    224
                ]
            ],
            [
                [
                    5,
                    1
                ],
                [
                    88,
                    120,
                    144
                ]
            ],
            [
                [
                    6,
                    1
                ],
                [
                    136,
                    168,
                    192
                ]
            ],
            [
                [
                    7,
                    1
                ],
                [
                    176,
                    208,
                    216
                ]
            ]
        ]
    ]
]