[
    [
        "Deathgoyle0_GenericBlue",
        [
            [
                [
                    0,
                    0
                ],
                [
                    128,
                    160,
                    128
                ]
            ],
            [
                [
                    1,
                    0
                ],
                [
                    104,
                    136,
                    168
                ]
            ],
            [
                [
                    2,
                    0
                ],
                [
                    40,
                    40,
                    40
                ]
            ],
            [
                [
                    3,
                    0
                ],
                [
                    248,
                    248,
                    248
                ]
            ],
            [
                [
                    4,
                    0
                ],
                [
                    176,
                    208,
                    240
                ]
            ],
            [
                [
                    5,
                    0
                ],
                [
                    72,
                    72,
                    72
                ]
            ],
            [
                [
                    6,
                    0
                ],
                [
                    232,
                    224,
                    184
                ]
            ],
            [
                [
                    7,
                    0
                ],
                [
                    120,
                    120,
                    120
                ]
            ],
            [
                [
                    0,
                    1
                ],
                [
                    216,
                    184,
                    136
                ]
            ],
            [
                [
                    1,
                    1
                ],
                [
                    168,
                    136,
                    112
                ]
            ],
            [
                [
                    2,
                    1
                ],
                [
                    144,
                    160,
                    144
                ]
            ],
            [
                [
                    3,
                    1
                ],
                [
                    192,
                    200,
                    192
                ]
            ],
            [
                [
                    4,
                    1
                ],
                [
                    120,
                    32,
                    24
                ]
            ],
            [
                [
                    5,
                    1
                ],
                [
                    208,
                    56,
                    48
                ]
            ]
        ]
    ]
]