[
    [
        "Dracoknight0_Sparrow",
        [
            [
                [
                    0,
                    0
                ],
                [
                    128,
                    160,
                    128
                ]
            ],
            [
                [
                    1,
                    0
                ],
                [
                    40,
                    40,
                    40
                ]
            ],
            [
                [
                    2,
                    0
                ],
                [
                    70,
                    162,
                    154
                ]
            ],
            [
                [
                    3,
                    0
                ],
                [
                    41,
                    132,
                    124
                ]
            ],
            [
                [
                    4,
                    0
                ],
                [
                    23,
                    89,
                    84
                ]
            ],
            [
                [
                    5,
                    0
                ],
                [
                    29,
                    109,
                    103
                ]
            ],
            [
                [
                    6,
                    0
                ],
                [
                    64,
                    48,
                    32
                ]
            ],
            [
                [
                    7,
                    0
                ],
                [
                    136,
                    136,
                    88
                ]
            ],
            [
                [
                    0,
                    1
                ],
                [
                    123,
                    90,
                    197
                ]
            ],
            [
                [
                    1,
                    1
                ],
                [
                    98,
                    74,
                    172
                ]
            ],
            [
                [
                    2,
                    1
                ],
                [
                    128,
                    104,
                    88
                ]
            ],
            [
                [
                    3,
                    1
                ],
                [
                    240,
                    192,
                    144
                ]
            ],
            [
                [
                    4,
                    1
                ],
                [
                    192,
                    128,
                    112
                ]
            ],
            [
                [
                    5,
                    1
                ],
                [
                    208,
                    208,
                    152
                ]
            ],
            [
                [
                    6,
                    1
                ],
                [
                    184,
                    168,
                    248
                ]
            ],
            [
                [
                    7,
                    1
                ],
                [
                    248,
                    248,
                    248
                ]
            ]
        ]
    ]
]