[
    [
        "ElderBael0_GenericBlue",
        [
            [
                [
                    0,
                    0
                ],
                [
                    128,
                    160,
                    128
                ]
            ],
            [
                [
                    1,
                    0
                ],
                [
                    40,
                    40,
                    40
                ]
            ],
            [
                [
                    2,
                    0
                ],
                [
                    208,
                    8,
                    8
                ]
            ],
            [
                [
                    3,
                    0
                ],
                [
                    128,
                    0,
                    8
                ]
            ],
            [
                [
                    4,
                    0
                ],
                [
                    240,
                    128,
                    80
                ]
            ],
            [
                [
                    5,
                    0
                ],
                [
                    176,
                    104,
                    160
                ]
            ],
            [
                [
                    6,
                    0
                ],
                [
                    136,
                    56,
                    96
                ]
            ],
            [
                [
                    7,
                    0
                ],
                [
                    248,
                    248,
                    248
                ]
            ],
            [
                [
                    0,
                    1
                ],
                [
                    176,
                    208,
                    240
                ]
            ],
            [
                [
                    1,
                    1
                ],
                [
                    120,
                    152,
                    184
                ]
            ],
            [
                [
                    2,
                    1
                ],
                [
                    128,
                    248,
                    24
                ]
            ],
            [
                [
                    3,
                    1
                ],
                [
                    80,
                    88,
                    128
                ]
            ],
            [
                [
                    4,
                    1
                ],
                [
                    88,
                    176,
                    48
                ]
            ],
            [
                [
                    5,
                    1
                ],
                [
                    104,
                    128,
                    168
                ]
            ],
            [
                [
                    6,
                    1
                ],
                [
                    48,
                    56,
                    72
                ]
            ],
            [
                [
                    7,
                    1
                ],
                [
                    176,
                    232,
                    56
                ]
            ]
        ]
    ]
]