[
    [
        "FalcoKnightF0_Bluejay",
        [
            [
                [
                    0,
                    0
                ],
                [
                    128,
                    160,
                    128
                ]
            ],
            [
                [
                    1,
                    0
                ],
                [
                    40,
                    40,
                    40
                ]
            ],
            [
                [
                    2,
                    0
                ],
                [
                    104,
                    107,
                    114
                ]
            ],
            [
                [
                    3,
                    0
                ],
                [
                    126,
                    130,
                    138
                ]
            ],
            [
                [
                    4,
                    0
                ],
                [
                    75,
                    77,
                    87
                ]
            ],
            [
                [
                    5,
                    0
                ],
                [
                    240,
                    168,
                    88
                ]
            ],
            [
                [
                    6,
                    0
                ],
                [
                    128,
                    88,
                    64
                ]
            ],
            [
                [
                    7,
                    0
                ],
                [
                    248,
                    240,
                    168
                ]
            ],
            [
                [
                    0,
                    1
                ],
                [
                    140,
                    198,
                    178
                ]
            ],
            [
                [
                    1,
                    1
                ],
                [
                    96,
                    140,
                    143
                ]
            ],
            [
                [
                    2,
                    1
                ],
                [
                    51,
                    52,
                    59
                ]
            ],
            [
                [
                    3,
                    1
                ],
                [
                    112,
                    112,
                    104
                ]
            ],
            [
                [
                    4,
                    1
                ],
                [
                    168,
                    168,
                    160
                ]
            ],
            [
                [
                    5,
                    1
                ],
                [
                    68,
                    94,
                    110
                ]
            ],
            [
                [
                    6,
                    1
                ],
                [
                    105,
                    167,
                    181
                ]
            ],
            [
                [
                    7,
                    1
                ],
                [
                    248,
                    160,
                    72
                ]
            ]
        ]
    ]
]