[
    [
        "FalcoKnightF0_GenericPurple",
        [
            [
                [
                    0,
                    0
                ],
                [
                    128,
                    160,
                    128
                ]
            ],
            [
                [
                    1,
                    0
                ],
                [
                    40,
                    40,
                    40
                ]
            ],
            [
                [
                    2,
                    0
                ],
                [
                    253,
                    183,
                    252
                ]
            ],
            [
                [
                    3,
                    0
                ],
                [
                    248,
                    248,
                    248
                ]
            ],
            [
                [
                    4,
                    0
                ],
                [
                    219,
                    149,
                    252
                ]
            ],
            [
                [
                    5,
                    0
                ],
                [
                    240,
                    168,
                    88
                ]
            ],
            [
                [
                    6,
                    0
                ],
                [
                    128,
                    88,
                    64
                ]
            ],
            [
                [
                    7,
                    0
                ],
                [
                    248,
                    240,
                    168
                ]
            ],
            [
                [
                    0,
                    1
                ],
                [
                    170,
                    56,
                    192
                ]
            ],
            [
                [
                    1,
                    1
                ],
                [
                    105,
                    27,
                    119
                ]
            ],
            [
                [
                    2,
                    1
                ],
                [
                    152,
                    97,
                    209
                ]
            ],
            [
                [
                    3,
                    1
                ],
                [
                    133,
                    42,
                    126
                ]
            ],
            [
                [
                    4,
                    1
                ],
                [
                    209,
                    92,
                    190
                ]
            ],
            [
                [
                    5,
                    1
                ],
                [
                    115,
                    38,
                    39
                ]
            ],
            [
                [
                    6,
                    1
                ],
                [
                    181,
                    72,
                    72
                ]
            ],
            [
                [
                    7,
                    1
                ],
                [
                    248,
                    160,
                    72
                ]
            ]
        ]
    ]
]