[
    [
        "General0_Byrne",
        [
            [
                [
                    0,
                    0
                ],
                [
                    128,
                    160,
                    128
                ]
            ],
            [
                [
                    1,
                    0
                ],
                [
                    40,
                    40,
                    40
                ]
            ],
            [
                [
                    2,
                    0
                ],
                [
                    208,
                    176,
                    112
                ]
            ],
            [
                [
                    3,
                    0
                ],
                [
                    152,
                    104,
                    40
                ]
            ],
            [
                [
                    4,
                    0
                ],
                [
                    232,
                    232,
                    184
                ]
            ],
            [
                [
                    5,
                    0
                ],
                [
                    98,
                    39,
                    11
                ]
            ],
            [
                [
                    6,
                    0
                ],
                [
                    200,
                    208,
                    200
                ]
            ],
            [
                [
                    7,
                    0
                ],
                [
                    112,
                    152,
                    176
                ]
            ],
            [
                [
                    0,
                    1
                ],
                [
                    80,
                    104,
                    128
                ]
            ],
            [
                [
                    1,
                    1
                ],
                [
                    135,
                    54,
                    15
                ]
            ],
            [
                [
                    2,
                    1
                ],
                [
                    248,
                    248,
                    248
                ]
            ],
            [
                [
                    3,
                    1
                ],
                [
                    176,
                    72,
                    24
                ]
            ],
            [
                [
                    4,
                    1
                ],
                [
                    96,
                    40,
                    16
                ]
            ],
            [
                [
                    5,
                    1
                ],
                [
                    136,
                    64,
                    16
                ]
            ],
            [
                [
                    6,
                    1
                ],
                [
                    72,
                    40,
                    0
                ]
            ],
            [
                [
                    7,
                    1
                ],
                [
                    176,
                    224,
                    240
                ]
            ]
        ]
    ]
]