[
    [
        "LeolinkFighterM0_GenericPurple",
        [
            [
                [
                    0,
                    0
                ],
                [
                    128,
                    160,
                    128
                ]
            ],
            [
                [
                    1,
                    0
                ],
                [
                    40,
                    40,
                    40
                ]
            ],
            [
                [
                    2,
                    0
                ],
                [
                    232,
                    192,
                    136
                ]
            ],
            [
                [
                    3,
                    0
                ],
                [
                    208,
                    144,
                    96
                ]
            ],
            [
                [
                    4,
                    0
                ],
                [
                    112,
                    72,
                    48
                ]
            ],
            [
                [
                    5,
                    0
                ],
                [
                    248,
                    248,
                    208
                ]
            ],
            [
                [
                    6,
                    0
                ],
                [
                    72,
                    88,
                    120
                ]
            ],
            [
                [
                    7,
                    0
                ],
                [
                    248,
                    248,
                    248
                ]
            ],
            [
                [
                    0,
                    1
                ],
                [
                    104,
                    136,
                    168
                ]
            ],
            [
                [
                    1,
                    1
                ],
                [
                    160,
                    192,
                    224
                ]
            ],
            [
                [
                    2,
                    1
                ],
                [
                    88,
                    32,
                    96
                ]
            ],
            [
                [
                    3,
                    1
                ],
                [
                    120,
                    96,
                    64
                ]
            ],
            [
                [
                    4,
                    1
                ],
                [
                    161,
                    63,
                    196
                ]
            ],
            [
                [
                    5,
                    1
                ],
                [
                    152,
                    128,
                    88
                ]
            ],
            [
                [
                    6,
                    1
                ],
                [
                    214,
                    116,
                    249
                ]
            ],
            [
                [
                    7,
                    1
                ],
                [
                    0,
                    248,
                    0
                ]
            ]
        ]
    ]
]