[
    [
        "MasterknightF0_Quelea",
        [
            [
                [
                    0,
                    0
                ],
                [
                    128,
                    160,
                    128
                ]
            ],
            [
                [
                    1,
                    0
                ],
                [
                    176,
                    112,
                    24
                ]
            ],
            [
                [
                    2,
                    0
                ],
                [
                    120,
                    120,
                    88
                ]
            ],
            [
                [
                    3,
                    0
                ],
                [
                    197,
                    192,
                    160
                ]
            ],
            [
                [
                    4,
                    0
                ],
                [
                    246,
                    240,
                    184
                ]
            ],
            [
                [
                    5,
                    0
                ],
                [
                    175,
                    105,
                    75
                ]
            ],
            [
                [
                    6,
                    0
                ],
                [
                    231,
                    147,
                    90
                ]
            ],
            [
                [
                    7,
                    0
                ],
                [
                    252,
                    169,
                    110
                ]
            ],
            [
                [
                    0,
                    1
                ],
                [
                    40,
                    40,
                    40
                ]
            ],
            [
                [
                    1,
                    1
                ],
                [
                    127,
                    85,
                    55
                ]
            ],
            [
                [
                    2,
                    1
                ],
                [
                    156,
                    105,
                    68
                ]
            ],
            [
                [
                    3,
                    1
                ],
                [
                    199,
                    134,
                    87
                ]
            ],
            [
                [
                    4,
                    1
                ],
                [
                    82,
                    55,
                    147
                ]
            ],
            [
                [
                    5,
                    1
                ],
                [
                    147,
                    95,
                    232
                ]
            ],
            [
                [
                    6,
                    1
                ],
                [
                    183,
                    156,
                    0
                ]
            ],
            [
                [
                    7,
                    1
                ],
                [
                    114,
                    67,
                    13
                ]
            ]
        ]
    ]
]