[
    [
        "MautheDoog0_GenericBlue",
        [
            [
                [
                    0,
                    0
                ],
                [
                    128,
                    160,
                    128
                ]
            ],
            [
                [
                    1,
                    0
                ],
                [
                    40,
                    40,
                    40
                ]
            ],
            [
                [
                    2,
                    0
                ],
                [
                    72,
                    72,
                    56
                ]
            ],
            [
                [
                    3,
                    0
                ],
                [
                    144,
                    176,
                    88
                ]
            ],
            [
                [
                    4,
                    0
                ],
                [
                    96,
                    104,
                    64
                ]
            ],
            [
                [
                    5,
                    0
                ],
                [
                    120,
                    8,
                    16
                ]
            ],
            [
                [
                    6,
                    0
                ],
                [
                    248,
                    248,
                    136
                ]
            ],
            [
                [
                    7,
                    0
                ],
                [
                    208,
                    8,
                    8
                ]
            ],
            [
                [
                    0,
                    1
                ],
                [
                    192,
                    192,
                    104
                ]
            ],
            [
                [
                    1,
                    1
                ],
                [
                    88,
                    56,
                    8
                ]
            ],
            [
                [
                    2,
                    1
                ],
                [
                    208,
                    144,
                    32
                ]
            ],
            [
                [
                    3,
                    1
                ],
                [
                    136,
                    88,
                    16
                ]
            ],
            [
                [
                    4,
                    1
                ],
                [
                    120,
                    152,
                    184
                ]
            ],
            [
                [
                    5,
                    1
                ],
                [
                    176,
                    208,
                    240
                ]
            ],
            [
                [
                    6,
                    1
                ],
                [
                    248,
                    248,
                    248
                ]
            ],
            [
                [
                    7,
                    1
                ],
                [
                    248,
                    0,
                    248
                ]
            ]
        ]
    ]
]