[
    [
        "MercRepaletteM0_GenericRed",
        [
            [
                [
                    0,
                    0
                ],
                [
                    128,
                    160,
                    128
                ]
            ],
            [
                [
                    1,
                    0
                ],
                [
                    40,
                    40,
                    40
                ]
            ],
            [
                [
                    2,
                    0
                ],
                [
                    192,
                    224,
                    232
                ]
            ],
            [
                [
                    3,
                    0
                ],
                [
                    96,
                    128,
                    160
                ]
            ],
            [
                [
                    4,
                    0
                ],
                [
                    176,
                    112,
                    64
                ]
            ],
            [
                [
                    5,
                    0
                ],
                [
                    248,
                    192,
                    144
                ]
            ],
            [
                [
                    6,
                    0
                ],
                [
                    112,
                    80,
                    48
                ]
            ],
            [
                [
                    7,
                    0
                ],
                [
                    152,
                    184,
                    216
                ]
            ],
            [
                [
                    0,
                    1
                ],
                [
                    248,
                    248,
                    248
                ]
            ],
            [
                [
                    1,
                    1
                ],
                [
                    144,
                    0,
                    0
                ]
            ],
            [
                [
                    2,
                    1
                ],
                [
                    248,
                    56,
                    16
                ]
            ],
            [
                [
                    3,
                    1
                ],
                [
                    108,
                    152,
                    184
                ]
            ],
            [
                [
                    4,
                    1
                ],
                [
                    248,
                    240,
                    184
                ]
            ],
            [
                [
                    5,
                    1
                ],
                [
                    176,
                    192,
                    224
                ]
            ],
            [
                [
                    6,
                    1
                ],
                [
                    96,
                    96,
                    144
                ]
            ],
            [
                [
                    7,
                    1
                ],
                [
                    248,
                    160,
                    72
                ]
            ]
        ]
    ]
]