[
    [
        "Myrmidon0_Sionn",
        [
            [
                [
                    0,
                    0
                ],
                [
                    128,
                    160,
                    128
                ]
            ],
            [
                [
                    1,
                    0
                ],
                [
                    40,
                    40,
                    40
                ]
            ],
            [
                [
                    2,
                    0
                ],
                [
                    174,
                    109,
                    62
                ]
            ],
            [
                [
                    3,
                    0
                ],
                [
                    251,
                    206,
                    179
                ]
            ],
            [
                [
                    4,
                    0
                ],
                [
                    247,
                    168,
                    121
                ]
            ],
            [
                [
                    5,
                    0
                ],
                [
                    87,
                    59,
                    113
                ]
            ],
            [
                [
                    6,
                    0
                ],
                [
                    138,
                    115,
                    162
                ]
            ],
            [
                [
                    7,
                    0
                ],
                [
                    99,
                    74,
                    123
                ]
            ],
            [
                [
                    0,
                    1
                ],
                [
                    181,
                    189,
                    206
                ]
            ],
            [
                [
                    1,
                    1
                ],
                [
                    56,
                    32,
                    64
                ]
            ],
            [
                [
                    2,
                    1
                ],
                [
                    122,
                    116,
                    89
                ]
            ],
            [
                [
                    3,
                    1
                ],
                [
                    171,
                    148,
                    134
                ]
            ],
            [
                [
                    4,
                    1
                ],
                [
                    74,
                    69,
                    55
                ]
            ],
            [
                [
                    5,
                    1
                ],
                [
                    254,
                    239,
                    231
                ]
            ],
            [
                [
                    6,
                    1
                ],
                [
                    135,
                    148,
                    175
                ]
            ],
            [
                [
                    7,
                    1
                ],
                [
                    74,
                    86,
                    111
                ]
            ]
        ]
    ]
]