[
    [
        "New Palette_4",
        [
            [
                [
                    0,
                    0
                ],
                [
                    128,
                    160,
                    128
                ]
            ],
            [
                [
                    1,
                    0
                ],
                [
                    40,
                    32,
                    152
                ]
            ],
            [
                [
                    2,
                    0
                ],
                [
                    56,
                    80,
                    184
                ]
            ],
            [
                [
                    3,
                    0
                ],
                [
                    88,
                    144,
                    232
                ]
            ],
            [
                [
                    4,
                    0
                ],
                [
                    112,
                    72,
                    48
                ]
            ],
            [
                [
                    5,
                    0
                ],
                [
                    192,
                    128,
                    80
                ]
            ],
            [
                [
                    6,
                    0
                ],
                [
                    240,
                    192,
                    144
                ]
            ],
            [
                [
                    7,
                    0
                ],
                [
                    248,
                    248,
                    208
                ]
            ],
            [
                [
                    0,
                    1
                ],
                [
                    40,
                    40,
                    40
                ]
            ],
            [
                [
                    1,
                    1
                ],
                [
                    248,
                    248,
                    248
                ]
            ],
            [
                [
                    2,
                    1
                ],
                [
                    96,
                    120,
                    160
                ]
            ],
            [
                [
                    3,
                    1
                ],
                [
                    160,
                    184,
                    224
                ]
            ],
            [
                [
                    4,
                    1
                ],
                [
                    192,
                    224,
                    232
                ]
            ],
            [
                [
                    5,
                    1
                ],
                [
                    104,
                    88,
                    40
                ]
            ],
            [
                [
                    6,
                    1
                ],
                [
                    160,
                    136,
                    80
                ]
            ],
            [
                [
                    7,
                    1
                ],
                [
                    224,
                    192,
                    120
                ]
            ]
        ]
    ]
]