[
    [
        "PaladinM0_GenericPurple",
        [
            [
                [
                    0,
                    0
                ],
                [
                    128,
                    160,
                    128
                ]
            ],
            [
                [
                    1,
                    0
                ],
                [
                    40,
                    40,
                    40
                ]
            ],
            [
                [
                    2,
                    0
                ],
                [
                    160,
                    152,
                    136
                ]
            ],
            [
                [
                    3,
                    0
                ],
                [
                    72,
                    64,
                    56
                ]
            ],
            [
                [
                    4,
                    0
                ],
                [
                    120,
                    104,
                    88
                ]
            ],
            [
                [
                    5,
                    0
                ],
                [
                    149,
                    47,
                    166
                ]
            ],
            [
                [
                    6,
                    0
                ],
                [
                    197,
                    121,
                    207
                ]
            ],
            [
                [
                    7,
                    0
                ],
                [
                    97,
                    32,
                    115
                ]
            ],
            [
                [
                    0,
                    1
                ],
                [
                    98,
                    48,
                    104
                ]
            ],
            [
                [
                    1,
                    1
                ],
                [
                    93,
                    48,
                    96
                ]
            ],
            [
                [
                    2,
                    1
                ],
                [
                    130,
                    64,
                    136
                ]
            ],
            [
                [
                    3,
                    1
                ],
                [
                    160,
                    120,
                    96
                ]
            ],
            [
                [
                    4,
                    1
                ],
                [
                    240,
                    184,
                    120
                ]
            ],
            [
                [
                    5,
                    1
                ],
                [
                    168,
                    104,
                    176
                ]
            ],
            [
                [
                    6,
                    1
                ],
                [
                    248,
                    248,
                    176
                ]
            ],
            [
                [
                    7,
                    1
                ],
                [
                    248,
                    248,
                    248
                ]
            ]
        ]
    ]
]