[
    [
        "PaladinM0_Tiberius",
        [
            [
                [
                    0,
                    0
                ],
                [
                    128,
                    160,
                    128
                ]
            ],
            [
                [
                    1,
                    0
                ],
                [
                    40,
                    40,
                    40
                ]
            ],
            [
                [
                    2,
                    0
                ],
                [
                    192,
                    168,
                    136
                ]
            ],
            [
                [
                    3,
                    0
                ],
                [
                    80,
                    64,
                    56
                ]
            ],
            [
                [
                    4,
                    0
                ],
                [
                    152,
                    120,
                    80
                ]
            ],
            [
                [
                    5,
                    0
                ],
                [
                    121,
                    96,
                    184
                ]
            ],
            [
                [
                    6,
                    0
                ],
                [
                    152,
                    158,
                    232
                ]
            ],
            [
                [
                    7,
                    0
                ],
                [
                    80,
                    72,
                    136
                ]
            ],
            [
                [
                    0,
                    1
                ],
                [
                    72,
                    48,
                    104
                ]
            ],
            [
                [
                    1,
                    1
                ],
                [
                    41,
                    65,
                    74
                ]
            ],
            [
                [
                    2,
                    1
                ],
                [
                    49,
                    98,
                    115
                ]
            ],
            [
                [
                    3,
                    1
                ],
                [
                    160,
                    120,
                    96
                ]
            ],
            [
                [
                    4,
                    1
                ],
                [
                    240,
                    184,
                    120
                ]
            ],
            [
                [
                    5,
                    1
                ],
                [
                    82,
                    139,
                    156
                ]
            ],
            [
                [
                    6,
                    1
                ],
                [
                    248,
                    248,
                    176
                ]
            ],
            [
                [
                    7,
                    1
                ],
                [
                    248,
                    248,
                    248
                ]
            ]
        ]
    ]
]