[
    [
        "PaladinF0_Sparrow",
        [
            [
                [
                    0,
                    0
                ],
                [
                    128,
                    160,
                    128
                ]
            ],
            [
                [
                    1,
                    0
                ],
                [
                    96,
                    104,
                    104
                ]
            ],
            [
                [
                    2,
                    0
                ],
                [
                    152,
                    176,
                    168
                ]
            ],
            [
                [
                    3,
                    0
                ],
                [
                    224,
                    224,
                    224
                ]
            ],
            [
                [
                    4,
                    0
                ],
                [
                    160,
                    120,
                    96
                ]
            ],
            [
                [
                    5,
                    0
                ],
                [
                    240,
                    184,
                    120
                ]
            ],
            [
                [
                    6,
                    0
                ],
                [
                    248,
                    248,
                    176
                ]
            ],
            [
                [
                    7,
                    0
                ],
                [
                    248,
                    248,
                    248
                ]
            ],
            [
                [
                    0,
                    1
                ],
                [
                    40,
                    40,
                    40
                ]
            ],
            [
                [
                    1,
                    1
                ],
                [
                    80,
                    48,
                    72
                ]
            ],
            [
                [
                    2,
                    1
                ],
                [
                    35,
                    98,
                    73
                ]
            ],
            [
                [
                    3,
                    1
                ],
                [
                    47,
                    130,
                    102
                ]
            ],
            [
                [
                    4,
                    1
                ],
                [
                    57,
                    156,
                    120
                ]
            ],
            [
                [
                    5,
                    1
                ],
                [
                    104,
                    64,
                    136
                ]
            ],
            [
                [
                    6,
                    1
                ],
                [
                    152,
                    120,
                    176
                ]
            ],
            [
                [
                    7,
                    1
                ],
                [
                    200,
                    184,
                    232
                ]
            ]
        ]
    ]
]