[
    [
        "PegasusKnightF0_GenericPurple",
        [
            [
                [
                    0,
                    0
                ],
                [
                    128,
                    160,
                    128
                ]
            ],
            [
                [
                    1,
                    0
                ],
                [
                    40,
                    40,
                    40
                ]
            ],
            [
                [
                    2,
                    0
                ],
                [
                    232,
                    168,
                    172
                ]
            ],
            [
                [
                    3,
                    0
                ],
                [
                    248,
                    246,
                    246
                ]
            ],
            [
                [
                    4,
                    0
                ],
                [
                    168,
                    95,
                    88
                ]
            ],
            [
                [
                    5,
                    0
                ],
                [
                    128,
                    48,
                    144
                ]
            ],
            [
                [
                    6,
                    0
                ],
                [
                    214,
                    116,
                    249
                ]
            ],
            [
                [
                    7,
                    0
                ],
                [
                    128,
                    88,
                    64
                ]
            ],
            [
                [
                    0,
                    1
                ],
                [
                    200,
                    128,
                    80
                ]
            ],
            [
                [
                    1,
                    1
                ],
                [
                    192,
                    192,
                    240
                ]
            ],
            [
                [
                    2,
                    1
                ],
                [
                    248,
                    168,
                    88
                ]
            ],
            [
                [
                    3,
                    1
                ],
                [
                    144,
                    144,
                    192
                ]
            ],
            [
                [
                    4,
                    1
                ],
                [
                    248,
                    248,
                    208
                ]
            ],
            [
                [
                    5,
                    1
                ],
                [
                    248,
                    248,
                    248
                ]
            ],
            [
                [
                    6,
                    1
                ],
                [
                    112,
                    112,
                    104
                ]
            ],
            [
                [
                    7,
                    1
                ],
                [
                    168,
                    168,
                    160
                ]
            ]
        ]
    ]
]