[
    [
        "Pugilist_GenericBlue",
        [
            [
                [
                    0,
                    0
                ],
                [
                    128,
                    160,
                    128
                ]
            ],
            [
                [
                    1,
                    0
                ],
                [
                    56,
                    56,
                    208
                ]
            ],
            [
                [
                    2,
                    0
                ],
                [
                    112,
                    80,
                    48
                ]
            ],
            [
                [
                    3,
                    0
                ],
                [
                    248,
                    248,
                    208
                ]
            ],
            [
                [
                    4,
                    0
                ],
                [
                    16,
                    72,
                    0
                ]
            ],
            [
                [
                    5,
                    0
                ],
                [
                    176,
                    248,
                    40
                ]
            ],
            [
                [
                    6,
                    0
                ],
                [
                    88,
                    120,
                    8
                ]
            ],
            [
                [
                    7,
                    0
                ],
                [
                    40,
                    40,
                    40
                ]
            ],
            [
                [
                    0,
                    1
                ],
                [
                    248,
                    248,
                    248
                ]
            ],
            [
                [
                    1,
                    1
                ],
                [
                    0,
                    248,
                    248
                ]
            ],
            [
                [
                    2,
                    1
                ],
                [
                    200,
                    136,
                    88
                ]
            ],
            [
                [
                    3,
                    1
                ],
                [
                    104,
                    232,
                    248
                ]
            ],
            [
                [
                    4,
                    1
                ],
                [
                    88,
                    136,
                    248
                ]
            ],
            [
                [
                    5,
                    1
                ],
                [
                    176,
                    112,
                    64
                ]
            ],
            [
                [
                    6,
                    1
                ],
                [
                    232,
                    192,
                    136
                ]
            ]
        ]
    ]
]