[
    [
        "Ranger0_Dulluhan",
        [
            [
                [
                    0,
                    0
                ],
                [
                    128,
                    160,
                    128
                ]
            ],
            [
                [
                    1,
                    0
                ],
                [
                    40,
                    40,
                    40
                ]
            ],
            [
                [
                    2,
                    0
                ],
                [
                    104,
                    72,
                    32
                ]
            ],
            [
                [
                    3,
                    0
                ],
                [
                    160,
                    120,
                    56
                ]
            ],
            [
                [
                    4,
                    0
                ],
                [
                    74,
                    33,
                    0
                ]
            ],
            [
                [
                    5,
                    0
                ],
                [
                    118,
                    53,
                    0
                ]
            ],
            [
                [
                    6,
                    0
                ],
                [
                    224,
                    184,
                    64
                ]
            ],
            [
                [
                    7,
                    0
                ],
                [
                    96,
                    160,
                    104
                ]
            ],
            [
                [
                    0,
                    1
                ],
                [
                    232,
                    168,
                    88
                ]
            ],
            [
                [
                    1,
                    1
                ],
                [
                    248,
                    248,
                    144
                ]
            ],
            [
                [
                    2,
                    1
                ],
                [
                    60,
                    100,
                    65
                ]
            ],
            [
                [
                    3,
                    1
                ],
                [
                    104,
                    64,
                    56
                ]
            ],
            [
                [
                    4,
                    1
                ],
                [
                    144,
                    96,
                    56
                ]
            ],
            [
                [
                    5,
                    1
                ],
                [
                    208,
                    96,
                    0
                ]
            ],
            [
                [
                    6,
                    1
                ],
                [
                    159,
                    73,
                    0
                ]
            ],
            [
                [
                    7,
                    1
                ],
                [
                    248,
                    248,
                    248
                ]
            ]
        ]
    ]
]