[
    [
        "Recruit_Sparrow",
        [
            [
                [
                    0,
                    0
                ],
                [
                    128,
                    160,
                    128
                ]
            ],
            [
                [
                    1,
                    0
                ],
                [
                    35,
                    114,
                    107
                ]
            ],
            [
                [
                    2,
                    0
                ],
                [
                    47,
                    152,
                    143
                ]
            ],
            [
                [
                    3,
                    0
                ],
                [
                    94,
                    206,
                    198
                ]
            ],
            [
                [
                    4,
                    0
                ],
                [
                    112,
                    72,
                    48
                ]
            ],
            [
                [
                    5,
                    0
                ],
                [
                    248,
                    192,
                    144
                ]
            ],
            [
                [
                    6,
                    0
                ],
                [
                    248,
                    248,
                    208
                ]
            ],
            [
                [
                    7,
                    0
                ],
                [
                    248,
                    248,
                    248
                ]
            ],
            [
                [
                    0,
                    1
                ],
                [
                    40,
                    40,
                    40
                ]
            ],
            [
                [
                    1,
                    1
                ],
                [
                    56,
                    88,
                    112
                ]
            ],
            [
                [
                    2,
                    1
                ],
                [
                    112,
                    160,
                    184
                ]
            ],
            [
                [
                    3,
                    1
                ],
                [
                    192,
                    216,
                    240
                ]
            ],
            [
                [
                    4,
                    1
                ],
                [
                    66,
                    44,
                    119
                ]
            ],
            [
                [
                    5,
                    1
                ],
                [
                    123,
                    90,
                    197
                ]
            ],
            [
                [
                    6,
                    1
                ],
                [
                    153,
                    121,
                    225
                ]
            ],
            [
                [
                    7,
                    1
                ],
                [
                    192,
                    128,
                    80
                ]
            ]
        ]
    ]
]