[
    [
        "SalvageKnightM0_GenericGreen",
        [
            [
                [
                    0,
                    0
                ],
                [
                    128,
                    160,
                    128
                ]
            ],
            [
                [
                    1,
                    0
                ],
                [
                    40,
                    40,
                    40
                ]
            ],
            [
                [
                    2,
                    0
                ],
                [
                    152,
                    112,
                    48
                ]
            ],
            [
                [
                    3,
                    0
                ],
                [
                    208,
                    176,
                    112
                ]
            ],
            [
                [
                    4,
                    0
                ],
                [
                    128,
                    104,
                    80
                ]
            ],
            [
                [
                    5,
                    0
                ],
                [
                    80,
                    80,
                    80
                ]
            ],
            [
                [
                    6,
                    0
                ],
                [
                    56,
                    56,
                    56
                ]
            ],
            [
                [
                    7,
                    0
                ],
                [
                    137,
                    248,
                    161
                ]
            ],
            [
                [
                    0,
                    1
                ],
                [
                    31,
                    182,
                    64
                ]
            ],
            [
                [
                    1,
                    1
                ],
                [
                    36,
                    145,
                    56
                ]
            ],
            [
                [
                    2,
                    1
                ],
                [
                    6,
                    108,
                    8
                ]
            ],
            [
                [
                    3,
                    1
                ],
                [
                    224,
                    208,
                    168
                ]
            ],
            [
                [
                    4,
                    1
                ],
                [
                    96,
                    120,
                    144
                ]
            ],
            [
                [
                    5,
                    1
                ],
                [
                    176,
                    184,
                    176
                ]
            ],
            [
                [
                    6,
                    1
                ],
                [
                    248,
                    248,
                    248
                ]
            ],
            [
                [
                    7,
                    1
                ],
                [
                    72,
                    64,
                    48
                ]
            ]
        ]
    ]
]