[
    [
        "SalvageCavalierM0_GenericGreen",
        [
            [
                [
                    0,
                    0
                ],
                [
                    128,
                    160,
                    128
                ]
            ],
            [
                [
                    1,
                    0
                ],
                [
                    40,
                    40,
                    40
                ]
            ],
            [
                [
                    2,
                    0
                ],
                [
                    22,
                    86,
                    16
                ]
            ],
            [
                [
                    3,
                    0
                ],
                [
                    31,
                    122,
                    27
                ]
            ],
            [
                [
                    4,
                    0
                ],
                [
                    248,
                    248,
                    248
                ]
            ],
            [
                [
                    5,
                    0
                ],
                [
                    160,
                    152,
                    136
                ]
            ],
            [
                [
                    6,
                    0
                ],
                [
                    120,
                    104,
                    88
                ]
            ],
            [
                [
                    7,
                    0
                ],
                [
                    72,
                    64,
                    56
                ]
            ],
            [
                [
                    0,
                    1
                ],
                [
                    94,
                    126,
                    25
                ]
            ],
            [
                [
                    1,
                    1
                ],
                [
                    74,
                    96,
                    18
                ]
            ],
            [
                [
                    2,
                    1
                ],
                [
                    160,
                    120,
                    96
                ]
            ],
            [
                [
                    3,
                    1
                ],
                [
                    240,
                    184,
                    120
                ]
            ],
            [
                [
                    4,
                    1
                ],
                [
                    248,
                    248,
                    176
                ]
            ],
            [
                [
                    5,
                    1
                ],
                [
                    12,
                    58,
                    8
                ]
            ],
            [
                [
                    6,
                    1
                ],
                [
                    198,
                    198,
                    79
                ]
            ],
            [
                [
                    7,
                    1
                ],
                [
                    126,
                    120,
                    25
                ]
            ],
            [
                [
                    0,
                    2
                ],
                [
                    160,
                    152,
                    136
                ]
            ],
            [
                [
                    0,
                    3
                ],
                [
                    120,
                    104,
                    88
                ]
            ],
            [
                [
                    0,
                    4
                ],
                [
                    72,
                    64,
                    56
                ]
            ]
        ]
    ]
]