[
    [
        "Sniper0_GenericPurple",
        [
            [
                [
                    0,
                    0
                ],
                [
                    128,
                    160,
                    128
                ]
            ],
            [
                [
                    1,
                    0
                ],
                [
                    88,
                    32,
                    96
                ]
            ],
            [
                [
                    2,
                    0
                ],
                [
                    40,
                    40,
                    40
                ]
            ],
            [
                [
                    3,
                    0
                ],
                [
                    214,
                    116,
                    249
                ]
            ],
            [
                [
                    4,
                    0
                ],
                [
                    176,
                    208,
                    240
                ]
            ],
            [
                [
                    5,
                    0
                ],
                [
                    120,
                    152,
                    184
                ]
            ],
            [
                [
                    6,
                    0
                ],
                [
                    80,
                    112,
                    144
                ]
            ],
            [
                [
                    7,
                    0
                ],
                [
                    161,
                    63,
                    196
                ]
            ],
            [
                [
                    0,
                    1
                ],
                [
                    248,
                    192,
                    144
                ]
            ],
            [
                [
                    1,
                    1
                ],
                [
                    248,
                    248,
                    208
                ]
            ],
            [
                [
                    2,
                    1
                ],
                [
                    248,
                    248,
                    248
                ]
            ],
            [
                [
                    3,
                    1
                ],
                [
                    128,
                    48,
                    144
                ]
            ],
            [
                [
                    4,
                    1
                ],
                [
                    193,
                    54,
                    40
                ]
            ],
            [
                [
                    5,
                    1
                ],
                [
                    228,
                    120,
                    107
                ]
            ],
            [
                [
                    6,
                    1
                ],
                [
                    159,
                    32,
                    20
                ]
            ],
            [
                [
                    7,
                    1
                ],
                [
                    112,
                    72,
                    48
                ]
            ]
        ]
    ]
]