[
    [
        "Sniper0_Kevin",
        [
            [
                [
                    0,
                    0
                ],
                [
                    128,
                    160,
                    128
                ]
            ],
            [
                [
                    1,
                    0
                ],
                [
                    66,
                    15,
                    15
                ]
            ],
            [
                [
                    2,
                    0
                ],
                [
                    40,
                    40,
                    40
                ]
            ],
            [
                [
                    3,
                    0
                ],
                [
                    192,
                    105,
                    105
                ]
            ],
            [
                [
                    4,
                    0
                ],
                [
                    176,
                    208,
                    240
                ]
            ],
            [
                [
                    5,
                    0
                ],
                [
                    120,
                    152,
                    184
                ]
            ],
            [
                [
                    6,
                    0
                ],
                [
                    80,
                    112,
                    144
                ]
            ],
            [
                [
                    7,
                    0
                ],
                [
                    148,
                    57,
                    57
                ]
            ],
            [
                [
                    0,
                    1
                ],
                [
                    248,
                    192,
                    144
                ]
            ],
            [
                [
                    1,
                    1
                ],
                [
                    248,
                    248,
                    208
                ]
            ],
            [
                [
                    2,
                    1
                ],
                [
                    248,
                    248,
                    248
                ]
            ],
            [
                [
                    3,
                    1
                ],
                [
                    106,
                    24,
                    24
                ]
            ],
            [
                [
                    4,
                    1
                ],
                [
                    98,
                    98,
                    82
                ]
            ],
            [
                [
                    5,
                    1
                ],
                [
                    123,
                    123,
                    98
                ]
            ],
            [
                [
                    6,
                    1
                ],
                [
                    74,
                    74,
                    57
                ]
            ],
            [
                [
                    7,
                    1
                ],
                [
                    112,
                    72,
                    48
                ]
            ]
        ]
    ]
]