[
    [
        "Strategist0_GenericPurple",
        [
            [
                [
                    0,
                    0
                ],
                [
                    128,
                    160,
                    128
                ]
            ],
            [
                [
                    1,
                    0
                ],
                [
                    40,
                    40,
                    40
                ]
            ],
            [
                [
                    2,
                    0
                ],
                [
                    248,
                    240,
                    168
                ]
            ],
            [
                [
                    3,
                    0
                ],
                [
                    248,
                    248,
                    248
                ]
            ],
            [
                [
                    4,
                    0
                ],
                [
                    112,
                    80,
                    56
                ]
            ],
            [
                [
                    5,
                    0
                ],
                [
                    176,
                    128,
                    88
                ]
            ],
            [
                [
                    6,
                    0
                ],
                [
                    160,
                    88,
                    200
                ]
            ],
            [
                [
                    7,
                    0
                ],
                [
                    88,
                    32,
                    96
                ]
            ],
            [
                [
                    0,
                    1
                ],
                [
                    232,
                    176,
                    112
                ]
            ],
            [
                [
                    1,
                    1
                ],
                [
                    161,
                    63,
                    196
                ]
            ],
            [
                [
                    2,
                    1
                ],
                [
                    104,
                    48,
                    144
                ]
            ],
            [
                [
                    3,
                    1
                ],
                [
                    214,
                    116,
                    249
                ]
            ],
            [
                [
                    4,
                    1
                ],
                [
                    144,
                    32,
                    8
                ]
            ],
            [
                [
                    5,
                    1
                ],
                [
                    216,
                    64,
                    24
                ]
            ],
            [
                [
                    6,
                    1
                ],
                [
                    89,
                    92,
                    79
                ]
            ],
            [
                [
                    7,
                    1
                ],
                [
                    155,
                    160,
                    138
                ]
            ]
        ]
    ]
]