[
    [
        "Transporter0_GenericBlue",
        [
            [
                [
                    0,
                    0
                ],
                [
                    128,
                    160,
                    128
                ]
            ],
            [
                [
                    1,
                    0
                ],
                [
                    104,
                    72,
                    144
                ]
            ],
            [
                [
                    2,
                    0
                ],
                [
                    152,
                    136,
                    184
                ]
            ],
            [
                [
                    3,
                    0
                ],
                [
                    80,
                    160,
                    208
                ]
            ],
            [
                [
                    4,
                    0
                ],
                [
                    88,
                    64,
                    40
                ]
            ],
            [
                [
                    5,
                    0
                ],
                [
                    240,
                    160,
                    48
                ]
            ],
            [
                [
                    6,
                    0
                ],
                [
                    224,
                    216,
                    152
                ]
            ],
            [
                [
                    7,
                    0
                ],
                [
                    248,
                    240,
                    168
                ]
            ],
            [
                [
                    0,
                    1
                ],
                [
                    16,
                    8,
                    8
                ]
            ],
            [
                [
                    1,
                    1
                ],
                [
                    56,
                    32,
                    16
                ]
            ],
            [
                [
                    2,
                    1
                ],
                [
                    144,
                    120,
                    64
                ]
            ],
            [
                [
                    3,
                    1
                ],
                [
                    184,
                    168,
                    104
                ]
            ],
            [
                [
                    4,
                    1
                ],
                [
                    56,
                    112,
                    192
                ]
            ],
            [
                [
                    5,
                    1
                ],
                [
                    128,
                    184,
                    240
                ]
            ],
            [
                [
                    6,
                    1
                ],
                [
                    152,
                    232,
                    240
                ]
            ],
            [
                [
                    7,
                    1
                ],
                [
                    120,
                    216,
                    240
                ]
            ]
        ]
    ]
]