[
    {
        "nid": "17_intro",
        "name": "Ch. 17: Waste Not",
        "tilemap": "Chapter 15",
        "bg_tilemap": null,
        "party": "Ennis",
        "music": {
            "player_phase": "Event Challenge",
            "enemy_phase": "Event Challenge",
            "other_phase": "Event Challenge",
            "enemy2_phase": "Event Challenge",
            "player_battle": "Event Challenge",
            "enemy_battle": "Event Challenge",
            "other_battle": "Event Challenge",
            "enemy2_battle": "Event Challenge",
            "boss_battle": null
        },
        "objective": {
            "simple": "",
            "win": "",
            "loss": ""
        },
        "roam": false,
        "roam_unit": "Ennis",
        "go_to_overworld": false,
        "should_record": true,
        "tags": [],
        "units": [
            {
                "nid": "Ennis",
                "team": "player",
                "ai": "None",
                "roam_ai": null,
                "ai_group": null,
                "starting_position": [
                    8,
                    7
                ],
                "starting_traveler": null,
                "generic": false
            },
            {
                "nid": "Cormorant",
                "team": "player",
                "ai": "None",
                "roam_ai": null,
                "ai_group": null,
                "starting_position": [
                    10,
                    7
                ],
                "starting_traveler": null,
                "generic": false
            },
            {
                "nid": "Abeni",
                "team": "player",
                "ai": "None",
                "roam_ai": null,
                "ai_group": null,
                "starting_position": [
                    8,
                    9
                ],
                "starting_traveler": null,
                "generic": false
            },
            {
                "nid": "Thrant",
                "team": "player",
                "ai": "None",
                "roam_ai": null,
                "ai_group": null,
                "starting_position": [
                    10,
                    9
                ],
                "starting_traveler": null,
                "generic": false
            },
            {
                "nid": "Sadhbh",
                "team": "player",
                "ai": "None",
                "roam_ai": null,
                "ai_group": null,
                "starting_position": null,
                "starting_traveler": null,
                "generic": false
            },
            {
                "nid": "Lychee",
                "team": "player",
                "ai": "None",
                "roam_ai": null,
                "ai_group": null,
                "starting_position": null,
                "starting_traveler": null,
                "generic": false
            },
            {
                "nid": "Farl",
                "team": "player",
                "ai": "None",
                "roam_ai": null,
                "ai_group": null,
                "starting_position": null,
                "starting_traveler": null,
                "generic": false
            }
        ],
        "regions": [
            {
                "nid": "Formation (1)",
                "region_type": "formation",
                "position": [
                    8,
                    27
                ],
                "size": [
                    1,
                    1
                ],
                "sub_nid": "",
                "condition": "True",
                "time_left": null,
                "only_once": false,
                "interrupt_move": false
            },
            {
                "nid": "Formation (2)",
                "region_type": "formation",
                "position": [
                    10,
                    27
                ],
                "size": [
                    1,
                    1
                ],
                "sub_nid": null,
                "condition": "True",
                "time_left": null,
                "only_once": false,
                "interrupt_move": false
            },
            {
                "nid": "Formation (5)",
                "region_type": "formation",
                "position": [
                    2,
                    28
                ],
                "size": [
                    1,
                    1
                ],
                "sub_nid": null,
                "condition": "True",
                "time_left": null,
                "only_once": false,
                "interrupt_move": false
            },
            {
                "nid": "Formation (6)",
                "region_type": "formation",
                "position": [
                    16,
                    28
                ],
                "size": [
                    1,
                    1
                ],
                "sub_nid": null,
                "condition": "True",
                "time_left": null,
                "only_once": false,
                "interrupt_move": false
            },
            {
                "nid": "Formation (7)",
                "region_type": "formation",
                "position": [
                    15,
                    27
                ],
                "size": [
                    1,
                    1
                ],
                "sub_nid": null,
                "condition": "True",
                "time_left": null,
                "only_once": false,
                "interrupt_move": false
            },
            {
                "nid": "Formation (8)",
                "region_type": "formation",
                "position": [
                    17,
                    27
                ],
                "size": [
                    1,
                    1
                ],
                "sub_nid": null,
                "condition": "True",
                "time_left": null,
                "only_once": false,
                "interrupt_move": false
            },
            {
                "nid": "Formation (10)",
                "region_type": "formation",
                "position": [
                    1,
                    27
                ],
                "size": [
                    1,
                    1
                ],
                "sub_nid": null,
                "condition": "True",
                "time_left": null,
                "only_once": false,
                "interrupt_move": false
            },
            {
                "nid": "Formation (11)",
                "region_type": "formation",
                "position": [
                    3,
                    27
                ],
                "size": [
                    1,
                    1
                ],
                "sub_nid": null,
                "condition": "True",
                "time_left": null,
                "only_once": false,
                "interrupt_move": false
            },
            {
                "nid": "Formation (4)",
                "region_type": "formation",
                "position": [
                    5,
                    26
                ],
                "size": [
                    1,
                    1
                ],
                "sub_nid": null,
                "condition": "True",
                "time_left": null,
                "only_once": false,
                "interrupt_move": false
            },
            {
                "nid": "Formation (9)",
                "region_type": "formation",
                "position": [
                    13,
                    26
                ],
                "size": [
                    1,
                    1
                ],
                "sub_nid": "",
                "condition": "True",
                "time_left": null,
                "only_once": false,
                "interrupt_move": false
            },
            {
                "nid": "Break Barrier",
                "region_type": "event",
                "position": [
                    9,
                    8
                ],
                "size": [
                    1,
                    1
                ],
                "sub_nid": "Break Barrier",
                "condition": "True",
                "time_left": null,
                "only_once": false,
                "interrupt_move": false
            },
            {
                "nid": "Boon",
                "region_type": "event",
                "position": [
                    12,
                    20
                ],
                "size": [
                    1,
                    1
                ],
                "sub_nid": "Boon",
                "condition": "True",
                "time_left": null,
                "only_once": false,
                "interrupt_move": false
            }
        ],
        "unit_groups": [
            {
                "nid": "Outro",
                "units": [
                    "Cormorant",
                    "Abeni",
                    "Thrant",
                    "Ennis"
                ],
                "positions": {
                    "Cormorant": [
                        7,
                        27
                    ],
                    "Abeni": [
                        10,
                        26
                    ],
                    "Ennis": [
                        8,
                        26
                    ]
                }
            }
        ],
        "ai_groups": []
    }
]