[
    {
        "nid": "18_intro_1",
        "name": "Ch. 18: An Unlikely Alliance",
        "tilemap": "Chapter 15",
        "bg_tilemap": null,
        "party": "Ennis",
        "music": {
            "player_phase": "Event Challenge",
            "enemy_phase": "Event Challenge",
            "other_phase": "Event Challenge",
            "enemy2_phase": "Event Challenge",
            "player_battle": "Event Challenge",
            "enemy_battle": "Event Challenge",
            "other_battle": "Event Challenge",
            "enemy2_battle": "Event Challenge",
            "boss_battle": null
        },
        "objective": {
            "simple": "",
            "win": "",
            "loss": ""
        },
        "roam": false,
        "roam_unit": "Ennis",
        "go_to_overworld": false,
        "should_record": true,
        "tags": [],
        "units": [
            {
                "nid": "Ennis",
                "team": "player",
                "ai": "None",
                "roam_ai": null,
                "ai_group": null,
                "starting_position": [
                    8,
                    26
                ],
                "starting_traveler": null,
                "generic": false
            },
            {
                "nid": "Cormorant",
                "team": "player",
                "ai": "None",
                "roam_ai": null,
                "ai_group": null,
                "starting_position": [
                    11,
                    26
                ],
                "starting_traveler": null,
                "generic": false
            },
            {
                "nid": "Abeni",
                "team": "player",
                "ai": "None",
                "roam_ai": null,
                "ai_group": null,
                "starting_position": [
                    7,
                    27
                ],
                "starting_traveler": null,
                "generic": false
            },
            {
                "nid": "Sadhbh",
                "team": "player",
                "ai": "None",
                "roam_ai": null,
                "ai_group": null,
                "starting_position": null,
                "starting_traveler": null,
                "generic": false
            },
            {
                "nid": "Lychee",
                "team": "player",
                "ai": "None",
                "roam_ai": null,
                "ai_group": null,
                "starting_position": null,
                "starting_traveler": null,
                "generic": false
            },
            {
                "nid": "Farl",
                "team": "player",
                "ai": "None",
                "roam_ai": null,
                "ai_group": null,
                "starting_position": null,
                "starting_traveler": null,
                "generic": false
            },
            {
                "nid": "Tiberius_C18",
                "team": "other",
                "ai": "None",
                "roam_ai": null,
                "ai_group": "",
                "starting_position": null,
                "starting_traveler": null,
                "generic": false
            },
            {
                "nid": "Steel Fox_C18",
                "team": "other",
                "ai": "None",
                "roam_ai": null,
                "ai_group": "",
                "starting_position": null,
                "starting_traveler": null,
                "generic": false
            },
            {
                "nid": "101",
                "variant": null,
                "level": 1,
                "klass": "Paladin",
                "faction": "Possibility",
                "starting_items": [
                    [
                        "Iron Sword",
                        false
                    ]
                ],
                "starting_skills": [],
                "team": "other",
                "ai": "Berserk",
                "roam_ai": null,
                "ai_group": "",
                "starting_position": null,
                "starting_traveler": null,
                "generic": true
            },
            {
                "nid": "102",
                "variant": null,
                "level": 1,
                "klass": "Paladin",
                "faction": "Possibility",
                "starting_items": [
                    [
                        "Iron Sword",
                        false
                    ]
                ],
                "starting_skills": [],
                "team": "other",
                "ai": "Berserk",
                "roam_ai": null,
                "ai_group": "",
                "starting_position": null,
                "starting_traveler": null,
                "generic": true
            },
            {
                "nid": "103",
                "variant": null,
                "level": 1,
                "klass": "Paladin",
                "faction": "Possibility",
                "starting_items": [
                    [
                        "Iron Sword",
                        false
                    ]
                ],
                "starting_skills": [],
                "team": "other",
                "ai": "Berserk",
                "roam_ai": null,
                "ai_group": "",
                "starting_position": null,
                "starting_traveler": null,
                "generic": true
            },
            {
                "nid": "104",
                "variant": null,
                "level": 1,
                "klass": "Paladin",
                "faction": "Possibility",
                "starting_items": [
                    [
                        "Iron Sword",
                        false
                    ]
                ],
                "starting_skills": [],
                "team": "other",
                "ai": "Berserk",
                "roam_ai": null,
                "ai_group": "",
                "starting_position": null,
                "starting_traveler": null,
                "generic": true
            }
        ],
        "regions": [
            {
                "nid": "Formation (1)",
                "region_type": "formation",
                "position": [
                    8,
                    27
                ],
                "size": [
                    1,
                    1
                ],
                "sub_nid": "",
                "condition": "True",
                "time_left": null,
                "only_once": false,
                "interrupt_move": false
            },
            {
                "nid": "Formation (2)",
                "region_type": "formation",
                "position": [
                    10,
                    27
                ],
                "size": [
                    1,
                    1
                ],
                "sub_nid": null,
                "condition": "True",
                "time_left": null,
                "only_once": false,
                "interrupt_move": false
            },
            {
                "nid": "Formation (5)",
                "region_type": "formation",
                "position": [
                    2,
                    28
                ],
                "size": [
                    1,
                    1
                ],
                "sub_nid": null,
                "condition": "True",
                "time_left": null,
                "only_once": false,
                "interrupt_move": false
            },
            {
                "nid": "Formation (6)",
                "region_type": "formation",
                "position": [
                    16,
                    28
                ],
                "size": [
                    1,
                    1
                ],
                "sub_nid": null,
                "condition": "True",
                "time_left": null,
                "only_once": false,
                "interrupt_move": false
            },
            {
                "nid": "Formation (7)",
                "region_type": "formation",
                "position": [
                    15,
                    27
                ],
                "size": [
                    1,
                    1
                ],
                "sub_nid": null,
                "condition": "True",
                "time_left": null,
                "only_once": false,
                "interrupt_move": false
            },
            {
                "nid": "Formation (8)",
                "region_type": "formation",
                "position": [
                    17,
                    27
                ],
                "size": [
                    1,
                    1
                ],
                "sub_nid": null,
                "condition": "True",
                "time_left": null,
                "only_once": false,
                "interrupt_move": false
            },
            {
                "nid": "Formation (10)",
                "region_type": "formation",
                "position": [
                    1,
                    27
                ],
                "size": [
                    1,
                    1
                ],
                "sub_nid": null,
                "condition": "True",
                "time_left": null,
                "only_once": false,
                "interrupt_move": false
            },
            {
                "nid": "Formation (11)",
                "region_type": "formation",
                "position": [
                    3,
                    27
                ],
                "size": [
                    1,
                    1
                ],
                "sub_nid": null,
                "condition": "True",
                "time_left": null,
                "only_once": false,
                "interrupt_move": false
            },
            {
                "nid": "Formation (4)",
                "region_type": "formation",
                "position": [
                    5,
                    26
                ],
                "size": [
                    1,
                    1
                ],
                "sub_nid": null,
                "condition": "True",
                "time_left": null,
                "only_once": false,
                "interrupt_move": false
            },
            {
                "nid": "Formation (9)",
                "region_type": "formation",
                "position": [
                    13,
                    26
                ],
                "size": [
                    1,
                    1
                ],
                "sub_nid": "",
                "condition": "True",
                "time_left": null,
                "only_once": false,
                "interrupt_move": false
            },
            {
                "nid": "Break Barrier",
                "region_type": "event",
                "position": [
                    9,
                    8
                ],
                "size": [
                    1,
                    1
                ],
                "sub_nid": "Break Barrier",
                "condition": "True",
                "time_left": null,
                "only_once": false,
                "interrupt_move": false
            },
            {
                "nid": "Boon",
                "region_type": "event",
                "position": [
                    12,
                    20
                ],
                "size": [
                    1,
                    1
                ],
                "sub_nid": "Boon",
                "condition": "True",
                "time_left": null,
                "only_once": false,
                "interrupt_move": false
            }
        ],
        "unit_groups": [
            {
                "nid": "Tiberius",
                "units": [
                    "Tiberius_C18",
                    "Steel Fox_C18",
                    "101",
                    "102",
                    "103",
                    "104"
                ],
                "positions": {
                    "Tiberius_C18": [
                        9,
                        11
                    ],
                    "Steel Fox_C18": [
                        9,
                        10
                    ],
                    "101": [
                        7,
                        9
                    ],
                    "102": [
                        8,
                        9
                    ],
                    "103": [
                        10,
                        9
                    ],
                    "104": [
                        11,
                        9
                    ]
                }
            }
        ],
        "ai_groups": []
    }
]