[
    {
        "nid": "20c",
        "name": "Cutscene",
        "tilemap": "C20Intro",
        "bg_tilemap": "C20introBg",
        "party": "Legend of Fiachra",
        "music": {
            "player_phase": null,
            "enemy_phase": null,
            "other_phase": null,
            "enemy2_phase": null,
            "player_battle": null,
            "enemy_battle": null,
            "other_battle": null,
            "enemy2_battle": null,
            "boss_battle": null
        },
        "objective": {
            "simple": "Read",
            "win": "Read",
            "loss": "Fail to read"
        },
        "roam": false,
        "roam_unit": "AylaDemo",
        "go_to_overworld": false,
        "should_record": true,
        "tags": [],
        "units": [
            {
                "nid": "AylaTrue",
                "team": "player",
                "ai": "None",
                "roam_ai": null,
                "ai_group": null,
                "starting_position": [
                    6,
                    14
                ],
                "starting_traveler": null,
                "generic": false
            },
            {
                "nid": "101",
                "variant": null,
                "level": 1,
                "klass": "Shaman",
                "faction": "Possibility",
                "starting_items": [
                    [
                        "Iron Sword",
                        false
                    ]
                ],
                "starting_skills": [],
                "team": "player",
                "ai": "None",
                "roam_ai": null,
                "ai_group": null,
                "starting_position": null,
                "starting_traveler": null,
                "generic": true
            }
        ],
        "regions": [],
        "unit_groups": [],
        "ai_groups": []
    }
]