[
    {
        "nid": "21",
        "name": "Endgame: Indomitable Will",
        "tilemap": "Ch21",
        "bg_tilemap": "New Tilemap",
        "party": "Ennis",
        "music": {
            "player_phase": "Omega-3 Battle",
            "enemy_phase": null,
            "other_phase": "Omega-3 Battle",
            "enemy2_phase": "On9ReEita-Zu",
            "player_battle": "Dragon's Circle - Light and Dark-",
            "enemy_battle": null,
            "other_battle": "Dragon's Circle - Light and Dark-",
            "enemy2_battle": "Peacemaker's Wings",
            "boss_battle": null
        },
        "objective": {
            "simple": "Kill the Fake Suzerains!",
            "win": "Kill the Fake Suzerains!",
            "loss": "Cormorant dies."
        },
        "roam": false,
        "roam_unit": "Ennis",
        "go_to_overworld": false,
        "should_record": true,
        "tags": [
            "Gameplay_Map"
        ],
        "units": [
            {
                "nid": "Ennis",
                "team": "player",
                "ai": "None",
                "roam_ai": null,
                "ai_group": null,
                "starting_position": [
                    6,
                    29
                ],
                "starting_traveler": null,
                "generic": false
            },
            {
                "nid": "AylaTrue",
                "team": "player",
                "ai": "None",
                "roam_ai": null,
                "ai_group": null,
                "starting_position": [
                    5,
                    29
                ],
                "starting_traveler": null,
                "generic": false
            },
            {
                "nid": "Cormorant",
                "team": "player",
                "ai": "None",
                "roam_ai": null,
                "ai_group": null,
                "starting_position": [
                    17,
                    30
                ],
                "starting_traveler": null,
                "generic": false
            },
            {
                "nid": "Chronos",
                "team": "other",
                "ai": "None",
                "roam_ai": null,
                "ai_group": null,
                "starting_position": null,
                "starting_traveler": null,
                "generic": false
            },
            {
                "nid": "EnnisFake1",
                "team": "enemy2",
                "ai": "Guard",
                "roam_ai": null,
                "ai_group": null,
                "starting_position": null,
                "starting_traveler": null,
                "generic": false
            },
            {
                "nid": "EnnisFake2",
                "team": "enemy2",
                "ai": "Guard",
                "roam_ai": null,
                "ai_group": null,
                "starting_position": null,
                "starting_traveler": null,
                "generic": false
            },
            {
                "nid": "EnnisFake3",
                "team": "enemy2",
                "ai": "Guard",
                "roam_ai": null,
                "ai_group": null,
                "starting_position": null,
                "starting_traveler": null,
                "generic": false
            },
            {
                "nid": "EnnisFake4",
                "team": "enemy2",
                "ai": "Guard",
                "roam_ai": null,
                "ai_group": null,
                "starting_position": null,
                "starting_traveler": null,
                "generic": false
            },
            {
                "nid": "SuzerainC21",
                "team": "enemy2",
                "ai": "Guard",
                "roam_ai": null,
                "ai_group": null,
                "starting_position": [
                    16,
                    2
                ],
                "starting_traveler": null,
                "generic": false
            },
            {
                "nid": "LeftBoss",
                "variant": null,
                "level": 20,
                "klass": "CraftedGod",
                "faction": "Projection",
                "starting_items": [
                    [
                        "Fenrir",
                        true
                    ]
                ],
                "starting_skills": [
                    "Bulwark",
                    "Godly Aegis",
                    "Divine_Form"
                ],
                "team": "enemy2",
                "ai": "Guard",
                "roam_ai": null,
                "ai_group": null,
                "starting_position": [
                    9,
                    8
                ],
                "starting_traveler": null,
                "generic": true
            },
            {
                "nid": "SWBoss",
                "variant": null,
                "level": 20,
                "klass": "CraftedGod",
                "faction": "Projection",
                "starting_items": [
                    [
                        "Bolganone",
                        true
                    ]
                ],
                "starting_skills": [
                    "Bulwark",
                    "Godly Aegis",
                    "Divine_Vision"
                ],
                "team": "enemy2",
                "ai": "Guard",
                "roam_ai": null,
                "ai_group": null,
                "starting_position": [
                    6,
                    17
                ],
                "starting_traveler": null,
                "generic": true
            },
            {
                "nid": "RightBoss",
                "variant": null,
                "level": 20,
                "klass": "CraftedGod",
                "faction": "Projection",
                "starting_items": [
                    [
                        "Thoron",
                        true
                    ]
                ],
                "starting_skills": [
                    "Bulwark",
                    "Godly Aegis",
                    "Divine_Clairvoyance"
                ],
                "team": "enemy2",
                "ai": "Guard",
                "roam_ai": null,
                "ai_group": null,
                "starting_position": [
                    25,
                    10
                ],
                "starting_traveler": null,
                "generic": true
            },
            {
                "nid": "SEBoss",
                "variant": null,
                "level": 20,
                "klass": "CraftedGod",
                "faction": "Projection",
                "starting_items": [
                    [
                        "Aura",
                        true
                    ]
                ],
                "starting_skills": [
                    "Bulwark",
                    "Godly Aegis",
                    "Divine_Blessing"
                ],
                "team": "enemy2",
                "ai": "Guard",
                "roam_ai": null,
                "ai_group": null,
                "starting_position": [
                    28,
                    24
                ],
                "starting_traveler": null,
                "generic": true
            },
            {
                "nid": "101",
                "variant": null,
                "level": 15,
                "klass": "Paladin",
                "faction": "Projection",
                "starting_items": [
                    [
                        "Silver Sword",
                        false
                    ]
                ],
                "starting_skills": [],
                "team": "enemy2",
                "ai": "Attack",
                "roam_ai": null,
                "ai_group": "",
                "starting_position": [
                    6,
                    22
                ],
                "starting_traveler": null,
                "generic": true
            },
            {
                "nid": "102",
                "variant": null,
                "level": 15,
                "klass": "Paladin",
                "faction": "Projection",
                "starting_items": [
                    [
                        "Silver Lance",
                        false
                    ]
                ],
                "starting_skills": [],
                "team": "enemy2",
                "ai": "Attack",
                "roam_ai": null,
                "ai_group": null,
                "starting_position": [
                    12,
                    18
                ],
                "starting_traveler": null,
                "generic": true
            },
            {
                "nid": "103",
                "variant": null,
                "level": 15,
                "klass": "Paladin",
                "faction": "Projection",
                "starting_items": [
                    [
                        "Spear",
                        true
                    ],
                    [
                        "Silver Lance",
                        false
                    ]
                ],
                "starting_skills": [],
                "team": "enemy2",
                "ai": "Attack",
                "roam_ai": null,
                "ai_group": null,
                "starting_position": [
                    11,
                    28
                ],
                "starting_traveler": null,
                "generic": true
            },
            {
                "nid": "104",
                "variant": null,
                "level": 15,
                "klass": "Wyvern Lord",
                "faction": "Projection",
                "starting_items": [
                    [
                        "Silver Axe",
                        false
                    ]
                ],
                "starting_skills": [],
                "team": "enemy2",
                "ai": "Defend",
                "roam_ai": null,
                "ai_group": null,
                "starting_position": [
                    5,
                    5
                ],
                "starting_traveler": null,
                "generic": true
            },
            {
                "nid": "105",
                "variant": null,
                "level": 15,
                "klass": "Wyvern Knight",
                "faction": "Projection",
                "starting_items": [
                    [
                        "Magebane Lance",
                        false
                    ],
                    [
                        "Silver Lance",
                        false
                    ]
                ],
                "starting_skills": [],
                "team": "enemy2",
                "ai": "Defend",
                "roam_ai": null,
                "ai_group": null,
                "starting_position": [
                    33,
                    25
                ],
                "starting_traveler": null,
                "generic": true
            },
            {
                "nid": "106",
                "variant": null,
                "level": 15,
                "klass": "Wyvern Lord",
                "faction": "Projection",
                "starting_items": [
                    [
                        "Tomahawk",
                        false
                    ],
                    [
                        "Brave Axe",
                        false
                    ]
                ],
                "starting_skills": [],
                "team": "enemy2",
                "ai": "Defend",
                "roam_ai": null,
                "ai_group": "",
                "starting_position": [
                    26,
                    5
                ],
                "starting_traveler": null,
                "generic": true
            },
            {
                "nid": "107",
                "variant": null,
                "level": 17,
                "klass": "General",
                "faction": "Projection",
                "starting_items": [
                    [
                        "Wind Sword",
                        false
                    ]
                ],
                "starting_skills": [
                    "Godly Bulwark"
                ],
                "team": "enemy2",
                "ai": "Guard",
                "roam_ai": null,
                "ai_group": "",
                "starting_position": [
                    15,
                    9
                ],
                "starting_traveler": null,
                "generic": true
            },
            {
                "nid": "108",
                "variant": null,
                "level": 17,
                "klass": "General",
                "faction": "Projection",
                "starting_items": [
                    [
                        "Tomahawk",
                        false
                    ]
                ],
                "starting_skills": [
                    "Godly Bulwark"
                ],
                "team": "enemy2",
                "ai": "Guard",
                "roam_ai": null,
                "ai_group": "",
                "starting_position": [
                    17,
                    9
                ],
                "starting_traveler": null,
                "generic": true
            },
            {
                "nid": "109",
                "variant": null,
                "level": 17,
                "klass": "General",
                "faction": "Projection",
                "starting_items": [
                    [
                        "Spear",
                        false
                    ]
                ],
                "starting_skills": [
                    "Godly Bulwark"
                ],
                "team": "enemy2",
                "ai": "Guard",
                "roam_ai": null,
                "ai_group": "",
                "starting_position": [
                    16,
                    9
                ],
                "starting_traveler": null,
                "generic": true
            },
            {
                "nid": "110",
                "variant": null,
                "level": 15,
                "klass": "Swordmaster",
                "faction": "Projection",
                "starting_items": [
                    [
                        "Killing Edge",
                        false
                    ]
                ],
                "starting_skills": [],
                "team": "enemy2",
                "ai": "Attack",
                "roam_ai": null,
                "ai_group": null,
                "starting_position": [
                    7,
                    12
                ],
                "starting_traveler": null,
                "generic": true
            },
            {
                "nid": "111",
                "variant": null,
                "level": 15,
                "klass": "Warrior",
                "faction": "Projection",
                "starting_items": [
                    [
                        "Antimana Axe",
                        true
                    ]
                ],
                "starting_skills": [],
                "team": "enemy2",
                "ai": "Attack",
                "roam_ai": null,
                "ai_group": null,
                "starting_position": [
                    23,
                    31
                ],
                "starting_traveler": null,
                "generic": true
            },
            {
                "nid": "112",
                "variant": null,
                "level": 15,
                "klass": "Druid",
                "faction": "Projection",
                "starting_items": [
                    [
                        "Fenrir",
                        false
                    ]
                ],
                "starting_skills": [],
                "team": "enemy2",
                "ai": "Attack",
                "roam_ai": null,
                "ai_group": null,
                "starting_position": [
                    10,
                    10
                ],
                "starting_traveler": null,
                "generic": true
            },
            {
                "nid": "113",
                "variant": null,
                "level": 15,
                "klass": "Halberdier",
                "faction": "Projection",
                "starting_items": [
                    [
                        "Silver Lance",
                        false
                    ]
                ],
                "starting_skills": [],
                "team": "enemy2",
                "ai": "Attack",
                "roam_ai": null,
                "ai_group": null,
                "starting_position": [
                    28,
                    28
                ],
                "starting_traveler": null,
                "generic": true
            },
            {
                "nid": "114",
                "variant": null,
                "level": 15,
                "klass": "Valkyrie",
                "faction": "Projection",
                "starting_items": [
                    [
                        "Aura",
                        false
                    ]
                ],
                "starting_skills": [],
                "team": "enemy2",
                "ai": "Attack",
                "roam_ai": null,
                "ai_group": null,
                "starting_position": [
                    33,
                    11
                ],
                "starting_traveler": null,
                "generic": true
            },
            {
                "nid": "115",
                "variant": null,
                "level": 15,
                "klass": "Berserker",
                "faction": "Projection",
                "starting_items": [
                    [
                        "Reaper",
                        false
                    ]
                ],
                "starting_skills": [],
                "team": "enemy2",
                "ai": "Attack",
                "roam_ai": null,
                "ai_group": null,
                "starting_position": [
                    6,
                    20
                ],
                "starting_traveler": null,
                "generic": true
            },
            {
                "nid": "116",
                "variant": null,
                "level": 15,
                "klass": "Hero",
                "faction": "Projection",
                "starting_items": [
                    [
                        "Silver Sword",
                        false
                    ]
                ],
                "starting_skills": [],
                "team": "enemy2",
                "ai": "Attack",
                "roam_ai": null,
                "ai_group": null,
                "starting_position": [
                    10,
                    30
                ],
                "starting_traveler": null,
                "generic": true
            },
            {
                "nid": "117",
                "variant": null,
                "level": 15,
                "klass": "Sage",
                "faction": "Projection",
                "starting_items": [
                    [
                        "Fimbulvetr",
                        false
                    ]
                ],
                "starting_skills": [],
                "team": "enemy2",
                "ai": "Attack",
                "roam_ai": null,
                "ai_group": null,
                "starting_position": [
                    3,
                    29
                ],
                "starting_traveler": null,
                "generic": true
            },
            {
                "nid": "118",
                "variant": null,
                "level": 15,
                "klass": "Sage",
                "faction": "Projection",
                "starting_items": [
                    [
                        "Bolganone",
                        false
                    ]
                ],
                "starting_skills": [],
                "team": "enemy2",
                "ai": "Attack",
                "roam_ai": null,
                "ai_group": null,
                "starting_position": [
                    29,
                    12
                ],
                "starting_traveler": null,
                "generic": true
            },
            {
                "nid": "119",
                "variant": null,
                "level": 15,
                "klass": "Sage",
                "faction": "Projection",
                "starting_items": [
                    [
                        "Thoron",
                        false
                    ]
                ],
                "starting_skills": [],
                "team": "enemy2",
                "ai": "Attack",
                "roam_ai": null,
                "ai_group": null,
                "starting_position": [
                    8,
                    19
                ],
                "starting_traveler": null,
                "generic": true
            },
            {
                "nid": "120",
                "variant": null,
                "level": 17,
                "klass": "Sniper",
                "faction": "Projection",
                "starting_items": [
                    [
                        "Longbow",
                        false
                    ]
                ],
                "starting_skills": [
                    "Godly Bulwark"
                ],
                "team": "enemy2",
                "ai": "Defend",
                "roam_ai": null,
                "ai_group": "FBoss1",
                "starting_position": [
                    16,
                    5
                ],
                "starting_traveler": null,
                "generic": true
            },
            {
                "nid": "121",
                "variant": null,
                "level": 15,
                "klass": "Ranger",
                "faction": "Projection",
                "starting_items": [
                    [
                        "Longbow",
                        false
                    ]
                ],
                "starting_skills": [],
                "team": "enemy2",
                "ai": "Attack",
                "roam_ai": null,
                "ai_group": null,
                "starting_position": null,
                "starting_traveler": null,
                "generic": true
            },
            {
                "nid": "122",
                "variant": null,
                "level": 15,
                "klass": "Ranger",
                "faction": "Projection",
                "starting_items": [
                    [
                        "Longbow",
                        false
                    ]
                ],
                "starting_skills": [],
                "team": "enemy2",
                "ai": "Attack",
                "roam_ai": null,
                "ai_group": null,
                "starting_position": [
                    22,
                    28
                ],
                "starting_traveler": null,
                "generic": true
            },
            {
                "nid": "123",
                "variant": null,
                "level": 15,
                "klass": "Great_Knight",
                "faction": "Projection",
                "starting_items": [
                    [
                        "Tomahawk",
                        false
                    ],
                    [
                        "Silver Lance",
                        false
                    ]
                ],
                "starting_skills": [],
                "team": "enemy2",
                "ai": "Attack",
                "roam_ai": null,
                "ai_group": "",
                "starting_position": [
                    30,
                    30
                ],
                "starting_traveler": null,
                "generic": true
            },
            {
                "nid": "124",
                "variant": null,
                "level": 15,
                "klass": "Mage Knight",
                "faction": "Projection",
                "starting_items": [
                    [
                        "Bolganone",
                        false
                    ]
                ],
                "starting_skills": [],
                "team": "enemy2",
                "ai": "Attack",
                "roam_ai": null,
                "ai_group": "",
                "starting_position": [
                    25,
                    18
                ],
                "starting_traveler": null,
                "generic": true
            },
            {
                "nid": "125",
                "variant": null,
                "level": 15,
                "klass": "Bishop",
                "faction": "Projection",
                "starting_items": [
                    [
                        "Aura",
                        false
                    ],
                    [
                        "Berserk",
                        false
                    ]
                ],
                "starting_skills": [],
                "team": "enemy2",
                "ai": "SleepGuard",
                "roam_ai": null,
                "ai_group": null,
                "starting_position": [
                    28,
                    9
                ],
                "starting_traveler": null,
                "generic": true
            },
            {
                "nid": "126",
                "variant": null,
                "level": 15,
                "klass": "Falcoknight",
                "faction": "Projection",
                "starting_items": [
                    [
                        "Silver Lance",
                        false
                    ]
                ],
                "starting_skills": [],
                "team": "enemy2",
                "ai": "Attack",
                "roam_ai": null,
                "ai_group": null,
                "starting_position": [
                    0,
                    17
                ],
                "starting_traveler": null,
                "generic": true
            },
            {
                "nid": "127",
                "variant": null,
                "level": 15,
                "klass": "Falcoknight",
                "faction": "Projection",
                "starting_items": [
                    [
                        "Spear",
                        false
                    ]
                ],
                "starting_skills": [],
                "team": "enemy2",
                "ai": "Attack",
                "roam_ai": null,
                "ai_group": null,
                "starting_position": null,
                "starting_traveler": null,
                "generic": true
            },
            {
                "nid": "128",
                "variant": null,
                "level": 15,
                "klass": "General",
                "faction": "Projection",
                "starting_items": [
                    [
                        "Spear",
                        false
                    ]
                ],
                "starting_skills": [],
                "team": "enemy2",
                "ai": "Defend",
                "roam_ai": null,
                "ai_group": "",
                "starting_position": [
                    24,
                    14
                ],
                "starting_traveler": null,
                "generic": true
            },
            {
                "nid": "129",
                "variant": null,
                "level": 15,
                "klass": "General",
                "faction": "Projection",
                "starting_items": [
                    [
                        "Tomahawk",
                        false
                    ]
                ],
                "starting_skills": [],
                "team": "enemy2",
                "ai": "Defend",
                "roam_ai": null,
                "ai_group": "",
                "starting_position": [
                    25,
                    14
                ],
                "starting_traveler": null,
                "generic": true
            },
            {
                "nid": "130",
                "variant": null,
                "level": 15,
                "klass": "Warrior",
                "faction": "Projection",
                "starting_items": [
                    [
                        "ButcherAxe",
                        false
                    ]
                ],
                "starting_skills": [],
                "team": "enemy2",
                "ai": "Attack",
                "roam_ai": null,
                "ai_group": "",
                "starting_position": [
                    11,
                    12
                ],
                "starting_traveler": null,
                "generic": true
            },
            {
                "nid": "131",
                "variant": null,
                "level": 15,
                "klass": "Warrior",
                "faction": "Projection",
                "starting_items": [
                    [
                        "Silver Axe",
                        false
                    ]
                ],
                "starting_skills": [],
                "team": "enemy2",
                "ai": "Attack",
                "roam_ai": null,
                "ai_group": null,
                "starting_position": [
                    19,
                    21
                ],
                "starting_traveler": null,
                "generic": true
            },
            {
                "nid": "132",
                "variant": null,
                "level": 15,
                "klass": "Warrior",
                "faction": "Projection",
                "starting_items": [
                    [
                        "Swordslayer",
                        false
                    ]
                ],
                "starting_skills": [],
                "team": "enemy2",
                "ai": "Attack",
                "roam_ai": null,
                "ai_group": null,
                "starting_position": [
                    21,
                    19
                ],
                "starting_traveler": null,
                "generic": true
            },
            {
                "nid": "133",
                "variant": null,
                "level": 15,
                "klass": "Bishop",
                "faction": "Projection",
                "starting_items": [
                    [
                        "Aura",
                        false
                    ],
                    [
                        "Physic",
                        false
                    ]
                ],
                "starting_skills": [],
                "team": "enemy2",
                "ai": "StationaryHeal",
                "roam_ai": null,
                "ai_group": null,
                "starting_position": [
                    10,
                    4
                ],
                "starting_traveler": null,
                "generic": true
            },
            {
                "nid": "134",
                "variant": null,
                "level": 15,
                "klass": "Druid",
                "faction": "Projection",
                "starting_items": [
                    [
                        "Luna",
                        false
                    ]
                ],
                "starting_skills": [],
                "team": "enemy2",
                "ai": "Attack",
                "roam_ai": null,
                "ai_group": null,
                "starting_position": null,
                "starting_traveler": null,
                "generic": true
            },
            {
                "nid": "135",
                "variant": null,
                "level": 15,
                "klass": "Valkyrie",
                "faction": "Projection",
                "starting_items": [
                    [
                        "Aura",
                        false
                    ]
                ],
                "starting_skills": [],
                "team": "enemy2",
                "ai": "Attack",
                "roam_ai": null,
                "ai_group": "",
                "starting_position": null,
                "starting_traveler": null,
                "generic": true
            },
            {
                "nid": "136",
                "variant": null,
                "level": 15,
                "klass": "Valkyrie",
                "faction": "Projection",
                "starting_items": [
                    [
                        "Aura",
                        false
                    ]
                ],
                "starting_skills": [],
                "team": "enemy2",
                "ai": "Attack",
                "roam_ai": null,
                "ai_group": "",
                "starting_position": [
                    4,
                    8
                ],
                "starting_traveler": null,
                "generic": true
            },
            {
                "nid": "137",
                "variant": null,
                "level": 15,
                "klass": "War Cleric",
                "faction": "Projection",
                "starting_items": [
                    [
                        "Bolt Axe",
                        false
                    ]
                ],
                "starting_skills": [],
                "team": "enemy2",
                "ai": "Attack",
                "roam_ai": null,
                "ai_group": "",
                "starting_position": [
                    6,
                    7
                ],
                "starting_traveler": null,
                "generic": true
            },
            {
                "nid": "138",
                "variant": null,
                "level": 15,
                "klass": "Great_Knight",
                "faction": "Projection",
                "starting_items": [
                    [
                        "Tomahawk",
                        false
                    ]
                ],
                "starting_skills": [],
                "team": "enemy2",
                "ai": "Defend",
                "roam_ai": null,
                "ai_group": null,
                "starting_position": [
                    5,
                    24
                ],
                "starting_traveler": null,
                "generic": true
            },
            {
                "nid": "139",
                "variant": null,
                "level": 15,
                "klass": "Great_Knight",
                "faction": "Projection",
                "starting_items": [
                    [
                        "Spear",
                        false
                    ]
                ],
                "starting_skills": [],
                "team": "enemy2",
                "ai": "Defend",
                "roam_ai": null,
                "ai_group": null,
                "starting_position": [
                    7,
                    24
                ],
                "starting_traveler": null,
                "generic": true
            },
            {
                "nid": "140",
                "variant": null,
                "level": 15,
                "klass": "Sniper",
                "faction": "Projection",
                "starting_items": [
                    [
                        "Silver Bow",
                        false
                    ]
                ],
                "starting_skills": [],
                "team": "enemy2",
                "ai": "Attack",
                "roam_ai": null,
                "ai_group": null,
                "starting_position": [
                    24,
                    22
                ],
                "starting_traveler": null,
                "generic": true
            },
            {
                "nid": "141",
                "variant": null,
                "level": 15,
                "klass": "Sniper",
                "faction": "Projection",
                "starting_items": [
                    [
                        "Silver Bow",
                        false
                    ]
                ],
                "starting_skills": [],
                "team": "enemy2",
                "ai": "Attack",
                "roam_ai": null,
                "ai_group": null,
                "starting_position": [
                    9,
                    6
                ],
                "starting_traveler": null,
                "generic": true
            },
            {
                "nid": "142",
                "variant": null,
                "level": 15,
                "klass": "Sniper",
                "faction": "Projection",
                "starting_items": [
                    [
                        "Longbow",
                        false
                    ]
                ],
                "starting_skills": [],
                "team": "enemy2",
                "ai": "Attack",
                "roam_ai": null,
                "ai_group": null,
                "starting_position": [
                    13,
                    21
                ],
                "starting_traveler": null,
                "generic": true
            },
            {
                "nid": "143",
                "variant": null,
                "level": 15,
                "klass": "Sniper",
                "faction": "Projection",
                "starting_items": [
                    [
                        "Silver Bow",
                        false
                    ]
                ],
                "starting_skills": [],
                "team": "enemy2",
                "ai": "Attack",
                "roam_ai": null,
                "ai_group": "",
                "starting_position": [
                    29,
                    7
                ],
                "starting_traveler": null,
                "generic": true
            },
            {
                "nid": "144",
                "variant": null,
                "level": 15,
                "klass": "Hero",
                "faction": "Projection",
                "starting_items": [
                    [
                        "Silver Axe",
                        false
                    ]
                ],
                "starting_skills": [],
                "team": "enemy2",
                "ai": "Attack",
                "roam_ai": null,
                "ai_group": null,
                "starting_position": [
                    13,
                    9
                ],
                "starting_traveler": null,
                "generic": true
            },
            {
                "nid": "145",
                "variant": null,
                "level": 15,
                "klass": "Hero",
                "faction": "Projection",
                "starting_items": [
                    [
                        "Tomahawk",
                        false
                    ]
                ],
                "starting_skills": [],
                "team": "enemy2",
                "ai": "Attack",
                "roam_ai": null,
                "ai_group": null,
                "starting_position": [
                    16,
                    18
                ],
                "starting_traveler": null,
                "generic": true
            },
            {
                "nid": "146",
                "variant": null,
                "level": 15,
                "klass": "Hero",
                "faction": "Projection",
                "starting_items": [
                    [
                        "Silver Blade",
                        false
                    ]
                ],
                "starting_skills": [],
                "team": "enemy2",
                "ai": "Attack",
                "roam_ai": null,
                "ai_group": null,
                "starting_position": [
                    20,
                    15
                ],
                "starting_traveler": null,
                "generic": true
            },
            {
                "nid": "147",
                "variant": null,
                "level": 15,
                "klass": "Swordmaster",
                "faction": "Projection",
                "starting_items": [
                    [
                        "Silver Sword",
                        false
                    ]
                ],
                "starting_skills": [],
                "team": "enemy2",
                "ai": "Attack",
                "roam_ai": null,
                "ai_group": "",
                "starting_position": [
                    19,
                    9
                ],
                "starting_traveler": null,
                "generic": true
            },
            {
                "nid": "148",
                "variant": null,
                "level": 15,
                "klass": "Swordmaster",
                "faction": "Projection",
                "starting_items": [
                    [
                        "Runesword",
                        false
                    ]
                ],
                "starting_skills": [],
                "team": "enemy2",
                "ai": "Attack",
                "roam_ai": null,
                "ai_group": "",
                "starting_position": [
                    23,
                    8
                ],
                "starting_traveler": null,
                "generic": true
            },
            {
                "nid": "149",
                "variant": null,
                "level": 15,
                "klass": "Ranger",
                "faction": "Projection",
                "starting_items": [
                    [
                        "Killer Bow",
                        false
                    ]
                ],
                "starting_skills": [],
                "team": "enemy2",
                "ai": "Attack",
                "roam_ai": null,
                "ai_group": null,
                "starting_position": [
                    33,
                    14
                ],
                "starting_traveler": null,
                "generic": true
            },
            {
                "nid": "150",
                "variant": null,
                "level": 15,
                "klass": "Paladin",
                "faction": "Projection",
                "starting_items": [
                    [
                        "Spear",
                        false
                    ]
                ],
                "starting_skills": [],
                "team": "enemy2",
                "ai": "Attack",
                "roam_ai": null,
                "ai_group": null,
                "starting_position": [
                    16,
                    10
                ],
                "starting_traveler": null,
                "generic": true
            },
            {
                "nid": "153",
                "variant": null,
                "level": 15,
                "klass": "Sage",
                "faction": "Projection",
                "starting_items": [
                    [
                        "Fimbulvetr",
                        false
                    ]
                ],
                "starting_skills": [],
                "team": "enemy2",
                "ai": "Defend",
                "roam_ai": null,
                "ai_group": "",
                "starting_position": [
                    15,
                    11
                ],
                "starting_traveler": null,
                "generic": true
            },
            {
                "nid": "154",
                "variant": null,
                "level": 15,
                "klass": "Sage",
                "faction": "Projection",
                "starting_items": [
                    [
                        "Thoron",
                        false
                    ]
                ],
                "starting_skills": [],
                "team": "enemy2",
                "ai": "Defend",
                "roam_ai": null,
                "ai_group": null,
                "starting_position": [
                    17,
                    11
                ],
                "starting_traveler": null,
                "generic": true
            },
            {
                "nid": "155",
                "variant": null,
                "level": 15,
                "klass": "Paladin",
                "faction": "Projection",
                "starting_items": [
                    [
                        "Silver Sword",
                        false
                    ]
                ],
                "starting_skills": [],
                "team": "enemy2",
                "ai": "Attack",
                "roam_ai": null,
                "ai_group": "",
                "starting_position": [
                    32,
                    21
                ],
                "starting_traveler": null,
                "generic": true
            },
            {
                "nid": "156",
                "variant": null,
                "level": 15,
                "klass": "Paladin",
                "faction": "Projection",
                "starting_items": [
                    [
                        "Spear",
                        false
                    ]
                ],
                "starting_skills": [],
                "team": "enemy2",
                "ai": "Attack",
                "roam_ai": null,
                "ai_group": "",
                "starting_position": [
                    16,
                    13
                ],
                "starting_traveler": null,
                "generic": true
            },
            {
                "nid": "157",
                "variant": null,
                "level": 15,
                "klass": "Paladin",
                "faction": "Projection",
                "starting_items": [
                    [
                        "Silver Lance",
                        false
                    ]
                ],
                "starting_skills": [],
                "team": "enemy2",
                "ai": "Attack",
                "roam_ai": null,
                "ai_group": "",
                "starting_position": [
                    22,
                    4
                ],
                "starting_traveler": null,
                "generic": true
            },
            {
                "nid": "158",
                "variant": null,
                "level": 15,
                "klass": "Druid",
                "faction": "Projection",
                "starting_items": [
                    [
                        "Eclipse",
                        true
                    ],
                    [
                        "Fenrir",
                        false
                    ]
                ],
                "starting_skills": [
                    "Godly Projection"
                ],
                "team": "enemy2",
                "ai": "Guard",
                "roam_ai": null,
                "ai_group": null,
                "starting_position": null,
                "starting_traveler": null,
                "generic": true
            },
            {
                "nid": "159",
                "variant": null,
                "level": 15,
                "klass": "Bishop",
                "faction": "Projection",
                "starting_items": [
                    [
                        "Purge",
                        true
                    ],
                    [
                        "Aura",
                        false
                    ]
                ],
                "starting_skills": [
                    "Godly Projection"
                ],
                "team": "enemy2",
                "ai": "Guard",
                "roam_ai": null,
                "ai_group": null,
                "starting_position": null,
                "starting_traveler": null,
                "generic": true
            },
            {
                "nid": "160",
                "variant": null,
                "level": 15,
                "klass": "Berserker",
                "faction": "Projection",
                "starting_items": [
                    [
                        "Tomahawk",
                        false
                    ],
                    [
                        "Killer Axe",
                        false
                    ]
                ],
                "starting_skills": [],
                "team": "enemy2",
                "ai": "Attack",
                "roam_ai": null,
                "ai_group": "",
                "starting_position": [
                    22,
                    11
                ],
                "starting_traveler": null,
                "generic": true
            },
            {
                "nid": "161",
                "variant": null,
                "level": 15,
                "klass": "Assassin",
                "faction": "Projection",
                "starting_items": [
                    [
                        "Silver Dagger",
                        false
                    ],
                    [
                        "Killing Edge",
                        false
                    ]
                ],
                "starting_skills": [],
                "team": "enemy2",
                "ai": "Attack",
                "roam_ai": null,
                "ai_group": "",
                "starting_position": null,
                "starting_traveler": null,
                "generic": true
            },
            {
                "nid": "162",
                "variant": null,
                "level": 15,
                "klass": "Sniper",
                "faction": "Projection",
                "starting_items": [
                    [
                        "Killer Bow",
                        false
                    ]
                ],
                "starting_skills": [],
                "team": "enemy2",
                "ai": "Attack",
                "roam_ai": null,
                "ai_group": "",
                "starting_position": [
                    2,
                    12
                ],
                "starting_traveler": null,
                "generic": true
            },
            {
                "nid": "163",
                "variant": null,
                "level": 15,
                "klass": "Wyvern Knight",
                "faction": "Projection",
                "starting_items": [
                    [
                        "Brave Sword",
                        false
                    ]
                ],
                "starting_skills": [
                    "Godly Projection"
                ],
                "team": "enemy2",
                "ai": "Attack",
                "roam_ai": null,
                "ai_group": "",
                "starting_position": null,
                "starting_traveler": null,
                "generic": true
            },
            {
                "nid": "164",
                "variant": null,
                "level": 15,
                "klass": "Falcoknight",
                "faction": "Projection",
                "starting_items": [
                    [
                        "Spear",
                        false
                    ]
                ],
                "starting_skills": [
                    "Godly Projection"
                ],
                "team": "enemy2",
                "ai": "Pursue",
                "roam_ai": null,
                "ai_group": null,
                "starting_position": null,
                "starting_traveler": null,
                "generic": true
            },
            {
                "nid": "165",
                "variant": null,
                "level": 15,
                "klass": "Falcoknight",
                "faction": "Projection",
                "starting_items": [
                    [
                        "Killing Edge",
                        false
                    ]
                ],
                "starting_skills": [
                    "Godly Projection"
                ],
                "team": "enemy2",
                "ai": "Pursue",
                "roam_ai": null,
                "ai_group": null,
                "starting_position": null,
                "starting_traveler": null,
                "generic": true
            },
            {
                "nid": "166",
                "variant": null,
                "level": 15,
                "klass": "Falcoknight",
                "faction": "Projection",
                "starting_items": [
                    [
                        "Brave Lance",
                        false
                    ]
                ],
                "starting_skills": [
                    "Godly Projection"
                ],
                "team": "enemy2",
                "ai": "Pursue",
                "roam_ai": null,
                "ai_group": null,
                "starting_position": null,
                "starting_traveler": null,
                "generic": true
            },
            {
                "nid": "167",
                "variant": null,
                "level": 15,
                "klass": "Falcoknight",
                "faction": "Projection",
                "starting_items": [
                    [
                        "Spear",
                        false
                    ]
                ],
                "starting_skills": [
                    "Godly Projection"
                ],
                "team": "enemy2",
                "ai": "Pursue",
                "roam_ai": null,
                "ai_group": null,
                "starting_position": null,
                "starting_traveler": null,
                "generic": true
            },
            {
                "nid": "168",
                "variant": null,
                "level": 15,
                "klass": "Falcoknight",
                "faction": "Projection",
                "starting_items": [
                    [
                        "Killing Edge",
                        false
                    ]
                ],
                "starting_skills": [
                    "Godly Projection"
                ],
                "team": "enemy2",
                "ai": "Pursue",
                "roam_ai": null,
                "ai_group": null,
                "starting_position": null,
                "starting_traveler": null,
                "generic": true
            },
            {
                "nid": "169",
                "variant": null,
                "level": 15,
                "klass": "Falcoknight",
                "faction": "Projection",
                "starting_items": [
                    [
                        "Brave Sword",
                        false
                    ]
                ],
                "starting_skills": [
                    "Godly Projection"
                ],
                "team": "enemy2",
                "ai": "Pursue",
                "roam_ai": null,
                "ai_group": null,
                "starting_position": null,
                "starting_traveler": null,
                "generic": true
            },
            {
                "nid": "170",
                "variant": null,
                "level": 15,
                "klass": "Wyvern Lord",
                "faction": "Projection",
                "starting_items": [
                    [
                        "Tomahawk",
                        false
                    ]
                ],
                "starting_skills": [],
                "team": "enemy2",
                "ai": "Pursue",
                "roam_ai": null,
                "ai_group": null,
                "starting_position": null,
                "starting_traveler": null,
                "generic": true
            },
            {
                "nid": "171",
                "variant": null,
                "level": 15,
                "klass": "Wyvern Knight",
                "faction": "Projection",
                "starting_items": [
                    [
                        "Killer Lance",
                        false
                    ]
                ],
                "starting_skills": [],
                "team": "enemy2",
                "ai": "Pursue",
                "roam_ai": null,
                "ai_group": null,
                "starting_position": null,
                "starting_traveler": null,
                "generic": true
            },
            {
                "nid": "172",
                "variant": null,
                "level": 15,
                "klass": "Wyvern Lord",
                "faction": "Projection",
                "starting_items": [
                    [
                        "Killer Axe",
                        false
                    ]
                ],
                "starting_skills": [],
                "team": "enemy2",
                "ai": "Pursue",
                "roam_ai": null,
                "ai_group": null,
                "starting_position": null,
                "starting_traveler": null,
                "generic": true
            },
            {
                "nid": "173",
                "variant": null,
                "level": 15,
                "klass": "Wyvern Knight",
                "faction": "Projection",
                "starting_items": [
                    [
                        "Spear",
                        false
                    ]
                ],
                "starting_skills": [],
                "team": "enemy2",
                "ai": "Pursue",
                "roam_ai": null,
                "ai_group": null,
                "starting_position": null,
                "starting_traveler": null,
                "generic": true
            },
            {
                "nid": "b174_1",
                "variant": null,
                "level": 17,
                "klass": "Sage",
                "faction": "Projection",
                "starting_items": [
                    [
                        "Bolganone",
                        false
                    ]
                ],
                "starting_skills": [
                    "Godly Bulwark"
                ],
                "team": "enemy2",
                "ai": "Attack",
                "roam_ai": null,
                "ai_group": null,
                "starting_position": null,
                "starting_traveler": null,
                "generic": true
            },
            {
                "nid": "b174_2",
                "variant": null,
                "level": 17,
                "klass": "Sage",
                "faction": "Projection",
                "starting_items": [
                    [
                        "Fimbulvetr",
                        false
                    ]
                ],
                "starting_skills": [
                    "Godly Bulwark"
                ],
                "team": "enemy2",
                "ai": "Attack",
                "roam_ai": null,
                "ai_group": null,
                "starting_position": null,
                "starting_traveler": null,
                "generic": true
            },
            {
                "nid": "b174_3",
                "variant": null,
                "level": 17,
                "klass": "Bishop",
                "faction": "Projection",
                "starting_items": [
                    [
                        "Silence",
                        false
                    ],
                    [
                        "Aura",
                        false
                    ]
                ],
                "starting_skills": [
                    "Godly Projection"
                ],
                "team": "enemy2",
                "ai": "Attack",
                "roam_ai": null,
                "ai_group": null,
                "starting_position": [
                    15,
                    4
                ],
                "starting_traveler": null,
                "generic": true
            },
            {
                "nid": "b174_4",
                "variant": null,
                "level": 17,
                "klass": "Bishop",
                "faction": "Projection",
                "starting_items": [
                    [
                        "Aura",
                        false
                    ]
                ],
                "starting_skills": [
                    "Godly Bulwark"
                ],
                "team": "enemy2",
                "ai": "Attack",
                "roam_ai": null,
                "ai_group": null,
                "starting_position": null,
                "starting_traveler": null,
                "generic": true
            },
            {
                "nid": "b174_5",
                "variant": null,
                "level": 17,
                "klass": "Bishop",
                "faction": "Projection",
                "starting_items": [
                    [
                        "Freeze",
                        false
                    ],
                    [
                        "Aura",
                        false
                    ]
                ],
                "starting_skills": [
                    "Godly Projection"
                ],
                "team": "enemy2",
                "ai": "Attack",
                "roam_ai": null,
                "ai_group": null,
                "starting_position": [
                    17,
                    4
                ],
                "starting_traveler": null,
                "generic": true
            },
            {
                "nid": "b174_6",
                "variant": null,
                "level": 17,
                "klass": "Druid",
                "faction": "Projection",
                "starting_items": [
                    [
                        "Nosferatu",
                        false
                    ]
                ],
                "starting_skills": [
                    "Godly Bulwark"
                ],
                "team": "enemy2",
                "ai": "Attack",
                "roam_ai": null,
                "ai_group": null,
                "starting_position": null,
                "starting_traveler": null,
                "generic": true
            },
            {
                "nid": "b174_7",
                "variant": null,
                "level": 17,
                "klass": "Druid",
                "faction": "Projection",
                "starting_items": [
                    [
                        "Fenrir",
                        false
                    ]
                ],
                "starting_skills": [
                    "Godly Bulwark"
                ],
                "team": "enemy2",
                "ai": "Attack",
                "roam_ai": null,
                "ai_group": null,
                "starting_position": null,
                "starting_traveler": null,
                "generic": true
            },
            {
                "nid": "b174_8",
                "variant": null,
                "level": 17,
                "klass": "Druid",
                "faction": "Projection",
                "starting_items": [
                    [
                        "Luna",
                        false
                    ]
                ],
                "starting_skills": [
                    "Godly Bulwark"
                ],
                "team": "enemy2",
                "ai": "Attack",
                "roam_ai": null,
                "ai_group": null,
                "starting_position": null,
                "starting_traveler": null,
                "generic": true
            },
            {
                "nid": "b174_9",
                "variant": null,
                "level": 17,
                "klass": "Falcoknight",
                "faction": "Projection",
                "starting_items": [
                    [
                        "Magebane Lance",
                        false
                    ]
                ],
                "starting_skills": [
                    "Godly Projection"
                ],
                "team": "enemy2",
                "ai": "Pursue",
                "roam_ai": null,
                "ai_group": null,
                "starting_position": null,
                "starting_traveler": null,
                "generic": true
            },
            {
                "nid": "b174_10",
                "variant": null,
                "level": 17,
                "klass": "Falcoknight",
                "faction": "Projection",
                "starting_items": [
                    [
                        "Brave Sword",
                        false
                    ]
                ],
                "starting_skills": [
                    "Godly Projection"
                ],
                "team": "enemy2",
                "ai": "Pursue",
                "roam_ai": null,
                "ai_group": null,
                "starting_position": null,
                "starting_traveler": null,
                "generic": true
            },
            {
                "nid": "b174_11",
                "variant": null,
                "level": 17,
                "klass": "Falcoknight",
                "faction": "Projection",
                "starting_items": [
                    [
                        "Killer Lance",
                        false
                    ]
                ],
                "starting_skills": [
                    "Godly Projection"
                ],
                "team": "enemy2",
                "ai": "Pursue",
                "roam_ai": null,
                "ai_group": null,
                "starting_position": null,
                "starting_traveler": null,
                "generic": true
            },
            {
                "nid": "b174_12",
                "variant": null,
                "level": 17,
                "klass": "Wyvern Lord",
                "faction": "Projection",
                "starting_items": [
                    [
                        "Tomahawk",
                        false
                    ]
                ],
                "starting_skills": [
                    "Godly Projection"
                ],
                "team": "enemy2",
                "ai": "Pursue",
                "roam_ai": null,
                "ai_group": null,
                "starting_position": null,
                "starting_traveler": null,
                "generic": true
            },
            {
                "nid": "b174_13",
                "variant": null,
                "level": 17,
                "klass": "Wyvern Knight",
                "faction": "Projection",
                "starting_items": [
                    [
                        "Horseslayer",
                        false
                    ],
                    [
                        "Heavy Spear",
                        false
                    ]
                ],
                "starting_skills": [
                    "Godly Projection"
                ],
                "team": "enemy2",
                "ai": "Pursue",
                "roam_ai": null,
                "ai_group": null,
                "starting_position": null,
                "starting_traveler": null,
                "generic": true
            },
            {
                "nid": "b174_14",
                "variant": null,
                "level": 17,
                "klass": "Wyvern Lord",
                "faction": "Projection",
                "starting_items": [
                    [
                        "Dragon Axe",
                        false
                    ]
                ],
                "starting_skills": [
                    "Godly Projection"
                ],
                "team": "enemy2",
                "ai": "Pursue",
                "roam_ai": null,
                "ai_group": null,
                "starting_position": null,
                "starting_traveler": null,
                "generic": true
            },
            {
                "nid": "175",
                "variant": null,
                "level": 15,
                "klass": "Paladin",
                "faction": "Projection",
                "starting_items": [
                    [
                        "Spear",
                        false
                    ]
                ],
                "starting_skills": [
                    "Godly Projection"
                ],
                "team": "enemy2",
                "ai": "Pursue",
                "roam_ai": null,
                "ai_group": null,
                "starting_position": null,
                "starting_traveler": null,
                "generic": true
            },
            {
                "nid": "176",
                "variant": null,
                "level": 15,
                "klass": "Paladin",
                "faction": "Projection",
                "starting_items": [
                    [
                        "Silver Sword",
                        false
                    ]
                ],
                "starting_skills": [
                    "Godly Projection"
                ],
                "team": "enemy2",
                "ai": "Pursue",
                "roam_ai": null,
                "ai_group": null,
                "starting_position": null,
                "starting_traveler": null,
                "generic": true
            },
            {
                "nid": "177",
                "variant": null,
                "level": 15,
                "klass": "Paladin",
                "faction": "Projection",
                "starting_items": [
                    [
                        "Brave Sword",
                        false
                    ]
                ],
                "starting_skills": [
                    "Godly Projection"
                ],
                "team": "enemy2",
                "ai": "Pursue",
                "roam_ai": null,
                "ai_group": null,
                "starting_position": null,
                "starting_traveler": null,
                "generic": true
            },
            {
                "nid": "178",
                "variant": null,
                "level": 15,
                "klass": "Paladin",
                "faction": "Projection",
                "starting_items": [
                    [
                        "Axereaver",
                        false
                    ]
                ],
                "starting_skills": [
                    "Godly Projection"
                ],
                "team": "enemy2",
                "ai": "Pursue",
                "roam_ai": null,
                "ai_group": null,
                "starting_position": null,
                "starting_traveler": null,
                "generic": true
            }
        ],
        "regions": [
            {
                "nid": "0_1",
                "region_type": "formation",
                "position": [
                    14,
                    30
                ],
                "size": [
                    1,
                    1
                ],
                "sub_nid": "",
                "condition": "True",
                "time_left": null,
                "only_once": false,
                "interrupt_move": false
            },
            {
                "nid": "0_3",
                "region_type": "formation",
                "position": [
                    15,
                    31
                ],
                "size": [
                    1,
                    1
                ],
                "sub_nid": "",
                "condition": "True",
                "time_left": null,
                "only_once": false,
                "interrupt_move": false
            },
            {
                "nid": "0_4",
                "region_type": "formation",
                "position": [
                    14,
                    32
                ],
                "size": [
                    1,
                    1
                ],
                "sub_nid": "",
                "condition": "True",
                "time_left": null,
                "only_once": false,
                "interrupt_move": false
            },
            {
                "nid": "0_5",
                "region_type": "formation",
                "position": [
                    13,
                    31
                ],
                "size": [
                    1,
                    1
                ],
                "sub_nid": "",
                "condition": "True",
                "time_left": null,
                "only_once": false,
                "interrupt_move": false
            },
            {
                "nid": "0_7",
                "region_type": "formation",
                "position": [
                    19,
                    31
                ],
                "size": [
                    1,
                    1
                ],
                "sub_nid": "",
                "condition": "True",
                "time_left": null,
                "only_once": false,
                "interrupt_move": false
            },
            {
                "nid": "0_8",
                "region_type": "formation",
                "position": [
                    20,
                    32
                ],
                "size": [
                    1,
                    1
                ],
                "sub_nid": "",
                "condition": "True",
                "time_left": null,
                "only_once": false,
                "interrupt_move": false
            },
            {
                "nid": "0_9",
                "region_type": "formation",
                "position": [
                    21,
                    31
                ],
                "size": [
                    1,
                    1
                ],
                "sub_nid": "",
                "condition": "True",
                "time_left": null,
                "only_once": false,
                "interrupt_move": false
            },
            {
                "nid": "0_10",
                "region_type": "formation",
                "position": [
                    20,
                    30
                ],
                "size": [
                    1,
                    1
                ],
                "sub_nid": "",
                "condition": "True",
                "time_left": null,
                "only_once": false,
                "interrupt_move": false
            },
            {
                "nid": "0_12",
                "region_type": "formation",
                "position": [
                    15,
                    29
                ],
                "size": [
                    1,
                    1
                ],
                "sub_nid": "",
                "condition": "True",
                "time_left": null,
                "only_once": false,
                "interrupt_move": false
            },
            {
                "nid": "0_13",
                "region_type": "formation",
                "position": [
                    14,
                    28
                ],
                "size": [
                    1,
                    1
                ],
                "sub_nid": "",
                "condition": "True",
                "time_left": null,
                "only_once": false,
                "interrupt_move": false
            },
            {
                "nid": "0_14",
                "region_type": "formation",
                "position": [
                    13,
                    29
                ],
                "size": [
                    1,
                    1
                ],
                "sub_nid": "",
                "condition": "True",
                "time_left": null,
                "only_once": false,
                "interrupt_move": false
            },
            {
                "nid": "0_16",
                "region_type": "formation",
                "position": [
                    19,
                    29
                ],
                "size": [
                    1,
                    1
                ],
                "sub_nid": "",
                "condition": "True",
                "time_left": null,
                "only_once": false,
                "interrupt_move": false
            },
            {
                "nid": "0_17",
                "region_type": "formation",
                "position": [
                    20,
                    28
                ],
                "size": [
                    1,
                    1
                ],
                "sub_nid": "",
                "condition": "True",
                "time_left": null,
                "only_once": false,
                "interrupt_move": false
            },
            {
                "nid": "0_18",
                "region_type": "formation",
                "position": [
                    21,
                    29
                ],
                "size": [
                    1,
                    1
                ],
                "sub_nid": "",
                "condition": "True",
                "time_left": null,
                "only_once": false,
                "interrupt_move": false
            }
        ],
        "unit_groups": [
            {
                "nid": "Rein 7",
                "units": [
                    "164",
                    "165",
                    "166",
                    "167",
                    "168",
                    "169"
                ],
                "positions": {
                    "164": [
                        1,
                        33
                    ],
                    "165": [
                        2,
                        33
                    ],
                    "166": [
                        14,
                        0
                    ],
                    "167": [
                        18,
                        0
                    ],
                    "168": [
                        33,
                        33
                    ],
                    "169": [
                        34,
                        33
                    ]
                }
            },
            {
                "nid": "Rein 6",
                "units": [
                    "158",
                    "159",
                    "163"
                ],
                "positions": {
                    "159": [
                        6,
                        3
                    ],
                    "158": [
                        26,
                        3
                    ],
                    "163": null
                }
            },
            {
                "nid": "P2Rein1Warp",
                "units": [
                    "b174_1",
                    "b174_2",
                    "b174_4",
                    "b174_6",
                    "b174_7",
                    "b174_8"
                ],
                "positions": {
                    "b174_1": [
                        14,
                        6
                    ],
                    "b174_2": [
                        18,
                        6
                    ],
                    "b174_4": [
                        15,
                        7
                    ],
                    "b174_6": [
                        17,
                        7
                    ],
                    "b174_7": [
                        18,
                        5
                    ],
                    "b174_8": [
                        14,
                        5
                    ]
                }
            },
            {
                "nid": "P2ReinFly",
                "units": [
                    "b174_9",
                    "b174_10",
                    "b174_11",
                    "b174_12",
                    "b174_13",
                    "b174_14"
                ],
                "positions": {
                    "b174_9": [
                        0,
                        2
                    ],
                    "b174_10": [
                        0,
                        3
                    ],
                    "b174_11": [
                        12,
                        0
                    ],
                    "b174_12": [
                        20,
                        0
                    ],
                    "b174_13": [
                        35,
                        7
                    ],
                    "b174_14": [
                        35,
                        8
                    ]
                }
            },
            {
                "nid": "StartingGroupA",
                "units": [
                    "LeftBoss",
                    "SWBoss",
                    "RightBoss",
                    "SEBoss",
                    "101",
                    "102",
                    "103",
                    "104",
                    "105",
                    "110",
                    "111",
                    "112",
                    "113",
                    "114",
                    "115",
                    "116",
                    "117",
                    "118",
                    "119",
                    "121",
                    "122",
                    "123",
                    "124",
                    "125",
                    "126",
                    "127",
                    "128",
                    "129",
                    "130"
                ],
                "positions": {
                    "121": null,
                    "125": null,
                    "124": null,
                    "114": null,
                    "RightBoss": null,
                    "113": null,
                    "102": null,
                    "103": null,
                    "122": null,
                    "111": null,
                    "118": null,
                    "119": null,
                    "116": null,
                    "130": null,
                    "104": null,
                    "LeftBoss": null,
                    "127": null,
                    "129": null,
                    "SWBoss": null,
                    "101": null,
                    "110": null,
                    "123": null,
                    "128": null,
                    "117": null,
                    "SEBoss": null,
                    "115": null,
                    "112": null,
                    "126": null,
                    "105": null
                }
            },
            {
                "nid": "StartingGroupB",
                "units": [
                    "131",
                    "132",
                    "133",
                    "134",
                    "135",
                    "136",
                    "137",
                    "138",
                    "139",
                    "140",
                    "141",
                    "142",
                    "143",
                    "144",
                    "146",
                    "147",
                    "148",
                    "149",
                    "150",
                    "153",
                    "154",
                    "155",
                    "156",
                    "157",
                    "160",
                    "161",
                    "162",
                    "145"
                ],
                "positions": {
                    "133": null,
                    "148": null,
                    "132": null,
                    "157": null,
                    "131": null,
                    "138": null,
                    "134": null,
                    "156": null,
                    "161": null,
                    "137": null,
                    "142": null,
                    "146": null,
                    "135": null,
                    "155": null,
                    "147": null,
                    "143": null,
                    "160": null,
                    "150": null,
                    "136": null,
                    "140": null,
                    "153": null,
                    "145": null,
                    "139": null,
                    "141": null,
                    "149": null,
                    "154": null,
                    "144": null,
                    "162": null
                }
            },
            {
                "nid": "FBossGroup",
                "units": [
                    "106",
                    "107",
                    "108",
                    "109",
                    "120"
                ],
                "positions": {
                    "120": null,
                    "106": null,
                    "109": null,
                    "108": null,
                    "107": null
                }
            },
            {
                "nid": "Rein4",
                "units": [
                    "175",
                    "176",
                    "177",
                    "178"
                ],
                "positions": {
                    "175": [
                        0,
                        16
                    ],
                    "176": [
                        35,
                        16
                    ],
                    "177": [
                        10,
                        0
                    ],
                    "178": [
                        22,
                        0
                    ]
                }
            }
        ],
        "ai_groups": [
            {
                "nid": "FBoss1",
                "trigger_threshold": 1
            }
        ]
    }
]