[
    {
        "nid": "5",
        "name": "Ch. 5: Forest Ruins",
        "tilemap": "Forest Ruins",
        "bg_tilemap": null,
        "party": "Ennis",
        "music": {
            "player_phase": "Dusk Falls",
            "enemy_phase": "Dusk Falls",
            "other_phase": "Dusk Falls",
            "enemy2_phase": "Dusk Falls",
            "player_battle": "Dusk Falls",
            "enemy_battle": "Dusk Falls",
            "other_battle": "Dusk Falls",
            "enemy2_battle": "Dusk Falls",
            "boss_battle": null
        },
        "objective": {
            "simple": "Seize",
            "win": "Seize",
            "loss": "Ennis or Cormorant dies"
        },
        "roam": false,
        "roam_unit": "Ennis",
        "go_to_overworld": true,
        "should_record": true,
        "tags": [
            "Gameplay_Map"
        ],
        "units": [
            {
                "nid": "Ennis",
                "team": "player",
                "ai": "None",
                "roam_ai": null,
                "ai_group": null,
                "starting_position": [
                    11,
                    15
                ],
                "starting_traveler": null,
                "generic": false
            },
            {
                "nid": "Cormorant",
                "team": "player",
                "ai": "None",
                "roam_ai": null,
                "ai_group": null,
                "starting_position": [
                    7,
                    15
                ],
                "starting_traveler": null,
                "generic": false
            },
            {
                "nid": "Accipiter",
                "team": "enemy2",
                "ai": "Go to Cormorant",
                "roam_ai": null,
                "ai_group": null,
                "starting_position": null,
                "starting_traveler": null,
                "generic": false
            },
            {
                "nid": "Shoebill",
                "team": "enemy2",
                "ai": "Guard",
                "roam_ai": null,
                "ai_group": null,
                "starting_position": [
                    23,
                    3
                ],
                "starting_traveler": null,
                "generic": false
            },
            {
                "nid": "101",
                "variant": null,
                "level": 12,
                "klass": "Lance_Knight",
                "faction": "Cult",
                "starting_items": [
                    [
                        "Axereaver",
                        true
                    ]
                ],
                "starting_skills": [],
                "team": "enemy2",
                "ai": "Defend",
                "roam_ai": null,
                "ai_group": null,
                "starting_position": [
                    1,
                    4
                ],
                "starting_traveler": null,
                "generic": true
            },
            {
                "nid": "107",
                "variant": null,
                "level": 5,
                "klass": "Lance_Knight",
                "faction": "Cult",
                "starting_items": [
                    [
                        "Steel Lance",
                        false
                    ],
                    [
                        "Javelin",
                        false
                    ]
                ],
                "starting_skills": [],
                "team": "enemy2",
                "ai": "Guard",
                "roam_ai": null,
                "ai_group": null,
                "starting_position": [
                    8,
                    10
                ],
                "starting_traveler": null,
                "generic": true
            },
            {
                "nid": "112",
                "variant": null,
                "level": 5,
                "klass": "Lance_Knight",
                "faction": "Cult",
                "starting_items": [
                    [
                        "Steel Lance",
                        false
                    ],
                    [
                        "Javelin",
                        false
                    ],
                    [
                        "Door Key",
                        true
                    ]
                ],
                "starting_skills": [],
                "team": "enemy2",
                "ai": "Guard",
                "roam_ai": null,
                "ai_group": null,
                "starting_position": [
                    5,
                    6
                ],
                "starting_traveler": null,
                "generic": true
            },
            {
                "nid": "102",
                "variant": null,
                "level": 6,
                "klass": "Cavalier",
                "faction": "Cult",
                "starting_items": [
                    [
                        "Steel Lance",
                        false
                    ]
                ],
                "starting_skills": [],
                "team": "enemy2",
                "ai": "Pursue",
                "roam_ai": null,
                "ai_group": null,
                "starting_position": [
                    13,
                    7
                ],
                "starting_traveler": null,
                "generic": true
            },
            {
                "nid": "104",
                "variant": "Sword",
                "level": 6,
                "klass": "Cavalier",
                "faction": "Cult",
                "starting_items": [
                    [
                        "Steel Blade",
                        false
                    ]
                ],
                "starting_skills": [],
                "team": "enemy2",
                "ai": "Pursue",
                "roam_ai": null,
                "ai_group": null,
                "starting_position": [
                    15,
                    7
                ],
                "starting_traveler": null,
                "generic": true
            },
            {
                "nid": "105",
                "variant": null,
                "level": 6,
                "klass": "Fighter",
                "faction": "Cult",
                "starting_items": [
                    [
                        "Halberd",
                        true
                    ]
                ],
                "starting_skills": [],
                "team": "enemy2",
                "ai": "Attack",
                "roam_ai": null,
                "ai_group": "",
                "starting_position": [
                    8,
                    3
                ],
                "starting_traveler": null,
                "generic": true
            },
            {
                "nid": "119",
                "variant": null,
                "level": 6,
                "klass": "Fighter",
                "faction": "Cult",
                "starting_items": [
                    [
                        "Hand Axe",
                        false
                    ]
                ],
                "starting_skills": [],
                "team": "enemy2",
                "ai": "Attack",
                "roam_ai": null,
                "ai_group": "",
                "starting_position": [
                    9,
                    3
                ],
                "starting_traveler": null,
                "generic": true
            },
            {
                "nid": "111",
                "variant": null,
                "level": 6,
                "klass": "Fighter",
                "faction": "Cult",
                "starting_items": [
                    [
                        "Iron Axe",
                        false
                    ]
                ],
                "starting_skills": [],
                "team": "enemy2",
                "ai": "Defend",
                "roam_ai": null,
                "ai_group": "",
                "starting_position": [
                    4,
                    9
                ],
                "starting_traveler": null,
                "generic": true
            },
            {
                "nid": "106",
                "variant": null,
                "level": 6,
                "klass": "Fighter",
                "faction": "Cult",
                "starting_items": [
                    [
                        "Hand Axe",
                        false
                    ]
                ],
                "starting_skills": [],
                "team": "enemy2",
                "ai": "Defend",
                "roam_ai": null,
                "ai_group": "",
                "starting_position": [
                    3,
                    9
                ],
                "starting_traveler": null,
                "generic": true
            },
            {
                "nid": "108",
                "variant": null,
                "level": 6,
                "klass": "Cavalier",
                "faction": "Cult",
                "starting_items": [
                    [
                        "Iron Lance",
                        false
                    ]
                ],
                "starting_skills": [],
                "team": "enemy2",
                "ai": "Defend",
                "roam_ai": null,
                "ai_group": "NorthAggro",
                "starting_position": [
                    24,
                    4
                ],
                "starting_traveler": null,
                "generic": true
            },
            {
                "nid": "109",
                "variant": "Sword",
                "level": 6,
                "klass": "Cavalier",
                "faction": "Cult",
                "starting_items": [
                    [
                        "Steel Sword",
                        false
                    ]
                ],
                "starting_skills": [],
                "team": "enemy2",
                "ai": "Defend",
                "roam_ai": null,
                "ai_group": "NorthAggro",
                "starting_position": [
                    22,
                    4
                ],
                "starting_traveler": null,
                "generic": true
            },
            {
                "nid": "135",
                "variant": null,
                "level": 5,
                "klass": "Cavalier",
                "faction": "Cult",
                "starting_items": [
                    [
                        "Horseslayer",
                        false
                    ]
                ],
                "starting_skills": [],
                "team": "enemy2",
                "ai": "Defend",
                "roam_ai": null,
                "ai_group": "NorthAggro",
                "starting_position": [
                    22,
                    2
                ],
                "starting_traveler": null,
                "generic": true
            },
            {
                "nid": "110",
                "variant": null,
                "level": 5,
                "klass": "Lance_Knight",
                "faction": "Cult",
                "starting_items": [
                    [
                        "Javelin",
                        false
                    ],
                    [
                        "Steel Lance",
                        false
                    ]
                ],
                "starting_skills": [],
                "team": "enemy2",
                "ai": "Guard",
                "roam_ai": null,
                "ai_group": null,
                "starting_position": [
                    9,
                    10
                ],
                "starting_traveler": null,
                "generic": true
            },
            {
                "nid": "140",
                "variant": "Sword",
                "level": 6,
                "klass": "Cavalier",
                "faction": "Cult",
                "starting_items": [
                    [
                        "Steel Sword",
                        false
                    ]
                ],
                "starting_skills": [],
                "team": "enemy2",
                "ai": "PursuePlayer",
                "roam_ai": null,
                "ai_group": "WestAggro",
                "starting_position": [
                    0,
                    12
                ],
                "starting_traveler": null,
                "generic": true
            },
            {
                "nid": "141",
                "variant": null,
                "level": 6,
                "klass": "Cavalier",
                "faction": "Cult",
                "starting_items": [
                    [
                        "Iron Lance",
                        false
                    ]
                ],
                "starting_skills": [],
                "team": "enemy2",
                "ai": "PursuePlayer",
                "roam_ai": null,
                "ai_group": "WestAggro",
                "starting_position": [
                    0,
                    11
                ],
                "starting_traveler": null,
                "generic": true
            },
            {
                "nid": "123",
                "variant": null,
                "level": 8,
                "klass": "Archer",
                "faction": "Cult",
                "starting_items": [
                    [
                        "Iron Bow",
                        false
                    ],
                    [
                        "Vulnerary",
                        true
                    ]
                ],
                "starting_skills": [],
                "team": "enemy2",
                "ai": "Defend",
                "roam_ai": null,
                "ai_group": null,
                "starting_position": [
                    20,
                    9
                ],
                "starting_traveler": null,
                "generic": true
            },
            {
                "nid": "134",
                "variant": null,
                "level": 6,
                "klass": "Archer",
                "faction": "Cult",
                "starting_items": [
                    [
                        "Iron Bow",
                        false
                    ],
                    [
                        "Vulnerary",
                        false
                    ]
                ],
                "starting_skills": [],
                "team": "enemy2",
                "ai": "Attack",
                "roam_ai": null,
                "ai_group": null,
                "starting_position": [
                    14,
                    12
                ],
                "starting_traveler": null,
                "generic": true
            },
            {
                "nid": "126",
                "variant": null,
                "level": 6,
                "klass": "Archer",
                "faction": "Cult",
                "starting_items": [
                    [
                        "Longbow",
                        false
                    ],
                    [
                        "Vulnerary",
                        false
                    ]
                ],
                "starting_skills": [],
                "team": "enemy2",
                "ai": "Guard",
                "roam_ai": null,
                "ai_group": null,
                "starting_position": [
                    5,
                    4
                ],
                "starting_traveler": null,
                "generic": true
            },
            {
                "nid": "124",
                "variant": null,
                "level": 8,
                "klass": "Archer",
                "faction": "Cult",
                "starting_items": [
                    [
                        "Longbow",
                        false
                    ],
                    [
                        "Vulnerary",
                        false
                    ]
                ],
                "starting_skills": [],
                "team": "enemy2",
                "ai": "Defend",
                "roam_ai": null,
                "ai_group": null,
                "starting_position": [
                    20,
                    5
                ],
                "starting_traveler": null,
                "generic": true
            },
            {
                "nid": "118",
                "variant": null,
                "level": 5,
                "klass": "Mage",
                "faction": "Cult",
                "starting_items": [
                    [
                        "Manablast",
                        true
                    ]
                ],
                "starting_skills": [],
                "team": "enemy2",
                "ai": "Guard",
                "roam_ai": null,
                "ai_group": "",
                "starting_position": [
                    4,
                    4
                ],
                "starting_traveler": null,
                "generic": true
            },
            {
                "nid": "125",
                "variant": null,
                "level": 6,
                "klass": "Mage",
                "faction": "Cult",
                "starting_items": [
                    [
                        "Thunder",
                        false
                    ]
                ],
                "starting_skills": [],
                "team": "enemy2",
                "ai": "Attack",
                "roam_ai": null,
                "ai_group": "",
                "starting_position": [
                    23,
                    11
                ],
                "starting_traveler": null,
                "generic": true
            },
            {
                "nid": "149",
                "variant": null,
                "level": 6,
                "klass": "Mage",
                "faction": "Cult",
                "starting_items": [
                    [
                        "Thunder",
                        false
                    ]
                ],
                "starting_skills": [],
                "team": "enemy2",
                "ai": "Defend",
                "roam_ai": null,
                "ai_group": "",
                "starting_position": [
                    2,
                    6
                ],
                "starting_traveler": null,
                "generic": true
            },
            {
                "nid": "142",
                "variant": null,
                "level": 8,
                "klass": "Mercenary",
                "faction": "Cult",
                "starting_items": [
                    [
                        "Lancereaver",
                        false
                    ]
                ],
                "starting_skills": [],
                "team": "enemy2",
                "ai": "Defend",
                "roam_ai": null,
                "ai_group": null,
                "starting_position": [
                    2,
                    7
                ],
                "starting_traveler": null,
                "generic": true
            },
            {
                "nid": "120",
                "variant": null,
                "level": 7,
                "klass": "Mercenary",
                "faction": "Cult",
                "starting_items": [
                    [
                        "Iron Blade",
                        false
                    ]
                ],
                "starting_skills": [],
                "team": "enemy2",
                "ai": "Attack",
                "roam_ai": null,
                "ai_group": null,
                "starting_position": [
                    22,
                    11
                ],
                "starting_traveler": null,
                "generic": true
            },
            {
                "nid": "121",
                "variant": null,
                "level": 7,
                "klass": "Mercenary",
                "faction": "Cult",
                "starting_items": [
                    [
                        "Iron Blade",
                        false
                    ]
                ],
                "starting_skills": [],
                "team": "enemy2",
                "ai": "Attack",
                "roam_ai": null,
                "ai_group": null,
                "starting_position": [
                    7,
                    12
                ],
                "starting_traveler": null,
                "generic": true
            },
            {
                "nid": "131",
                "variant": null,
                "level": 7,
                "klass": "Mercenary",
                "faction": "Cult",
                "starting_items": [
                    [
                        "Iron Blade",
                        false
                    ]
                ],
                "starting_skills": [],
                "team": "enemy2",
                "ai": "Attack",
                "roam_ai": null,
                "ai_group": null,
                "starting_position": [
                    15,
                    13
                ],
                "starting_traveler": null,
                "generic": true
            },
            {
                "nid": "114",
                "variant": null,
                "level": 7,
                "klass": "Wyvern Rider",
                "faction": "Cult",
                "starting_items": [
                    [
                        "Steel Lance",
                        false
                    ]
                ],
                "starting_skills": [],
                "team": "enemy2",
                "ai": "PursuePlayer",
                "roam_ai": null,
                "ai_group": null,
                "starting_position": [
                    18,
                    17
                ],
                "starting_traveler": null,
                "generic": true
            },
            {
                "nid": "115",
                "variant": null,
                "level": 6,
                "klass": "Wyvern Rider",
                "faction": "Cult",
                "starting_items": [
                    [
                        "Steel Lance",
                        false
                    ]
                ],
                "starting_skills": [],
                "team": "enemy2",
                "ai": "PursuePlayer",
                "roam_ai": null,
                "ai_group": null,
                "starting_position": [
                    20,
                    17
                ],
                "starting_traveler": null,
                "generic": true
            },
            {
                "nid": "117",
                "variant": null,
                "level": 6,
                "klass": "Shaman",
                "faction": "Cult",
                "starting_items": [
                    [
                        "Flux",
                        false
                    ]
                ],
                "starting_skills": [],
                "team": "enemy2",
                "ai": "Attack",
                "roam_ai": null,
                "ai_group": null,
                "starting_position": [
                    19,
                    3
                ],
                "starting_traveler": null,
                "generic": true
            },
            {
                "nid": "132",
                "variant": null,
                "level": 6,
                "klass": "Shaman",
                "faction": "Cult",
                "starting_items": [
                    [
                        "Flux",
                        false
                    ]
                ],
                "starting_skills": [],
                "team": "enemy2",
                "ai": "Attack",
                "roam_ai": null,
                "ai_group": null,
                "starting_position": [
                    10,
                    12
                ],
                "starting_traveler": null,
                "generic": true
            },
            {
                "nid": "128",
                "variant": null,
                "level": 8,
                "klass": "Shaman",
                "faction": "Cult",
                "starting_items": [
                    [
                        "Nosferatu",
                        true
                    ]
                ],
                "starting_skills": [],
                "team": "enemy2",
                "ai": "Defend",
                "roam_ai": null,
                "ai_group": null,
                "starting_position": [
                    14,
                    7
                ],
                "starting_traveler": null,
                "generic": true
            },
            {
                "nid": "127",
                "variant": null,
                "level": 5,
                "klass": "Myrmidon",
                "faction": "Cult",
                "starting_items": [
                    [
                        "Wind Sword",
                        true
                    ]
                ],
                "starting_skills": [],
                "team": "enemy2",
                "ai": "Attack",
                "roam_ai": null,
                "ai_group": null,
                "starting_position": [
                    23,
                    5
                ],
                "starting_traveler": null,
                "generic": true
            },
            {
                "nid": "137",
                "variant": null,
                "level": 8,
                "klass": "Myrmidon",
                "faction": "Cult",
                "starting_items": [
                    [
                        "Killing Edge",
                        false
                    ],
                    [
                        "Red Gem",
                        true
                    ]
                ],
                "starting_skills": [],
                "team": "enemy2",
                "ai": "Defend",
                "roam_ai": null,
                "ai_group": null,
                "starting_position": [
                    14,
                    6
                ],
                "starting_traveler": null,
                "generic": true
            },
            {
                "nid": "130",
                "variant": null,
                "level": 6,
                "klass": "Myrmidon",
                "faction": "Cult",
                "starting_items": [
                    [
                        "Steel Sword",
                        false
                    ]
                ],
                "starting_skills": [],
                "team": "enemy2",
                "ai": "Attack",
                "roam_ai": null,
                "ai_group": null,
                "starting_position": [
                    9,
                    12
                ],
                "starting_traveler": null,
                "generic": true
            },
            {
                "nid": "129",
                "variant": null,
                "level": 6,
                "klass": "Cleric",
                "faction": "Cult",
                "starting_items": [
                    [
                        "Physic",
                        false
                    ],
                    [
                        "Heal",
                        false
                    ],
                    [
                        "Talisman",
                        false
                    ]
                ],
                "starting_skills": [],
                "team": "enemy2",
                "ai": "Heal",
                "roam_ai": null,
                "ai_group": null,
                "starting_position": [
                    8,
                    1
                ],
                "starting_traveler": null,
                "generic": true
            },
            {
                "nid": "150",
                "variant": null,
                "level": 4,
                "klass": "Cleric",
                "faction": "Cult",
                "starting_items": [
                    [
                        "Heal",
                        false
                    ]
                ],
                "starting_skills": [],
                "team": "enemy2",
                "ai": "Heal",
                "roam_ai": null,
                "ai_group": null,
                "starting_position": [
                    22,
                    7
                ],
                "starting_traveler": null,
                "generic": true
            },
            {
                "nid": "Dullahan",
                "team": "enemy2",
                "ai": "Guard",
                "roam_ai": null,
                "ai_group": null,
                "starting_position": [
                    14,
                    4
                ],
                "starting_traveler": null,
                "generic": false
            },
            {
                "nid": "133",
                "variant": null,
                "level": 1,
                "klass": "Arch_Mogall",
                "faction": "Monster",
                "starting_items": [
                    [
                        "Evil Eye",
                        false
                    ]
                ],
                "starting_skills": [],
                "team": "enemy2",
                "ai": "Guard",
                "roam_ai": null,
                "ai_group": null,
                "starting_position": [
                    23,
                    0
                ],
                "starting_traveler": null,
                "generic": true
            },
            {
                "nid": "138",
                "variant": "Sword",
                "level": 6,
                "klass": "Cavalier",
                "faction": "Cult",
                "starting_items": [
                    [
                        "Steel Sword",
                        false
                    ]
                ],
                "starting_skills": [],
                "team": "enemy2",
                "ai": "Pursue",
                "roam_ai": null,
                "ai_group": "WestAggroReinf",
                "starting_position": null,
                "starting_traveler": null,
                "generic": true
            },
            {
                "nid": "139",
                "variant": null,
                "level": 6,
                "klass": "Cavalier",
                "faction": "Cult",
                "starting_items": [
                    [
                        "Iron Lance",
                        false
                    ]
                ],
                "starting_skills": [],
                "team": "enemy2",
                "ai": "Pursue",
                "roam_ai": null,
                "ai_group": "WestAggroReinf",
                "starting_position": null,
                "starting_traveler": null,
                "generic": true
            },
            {
                "nid": "143",
                "variant": null,
                "level": 7,
                "klass": "Wyvern Rider",
                "faction": "Cult",
                "starting_items": [
                    [
                        "Steel Lance",
                        false
                    ]
                ],
                "starting_skills": [],
                "team": "enemy2",
                "ai": "Pursue",
                "roam_ai": null,
                "ai_group": "",
                "starting_position": null,
                "starting_traveler": null,
                "generic": true
            },
            {
                "nid": "144",
                "variant": null,
                "level": 7,
                "klass": "Wyvern Rider",
                "faction": "Cult",
                "starting_items": [
                    [
                        "Steel Lance",
                        false
                    ]
                ],
                "starting_skills": [],
                "team": "enemy2",
                "ai": "Pursue",
                "roam_ai": null,
                "ai_group": "",
                "starting_position": null,
                "starting_traveler": null,
                "generic": true
            },
            {
                "nid": "152",
                "variant": null,
                "level": 7,
                "klass": "Wyvern Rider",
                "faction": "Cult",
                "starting_items": [
                    [
                        "Steel Lance",
                        false
                    ]
                ],
                "starting_skills": [],
                "team": "enemy2",
                "ai": "Pursue",
                "roam_ai": null,
                "ai_group": "",
                "starting_position": null,
                "starting_traveler": null,
                "generic": true
            },
            {
                "nid": "153",
                "variant": null,
                "level": 7,
                "klass": "Wyvern Rider",
                "faction": "Cult",
                "starting_items": [
                    [
                        "Steel Lance",
                        false
                    ]
                ],
                "starting_skills": [],
                "team": "enemy2",
                "ai": "Pursue",
                "roam_ai": null,
                "ai_group": "",
                "starting_position": null,
                "starting_traveler": null,
                "generic": true
            },
            {
                "nid": "145",
                "variant": null,
                "level": 7,
                "klass": "Lance_Knight",
                "faction": "Cult",
                "starting_items": [
                    [
                        "Brave Lance",
                        false
                    ],
                    [
                        "Iron Boots",
                        true
                    ]
                ],
                "starting_skills": [],
                "team": "enemy2",
                "ai": "Pursue",
                "roam_ai": null,
                "ai_group": null,
                "starting_position": null,
                "starting_traveler": null,
                "generic": true
            },
            {
                "nid": "146",
                "variant": null,
                "level": 7,
                "klass": "Archer",
                "faction": "Cult",
                "starting_items": [
                    [
                        "Iron Bow",
                        false
                    ]
                ],
                "starting_skills": [],
                "team": "enemy2",
                "ai": "Pursue",
                "roam_ai": null,
                "ai_group": null,
                "starting_position": null,
                "starting_traveler": null,
                "generic": true
            },
            {
                "nid": "147",
                "variant": null,
                "level": 7,
                "klass": "Archer",
                "faction": "Cult",
                "starting_items": [
                    [
                        "Iron Bow",
                        false
                    ]
                ],
                "starting_skills": [],
                "team": "enemy2",
                "ai": "Pursue",
                "roam_ai": null,
                "ai_group": null,
                "starting_position": null,
                "starting_traveler": null,
                "generic": true
            },
            {
                "nid": "103",
                "variant": null,
                "level": 1,
                "klass": "Rogue",
                "faction": "Cult",
                "starting_items": [
                    [
                        "Tendon Slicer",
                        true
                    ],
                    [
                        "Vulnerary",
                        false
                    ]
                ],
                "starting_skills": [],
                "team": "enemy2",
                "ai": "Thief Escape",
                "roam_ai": null,
                "ai_group": null,
                "starting_position": null,
                "starting_traveler": null,
                "generic": true
            },
            {
                "nid": "148",
                "variant": null,
                "level": 6,
                "klass": "Thief",
                "faction": "Cult",
                "starting_items": [
                    [
                        "Steel Dagger",
                        false
                    ]
                ],
                "starting_skills": [],
                "team": "enemy2",
                "ai": "Thief",
                "roam_ai": null,
                "ai_group": null,
                "starting_position": null,
                "starting_traveler": null,
                "generic": true
            },
            {
                "nid": "Buyer",
                "team": "enemy",
                "ai": "None",
                "roam_ai": null,
                "ai_group": null,
                "starting_position": null,
                "starting_traveler": null,
                "generic": false
            },
            {
                "nid": "113",
                "variant": null,
                "level": 1,
                "klass": "Token",
                "faction": "Soldier",
                "starting_items": [],
                "starting_skills": [],
                "team": "other",
                "ai": "None",
                "roam_ai": null,
                "ai_group": null,
                "starting_position": null,
                "starting_traveler": null,
                "generic": true
            }
        ],
        "regions": [
            {
                "nid": "1",
                "region_type": "formation",
                "position": [
                    9,
                    15
                ],
                "size": [
                    1,
                    1
                ],
                "sub_nid": "",
                "condition": "True",
                "time_left": null,
                "only_once": false,
                "interrupt_move": false
            },
            {
                "nid": "2",
                "region_type": "formation",
                "position": [
                    8,
                    16
                ],
                "size": [
                    1,
                    1
                ],
                "sub_nid": null,
                "condition": "True",
                "time_left": null,
                "only_once": false,
                "interrupt_move": false
            },
            {
                "nid": "3",
                "region_type": "formation",
                "position": [
                    7,
                    17
                ],
                "size": [
                    1,
                    1
                ],
                "sub_nid": null,
                "condition": "True",
                "time_left": null,
                "only_once": false,
                "interrupt_move": false
            },
            {
                "nid": "4",
                "region_type": "formation",
                "position": [
                    9,
                    17
                ],
                "size": [
                    1,
                    1
                ],
                "sub_nid": null,
                "condition": "True",
                "time_left": null,
                "only_once": false,
                "interrupt_move": false
            },
            {
                "nid": "5",
                "region_type": "formation",
                "position": [
                    13,
                    15
                ],
                "size": [
                    1,
                    1
                ],
                "sub_nid": null,
                "condition": "True",
                "time_left": null,
                "only_once": false,
                "interrupt_move": false
            },
            {
                "nid": "6",
                "region_type": "formation",
                "position": [
                    11,
                    16
                ],
                "size": [
                    1,
                    1
                ],
                "sub_nid": null,
                "condition": "True",
                "time_left": null,
                "only_once": false,
                "interrupt_move": false
            },
            {
                "nid": "7",
                "region_type": "normal",
                "position": [
                    11,
                    17
                ],
                "size": [
                    1,
                    1
                ],
                "sub_nid": null,
                "condition": "True",
                "time_left": null,
                "only_once": false,
                "interrupt_move": false
            },
            {
                "nid": "8",
                "region_type": "formation",
                "position": [
                    13,
                    16
                ],
                "size": [
                    1,
                    1
                ],
                "sub_nid": null,
                "condition": "True",
                "time_left": null,
                "only_once": false,
                "interrupt_move": false
            },
            {
                "nid": "9",
                "region_type": "formation",
                "position": [
                    12,
                    16
                ],
                "size": [
                    1,
                    1
                ],
                "sub_nid": null,
                "condition": "True",
                "time_left": null,
                "only_once": false,
                "interrupt_move": false
            },
            {
                "nid": "ChestRoomDoor",
                "region_type": "event",
                "position": [
                    2,
                    1
                ],
                "size": [
                    1,
                    3
                ],
                "sub_nid": "Door",
                "condition": "unit.can_unlock(region)",
                "time_left": null,
                "only_once": true,
                "interrupt_move": false
            },
            {
                "nid": "ChestRoom",
                "region_type": "event",
                "position": [
                    2,
                    0
                ],
                "size": [
                    1,
                    1
                ],
                "sub_nid": "Chest",
                "condition": "unit.can_unlock(region)",
                "time_left": null,
                "only_once": true,
                "interrupt_move": false
            },
            {
                "nid": "DoorMainChamberBig",
                "region_type": "event",
                "position": [
                    8,
                    8
                ],
                "size": [
                    2,
                    3
                ],
                "sub_nid": "Door",
                "condition": "unit.can_unlock(region)",
                "time_left": null,
                "only_once": true,
                "interrupt_move": false
            },
            {
                "nid": "ThroneChest",
                "region_type": "event",
                "position": [
                    14,
                    1
                ],
                "size": [
                    1,
                    1
                ],
                "sub_nid": "Chest",
                "condition": "unit.can_unlock(region)",
                "time_left": null,
                "only_once": true,
                "interrupt_move": false
            },
            {
                "nid": "DoorMainChamberSmall",
                "region_type": "event",
                "position": [
                    5,
                    4
                ],
                "size": [
                    1,
                    3
                ],
                "sub_nid": "Door",
                "condition": "unit.can_unlock(region)",
                "time_left": null,
                "only_once": true,
                "interrupt_move": false
            },
            {
                "nid": "Mogall Chamber",
                "region_type": "event",
                "position": [
                    23,
                    0
                ],
                "size": [
                    1,
                    1
                ],
                "sub_nid": "Visit",
                "condition": "True",
                "time_left": null,
                "only_once": true,
                "interrupt_move": false
            },
            {
                "nid": "Throne",
                "region_type": "event",
                "position": [
                    14,
                    4
                ],
                "size": [
                    1,
                    1
                ],
                "sub_nid": "Seize",
                "condition": "unit.nid == 'Cormorant' or unit.nid == 'Ennis'",
                "time_left": null,
                "only_once": true,
                "interrupt_move": false
            },
            {
                "nid": "StairsWest",
                "region_type": "event",
                "position": [
                    1,
                    11
                ],
                "size": [
                    1,
                    1
                ],
                "sub_nid": "Stairs",
                "condition": "unit.team == 'enemy2'",
                "time_left": null,
                "only_once": false,
                "interrupt_move": false
            },
            {
                "nid": "StairsNorth",
                "region_type": "event",
                "position": [
                    6,
                    0
                ],
                "size": [
                    1,
                    1
                ],
                "sub_nid": "Stairs",
                "condition": "unit.team == 'enemy2'",
                "time_left": null,
                "only_once": false,
                "interrupt_move": false
            }
        ],
        "unit_groups": [
            {
                "nid": "WestReinf",
                "units": [
                    "138",
                    "139"
                ],
                "positions": {
                    "138": [
                        0,
                        4
                    ],
                    "139": [
                        0,
                        5
                    ]
                }
            },
            {
                "nid": "NorthReinf",
                "units": [
                    "145",
                    "146",
                    "147"
                ],
                "positions": {
                    "145": [
                        9,
                        0
                    ],
                    "146": [
                        8,
                        0
                    ],
                    "147": [
                        10,
                        0
                    ]
                }
            },
            {
                "nid": "RogueEast",
                "units": [
                    "103"
                ],
                "positions": {
                    "103": [
                        25,
                        7
                    ]
                }
            },
            {
                "nid": "ThiefWest",
                "units": [
                    "148"
                ],
                "positions": {
                    "148": [
                        0,
                        8
                    ]
                }
            },
            {
                "nid": "SouthReinf",
                "units": [
                    "143",
                    "144",
                    "152",
                    "153"
                ],
                "positions": {
                    "144": [
                        18,
                        17
                    ],
                    "143": [
                        20,
                        17
                    ],
                    "152": [
                        1,
                        17
                    ],
                    "153": [
                        3,
                        17
                    ]
                }
            },
            {
                "nid": "Accip",
                "units": [
                    "Accipiter"
                ],
                "positions": {
                    "Accipiter": [
                        1,
                        11
                    ]
                }
            }
        ],
        "ai_groups": [
            {
                "nid": "WestAggro",
                "trigger_threshold": 1
            },
            {
                "nid": "WestAggroReinf",
                "trigger_threshold": 1
            },
            {
                "nid": "NorthAggro",
                "trigger_threshold": 1
            }
        ]
    }
]