[
    {
        "nid": "DEBUG",
        "name": "DEBUG",
        "tilemap": "Debug",
        "bg_tilemap": null,
        "party": "Ennis",
        "music": {
            "player_phase": "Omega-3 Battle",
            "enemy_phase": null,
            "other_phase": null,
            "enemy2_phase": null,
            "player_battle": "Dragon's Circle - Light and Dark-",
            "enemy_battle": "Fight with a Primal Beast",
            "other_battle": null,
            "enemy2_battle": null,
            "boss_battle": null
        },
        "objective": {
            "simple": "DEBUG",
            "win": "Don't Crash",
            "loss": "Crash"
        },
        "roam": false,
        "roam_unit": "Ennis",
        "go_to_overworld": false,
        "should_record": true,
        "tags": [],
        "units": [
            {
                "nid": "Ennis",
                "team": "player",
                "ai": "None",
                "roam_ai": null,
                "ai_group": null,
                "starting_position": [
                    14,
                    11
                ],
                "starting_traveler": null,
                "generic": false
            },
            {
                "nid": "101",
                "variant": null,
                "level": 1,
                "klass": "General",
                "faction": "Soldier",
                "starting_items": [
                    [
                        "Brave Lance",
                        false
                    ],
                    [
                        "Iron Sword",
                        false
                    ]
                ],
                "starting_skills": [],
                "team": "enemy",
                "ai": "None",
                "roam_ai": null,
                "ai_group": null,
                "starting_position": null,
                "starting_traveler": null,
                "generic": true
            },
            {
                "nid": "Cistia",
                "team": "player",
                "ai": "None",
                "roam_ai": null,
                "ai_group": "",
                "starting_position": null,
                "starting_traveler": null,
                "generic": false
            },
            {
                "nid": "Pipit",
                "team": "player",
                "ai": "None",
                "roam_ai": null,
                "ai_group": null,
                "starting_position": null,
                "starting_traveler": null,
                "generic": false
            },
            {
                "nid": "Cormorant",
                "team": "player",
                "ai": "None",
                "roam_ai": null,
                "ai_group": null,
                "starting_position": null,
                "starting_traveler": null,
                "generic": false
            },
            {
                "nid": "ClydeC3",
                "team": "player",
                "ai": "None",
                "roam_ai": null,
                "ai_group": null,
                "starting_position": null,
                "starting_traveler": null,
                "generic": false
            },
            {
                "nid": "Finola",
                "team": "player",
                "ai": "None",
                "roam_ai": null,
                "ai_group": null,
                "starting_position": [
                    5,
                    5
                ],
                "starting_traveler": null,
                "generic": false
            },
            {
                "nid": "SuzerainC21",
                "team": "enemy2",
                "ai": "None",
                "roam_ai": null,
                "ai_group": null,
                "starting_position": null,
                "starting_traveler": null,
                "generic": false
            },
            {
                "nid": "102",
                "variant": null,
                "level": 1,
                "klass": "Citizen",
                "faction": "Possibility",
                "starting_items": [],
                "starting_skills": [],
                "team": "enemy",
                "ai": "None",
                "roam_ai": null,
                "ai_group": null,
                "starting_position": null,
                "starting_traveler": null,
                "generic": true
            },
            {
                "nid": "103",
                "variant": null,
                "level": 1,
                "klass": "Citizen",
                "faction": "Possibility",
                "starting_items": [],
                "starting_skills": [],
                "team": "enemy",
                "ai": "None",
                "roam_ai": null,
                "ai_group": null,
                "starting_position": null,
                "starting_traveler": null,
                "generic": true
            },
            {
                "nid": "104",
                "variant": null,
                "level": 1,
                "klass": "Shaman",
                "faction": "Possibility",
                "starting_items": [
                    [
                        "Eclipse",
                        false
                    ]
                ],
                "starting_skills": [],
                "team": "enemy",
                "ai": "None",
                "roam_ai": null,
                "ai_group": null,
                "starting_position": null,
                "starting_traveler": null,
                "generic": true
            },
            {
                "nid": "106",
                "variant": null,
                "level": 1,
                "klass": "Pupil",
                "faction": "Possibility",
                "starting_items": [
                    [
                        "Bolting",
                        false
                    ]
                ],
                "starting_skills": [],
                "team": "enemy",
                "ai": "None",
                "roam_ai": null,
                "ai_group": null,
                "starting_position": null,
                "starting_traveler": null,
                "generic": true
            },
            {
                "nid": "AylaTrue",
                "team": "player",
                "ai": "None",
                "roam_ai": null,
                "ai_group": null,
                "starting_position": null,
                "starting_traveler": null,
                "generic": false
            },
            {
                "nid": "105",
                "variant": null,
                "level": 20,
                "klass": "Bishop",
                "faction": "Possibility",
                "starting_items": [
                    [
                        "Fortify",
                        false
                    ],
                    [
                        "Divine",
                        false
                    ]
                ],
                "starting_skills": [],
                "team": "enemy",
                "ai": "None",
                "roam_ai": null,
                "ai_group": null,
                "starting_position": null,
                "starting_traveler": null,
                "generic": true
            },
            {
                "nid": "1",
                "variant": null,
                "level": 1,
                "klass": "Soldier",
                "faction": "Possibility",
                "starting_items": [
                    [
                        "Iron Lance",
                        false
                    ],
                    [
                        "Dragon Fang",
                        false
                    ]
                ],
                "starting_skills": [],
                "team": "enemy2",
                "ai": "None",
                "roam_ai": null,
                "ai_group": "",
                "starting_position": [
                    15,
                    15
                ],
                "starting_traveler": null,
                "generic": true
            },
            {
                "nid": "2",
                "variant": null,
                "level": 10,
                "klass": "Sage",
                "faction": "Possibility",
                "starting_items": [
                    [
                        "Manablast",
                        false
                    ]
                ],
                "starting_skills": [],
                "team": "player",
                "ai": "None",
                "roam_ai": null,
                "ai_group": "",
                "starting_position": [
                    13,
                    15
                ],
                "starting_traveler": null,
                "generic": true
            },
            {
                "nid": "107",
                "variant": null,
                "level": 20,
                "klass": "Sage",
                "faction": "Possibility",
                "starting_items": [
                    [
                        "Berserk",
                        false
                    ],
                    [
                        "Bolting",
                        false
                    ]
                ],
                "starting_skills": [],
                "team": "player",
                "ai": "None",
                "roam_ai": null,
                "ai_group": null,
                "starting_position": null,
                "starting_traveler": null,
                "generic": true
            },
            {
                "nid": "Falcon",
                "team": "player",
                "ai": "None",
                "roam_ai": null,
                "ai_group": "",
                "starting_position": [
                    13,
                    8
                ],
                "starting_traveler": null,
                "generic": false
            },
            {
                "nid": "Owl",
                "team": "player",
                "ai": "None",
                "roam_ai": null,
                "ai_group": "",
                "starting_position": [
                    12,
                    11
                ],
                "starting_traveler": null,
                "generic": false
            },
            {
                "nid": "Kingfisher",
                "team": "player",
                "ai": "None",
                "roam_ai": null,
                "ai_group": null,
                "starting_position": null,
                "starting_traveler": null,
                "generic": false
            },
            {
                "nid": "Lychee",
                "team": "player",
                "ai": "None",
                "roam_ai": null,
                "ai_group": null,
                "starting_position": null,
                "starting_traveler": null,
                "generic": false
            },
            {
                "nid": "Accipiter",
                "team": "player",
                "ai": "None",
                "roam_ai": null,
                "ai_group": null,
                "starting_position": [
                    25,
                    15
                ],
                "starting_traveler": null,
                "generic": false
            },
            {
                "nid": "RandomWizard",
                "team": "enemy",
                "ai": "None",
                "roam_ai": null,
                "ai_group": null,
                "starting_position": null,
                "starting_traveler": null,
                "generic": false
            },
            {
                "nid": "SirSpensir",
                "team": "enemy",
                "ai": "None",
                "roam_ai": null,
                "ai_group": null,
                "starting_position": null,
                "starting_traveler": null,
                "generic": false
            },
            {
                "nid": "Lim",
                "team": "player",
                "ai": "None",
                "roam_ai": null,
                "ai_group": "",
                "starting_position": [
                    17,
                    7
                ],
                "starting_traveler": null,
                "generic": false
            },
            {
                "nid": "Goibniu",
                "team": "player",
                "ai": "None",
                "roam_ai": null,
                "ai_group": null,
                "starting_position": [
                    13,
                    5
                ],
                "starting_traveler": null,
                "generic": false
            },
            {
                "nid": "108",
                "variant": null,
                "level": 1,
                "klass": "Citizen",
                "faction": "Possibility",
                "starting_items": [
                    [
                        "Test_Boon",
                        false
                    ]
                ],
                "starting_skills": [],
                "team": "player",
                "ai": "None",
                "roam_ai": null,
                "ai_group": null,
                "starting_position": null,
                "starting_traveler": null,
                "generic": true
            },
            {
                "nid": "109",
                "variant": null,
                "level": 20,
                "klass": "Swordmaster",
                "faction": "Possibility",
                "starting_items": [
                    [
                        "Silver Sword",
                        false
                    ]
                ],
                "starting_skills": [],
                "team": "enemy",
                "ai": "Guard",
                "roam_ai": null,
                "ai_group": null,
                "starting_position": [
                    4,
                    5
                ],
                "starting_traveler": null,
                "generic": true
            },
            {
                "nid": "Pitta_P",
                "team": "player",
                "ai": "None",
                "roam_ai": null,
                "ai_group": null,
                "starting_position": null,
                "starting_traveler": null,
                "generic": false
            },
            {
                "nid": "110",
                "variant": null,
                "level": 1,
                "klass": "Sage",
                "faction": "Pirate",
                "starting_items": [
                    [
                        "Razorwind",
                        false
                    ],
                    [
                        "Holy Arrows",
                        false
                    ]
                ],
                "starting_skills": [],
                "team": "player",
                "ai": "None",
                "roam_ai": null,
                "ai_group": null,
                "starting_position": null,
                "starting_traveler": null,
                "generic": true
            },
            {
                "nid": "111",
                "variant": null,
                "level": 1,
                "klass": "Falcoknight",
                "faction": "Pirate",
                "starting_items": [
                    [
                        "Halberd",
                        false
                    ]
                ],
                "starting_skills": [],
                "team": "enemy",
                "ai": "None",
                "roam_ai": null,
                "ai_group": null,
                "starting_position": null,
                "starting_traveler": null,
                "generic": true
            },
            {
                "nid": "112",
                "variant": null,
                "level": 1,
                "klass": "Druid",
                "faction": "Pirate",
                "starting_items": [
                    [
                        "Fenrir",
                        false
                    ]
                ],
                "starting_skills": [],
                "team": "player",
                "ai": "None",
                "roam_ai": null,
                "ai_group": null,
                "starting_position": null,
                "starting_traveler": null,
                "generic": true
            },
            {
                "nid": "Crane",
                "team": "player",
                "ai": "None",
                "roam_ai": null,
                "ai_group": "",
                "starting_position": [
                    8,
                    5
                ],
                "starting_traveler": null,
                "generic": false
            },
            {
                "nid": "Osbert",
                "team": "player",
                "ai": "None",
                "roam_ai": null,
                "ai_group": "",
                "starting_position": [
                    12,
                    9
                ],
                "starting_traveler": null,
                "generic": false
            },
            {
                "nid": "Tenebrae",
                "team": "player",
                "ai": "None",
                "roam_ai": null,
                "ai_group": "",
                "starting_position": [
                    16,
                    9
                ],
                "starting_traveler": null,
                "generic": false
            },
            {
                "nid": "Barra",
                "team": "player",
                "ai": "None",
                "roam_ai": null,
                "ai_group": "",
                "starting_position": [
                    15,
                    9
                ],
                "starting_traveler": null,
                "generic": false
            },
            {
                "nid": "Spirin",
                "team": "player",
                "ai": "None",
                "roam_ai": null,
                "ai_group": "",
                "starting_position": [
                    15,
                    7
                ],
                "starting_traveler": null,
                "generic": false
            },
            {
                "nid": "Steel_Fox_P",
                "team": "player",
                "ai": "None",
                "roam_ai": null,
                "ai_group": "",
                "starting_position": [
                    14,
                    10
                ],
                "starting_traveler": null,
                "generic": false
            }
        ],
        "regions": [
            {
                "nid": "Door1",
                "region_type": "event",
                "position": [
                    26,
                    12
                ],
                "size": [
                    1,
                    3
                ],
                "sub_nid": "Door",
                "condition": "unit.can_unlock(region)",
                "time_left": null,
                "only_once": true,
                "interrupt_move": false
            }
        ],
        "unit_groups": [
            {
                "nid": "Rein2",
                "units": [
                    "102"
                ],
                "positions": {}
            },
            {
                "nid": "Rein3",
                "units": [
                    "103"
                ],
                "positions": {}
            }
        ],
        "ai_groups": [
            {
                "nid": "",
                "trigger_threshold": 1
            }
        ]
    }
]