[
    {
        "nid": "P2_Cont",
        "name": "Cutscene",
        "tilemap": "ConnachtaBedroom",
        "bg_tilemap": null,
        "party": "The Dead",
        "music": {},
        "objective": {
            "simple": "Read",
            "win": "Read",
            "loss": "Fail to read"
        },
        "roam": false,
        "roam_unit": null,
        "go_to_overworld": false,
        "should_record": true,
        "tags": [
            "Horse"
        ],
        "units": [
            {
                "nid": "Tiberius1",
                "variant": null,
                "level": 1,
                "klass": "Clone(Lance) ",
                "faction": "Possibility",
                "starting_items": [],
                "starting_skills": [],
                "team": "player",
                "ai": "None",
                "roam_ai": null,
                "ai_group": null,
                "starting_position": [
                    6,
                    4
                ],
                "starting_traveler": null,
                "generic": true
            },
            {
                "nid": "Fiachra1",
                "variant": null,
                "level": 1,
                "klass": "Halberdier",
                "faction": "Possibility",
                "starting_items": [],
                "starting_skills": [],
                "team": "player",
                "ai": "None",
                "roam_ai": null,
                "ai_group": null,
                "starting_position": [
                    11,
                    5
                ],
                "starting_traveler": null,
                "generic": true
            },
            {
                "nid": "Connachta1",
                "variant": null,
                "level": 1,
                "klass": "Lady",
                "faction": "Possibility",
                "starting_items": [],
                "starting_skills": [],
                "team": "player",
                "ai": "None",
                "roam_ai": null,
                "ai_group": null,
                "starting_position": null,
                "starting_traveler": null,
                "generic": true
            },
            {
                "nid": "Balhkoin_C1",
                "team": "enemy",
                "ai": "None",
                "roam_ai": null,
                "ai_group": null,
                "starting_position": null,
                "starting_traveler": null,
                "generic": false
            },
            {
                "nid": "MU",
                "team": "enemy",
                "ai": "None",
                "roam_ai": null,
                "ai_group": null,
                "starting_position": null,
                "starting_traveler": null,
                "generic": false
            },
            {
                "nid": "Kalash",
                "team": "enemy",
                "ai": "None",
                "roam_ai": null,
                "ai_group": null,
                "starting_position": null,
                "starting_traveler": null,
                "generic": false
            },
            {
                "nid": "Feodor",
                "team": "enemy",
                "ai": "None",
                "roam_ai": null,
                "ai_group": null,
                "starting_position": null,
                "starting_traveler": null,
                "generic": false
            },
            {
                "nid": "Mikhail",
                "team": "enemy",
                "ai": "None",
                "roam_ai": null,
                "ai_group": null,
                "starting_position": null,
                "starting_traveler": null,
                "generic": false
            }
        ],
        "regions": [],
        "unit_groups": [
            {
                "nid": "MUSquad",
                "units": [
                    "Mikhail",
                    "Feodor",
                    "Kalash",
                    "MU",
                    "Balhkoin_C1"
                ],
                "positions": {
                    "MU": [
                        10,
                        7
                    ],
                    "Kalash": [
                        8,
                        6
                    ],
                    "Mikhail": [
                        9,
                        4
                    ],
                    "Feodor": [
                        8,
                        8
                    ],
                    "Balhkoin_C1": [
                        10,
                        5
                    ]
                }
            },
            {
                "nid": "MUENTRY",
                "units": [
                    "Mikhail",
                    "Feodor",
                    "Kalash",
                    "MU",
                    "Balhkoin_C1"
                ],
                "positions": {
                    "Mikhail": [
                        12,
                        5
                    ],
                    "Kalash": [
                        12,
                        6
                    ],
                    "Feodor": [
                        12,
                        7
                    ],
                    "MU": [
                        11,
                        6
                    ],
                    "Balhkoin_C1": [
                        11,
                        5
                    ]
                }
            }
        ],
        "ai_groups": []
    }
]