[
    {
        "name": "00. Codex Setup",
        "trigger": null,
        "level_nid": "0_Intro_History",
        "condition": "True",
        "commands": [],
        "only_once": false,
        "priority": 20,
        "_source": [
            "set_custom_options;Codex;True;Opens the Codex;Global Option_Menu_Enable;no_warn",
            "add_lore;Mana",
            "add_lore;EvasionFatigue",
            ""
        ],
        "nid": "0_Intro_History 00. Codex Setup"
    }
]