[
    {
        "name": "D - Chronos",
        "trigger": "unit_death",
        "level_nid": "0x",
        "condition": "'Chronos' in unit.tags",
        "commands": [],
        "only_once": false,
        "priority": 20,
        "_source": [
            "if;len([unit.nid for unit in game.get_all_units() if 'Chronos' in unit.tags]) == 0",
            "    if;game.game_vars['_current_turnwheel_uses'] > 0",
            "        add_portrait;Chronos;FarRight",
            "        speak;Chronos;\u2028This future will end in ruin.{w}\u2028Let me correct our course.",
            "        remove_portrait;Chronos",
            "        activate_turnwheel",
            "    else",
            "        add_portrait;Chronos;FarRight",
            "        speak;Chronos;\u2028There is no path to victory here.{w}\u2028Then, this timeline itself must\u2028be abandoned entirely...{w}\u2028Everyone, I am sorry.{w}\u2028But in another reality...",
            "        remove_portrait;Chronos",
            "        lose_game",
            "    end",
            "end"
        ],
        "nid": "0x D - Chronos"
    }
]