[
    {
        "name": "00.0 - Setup",
        "trigger": "level_start",
        "level_nid": "10",
        "condition": "True",
        "commands": [],
        "only_once": false,
        "priority": 21,
        "_source": [
            "game_var;_base_market;True",
            "game_var;_prep_market;True",
            "if;game.check_alive('Cistia') and (u('Cistia').level >= 10 or u('Cistia').klass != 'Pegasus_Knight')",
            "    add_base_convo;Effective (!)",
            "end",
            "level_var;boss_count;0",
            "level_var;en_sel_count;0",
            "level_var;en_sel_turn;0",
            "hide_layer;unlocked_chest",
            "show_layer;cutscene",
            "set_current_mana;Ayla_C9;0"
        ],
        "nid": "10 00.0 - Setup"
    }
]