[
    {
        "name": "08.4 - Ennis Bargain 1",
        "trigger": "unit_select",
        "level_nid": "10",
        "condition": "v(\"en_sel_count\") == 0 and unit.nid == 'Ennis' and game.turncount != v(\"en_sel_turn\")",
        "commands": [],
        "only_once": false,
        "priority": 20,
        "_source": [
            "speak_style;MU;;;;;white;;None;2;f;None",
            "speak_style;P;;center;;;white;;None;2;f;None;fit",
            "inc_level_var;en_sel_count",
            "level_var;en_sel_turn;game.turncount",
            "",
            "change_background;BlackBackground",
            "s;MU;I told her to leave me to my fate.",
            "s;P;Of course she would not.",
            "s;MU;Why won't she?",
            "s;MU;If it weren't for me, things would be different.",
            "s;MU;I shouldn't have set us off on this stupid quest.",
            "s;P;Humans are inevitably burdens on one another.",
            "s;P;That's what it means to be human.",
            "s;MU;Why is everything going wrong?",
            "",
            "t;close",
            "change_background",
            "t;open",
            ""
        ],
        "nid": "10 08.4 - Ennis Bargain 1"
    }
]