[
    {
        "name": "02.1 - AI Change 1",
        "trigger": "turn_change",
        "level_nid": "10",
        "condition": "game.turncount == 2",
        "commands": [],
        "only_once": false,
        "priority": 20,
        "_source": [
            "change_ai;103;Pursue",
            "change_ai;104;Pursue"
        ],
        "nid": "10 02.1 - AI Change 1"
    }
]