[
    {
        "name": "02.3 - AI Change 3",
        "trigger": "turn_change",
        "level_nid": "10",
        "condition": "game.turncount == 6",
        "commands": [],
        "only_once": false,
        "priority": 20,
        "_source": [
            "if;not game.check_dead('Steel Fox_C9')",
            "    flicker_cursor;Steel Fox_C9",
            "    add_portrait;Steel Fox_C9;Left",
            "    speak;Steel Fox_C9;House Connachta is testing our hospitality now.|I will go see them out myself.",
            "    change_ai;107;Pursue",
            "    change_ai;108;Pursue",
            "    change_ai;109;Pursue",
            "    change_ai;110;Pursue",
            "    change_ai;111;Pursue",
            "    change_ai;112;Pursue",
            "    change_ai;Steel Fox_C9;Pursue",
            "end"
        ],
        "nid": "10 02.3 - AI Change 3"
    }
]