[
    {
        "name": "2b. Luan_Cult_Fight",
        "trigger": "combat_start",
        "level_nid": "11",
        "condition": "unit.nid == 'Luan' and unit2.team == 'enemy2' or unit2.nid == 'Luan' and unit.team == 'enemy2'",
        "commands": [],
        "only_once": true,
        "priority": 20,
        "_source": [
            "add_portrait;Assassin;Left",
            "add_portrait;Luan;Right",
            "speak;Assassin;\u2028You! Tuathan!|You're on our side, aren't you?|Get out of our way! I must take Ennis Connachta's heart.",
            "speak;Luan;Ummm, now isn't a great time for flirting.",
            "speak;Assassin;Don't mock me!|Step aside and let me kill that Braghedunn scum!",
            "speak;Luan;Kill? What are you talking about?|If you want to hurt her, you'll have to get through me!",
            "multi_remove_portrait;Assassin;Luan"
        ],
        "nid": "11 2b. Luan_Cult_Fight"
    }
]