[
    {
        "name": "3a. Ysbryd Osbert Convo",
        "trigger": "combat_start",
        "level_nid": "11",
        "condition": "check_pair(\"Osbert\", \"Ysbryd_Ch10\")",
        "commands": [],
        "only_once": true,
        "priority": 20,
        "_source": [
            "multi_add_portrait;Osbert;Right;Ysbryd_Ch10;Left",
            "speak;Ysbryd_Ch10;So we meet again, Osbert.",
            "speak;Osbert;Agh, this is so boring...|I should have gone down and fought with that new red guy...",
            "multi_remove_portrait;Ennis;Ysbryd_Ch10"
        ],
        "nid": "11 3a. Ysbryd Osbert Convo"
    }
]