[
    {
        "name": "4b. Bosses dead end map",
        "trigger": "combat_end",
        "level_nid": "11",
        "condition": "game.check_dead(\"Ysbryd_Ch10\") and game.check_dead(\"Zackary_Ch10\")",
        "commands": [],
        "only_once": false,
        "priority": 20,
        "_source": [
            "transition;close;1000",
            "win_game"
        ],
        "nid": "11 4b. Bosses dead end map"
    }
]