[
    {
        "name": "CA. Countless Achievement",
        "trigger": "unit_death",
        "level_nid": "11",
        "condition": "True",
        "commands": [],
        "only_once": false,
        "priority": 20,
        "_source": [
            "if;unit.team not in ['player','other'] and unit2.team == 'player'",
            "inc_level_var;countless",
            "if;game.level_vars['countless'] == 100 and not has_achievement('ch11b')",
            "complete_achievement;ch11b;true;banner",
            "update_record;ach_points;RECORDS.get('ach_points') + 35",
            "end",
            "end"
        ],
        "nid": "11 CA. Countless Achievement"
    }
]