[
    {
        "name": "0.01 Intro",
        "trigger": "level_start",
        "level_nid": "11_roam",
        "condition": "True",
        "commands": [],
        "only_once": false,
        "priority": 20,
        "_source": [
            "music_clear",
            "b;BlackBackground",
            "t;close",
            "b;InsideCastle",
            "t;open",
            "",
            "# scene",
            "",
            "u;Osbert;MidRight",
            "",
            "s;Osbert;\u2028Abeni is taking her sweet time...{w}\u2028Must some magical tinkering\u2028take this long?{w}\u2028Being on watch will kill me\u2028with boredom!{w}\u2028Look at this dust! The Cult hasn't\u2028been here in ages!",
            "",
            "s;Osbert;\u2028I crave adventure!{w}\u2028Excitement!",
            "music;Flouring With You",
            "",
            "sound;Warp",
            "u;LanceBert;CenterLeft",
            "wait;500",
            "sound;Warp",
            "u;Swordbert;FarLeft",
            "wait;500",
            "sound;Warp",
            "u;AxeBert;Left",
            "",
            "s;LanceBert;\u2028There has to be some loot in these catacombs!{w}\u2028Mayhap some secret treasure buried deep within?{w}\u2028What is to be gained by staring at the wall?{w}\u2028Nothing!{w}\u2028The cause would be better served\u2028by finding booty for the coffers!",
            "",
            "s;Osbert;\u2028A brilliant idea!",
            "",
            "s;AxeBert;\u2028Couldn't have said it better myself.",
            "",
            "s;Swordbert;\u2028Abeni asked us to stay-",
            "",
            "wait;500",
            "mirror;AxeBert;no_block",
            "mirror;LanceBert",
            "wait;500",
            "",
            "s;Swordbert;\u2028...{w}\u2028Ah, blast it all.{w}\u2028She can't tell us apart anyway.{w}\u2028I'll blame it on you, Lancebert.",
            "",
            "mirror;AxeBert;no_block",
            "mirror;LanceBert",
            "",
            "s;Osbert;\u2028It's settled then!{w}\u2028Mount Hollowhorn, today you shall reveal your secrets!",
            "rr;Osbert;AxeBert;Swordbert;LanceBert",
            "transition;close",
            "",
            "# end scene",
            "",
            "center_cursor;Osbert;immediate",
            "change_background",
            "wait;200",
            "t;open",
            "music_clear;6000",
            "s;;\u2028Speak to any one of Osbert's clones to switch\u2028control to them.{w}\u2028If you wish to end free roaming, speak to Ennis.{w}\u2028She is waiting at the far left edge of the map.;StyleNid=hint",
            "",
            "# Set up talks",
            "for;osbert_gaming;[u for u in (\"Osbert\", \"AxeBert\", \"LanceBert\", \"Swordbert\")]",
            "    add_talk;{osbert_gaming};Abeni",
            "    add_talk;{osbert_gaming};Lychee",
            "    add_talk;{osbert_gaming};Cormorant",
            "    add_talk;{osbert_gaming};Thrant",
            "    add_talk;{osbert_gaming};Ennis",
            "    add_talk;{osbert_gaming};MooreP",
            "    if;\"{osbert_gaming}\" != \"Osbert\"",
            "        add_talk;{osbert_gaming};Osbert",
            "    end",
            "    if;\"{osbert_gaming}\"  != \"Swordbert\"",
            "        add_talk;{osbert_gaming};Swordbert",
            "    end",
            "    if;\"{osbert_gaming}\"  != \"LanceBert\"",
            "        add_talk;{osbert_gaming};LanceBert",
            "    end",
            "    if;\"{osbert_gaming}\"  != \"AxeBert\"",
            "        add_talk;{osbert_gaming};AxeBert",
            "    end",
            "endf",
            "music;Therion"
        ],
        "nid": "11_roam 0.01 Intro"
    }
]