[
    {
        "name": "04c. VillageDestroyed",
        "trigger": "turn_change",
        "level_nid": "12",
        "condition": "game.turncount == 11",
        "commands": [],
        "only_once": true,
        "priority": 20,
        "_source": [
            "if;game.check_alive('Soldiernapper')",
            "    move_cursor;Soldiernapper",
            "    move_unit;Soldiernapper;1,4",
            "    add_portrait;Soldiernapper;Left",
            "    speak;Soldiernapper;I doubt this place'll even be mention'd in the 'istory books...",
            "    remove_portrait;Soldiernapper",
            "    sound;VillageDestroyed",
            "    show_layer;Closed1Destroy2;fade",
            "    wait;500",
            "    sound;ItemBreak",
            "    alert;Village was destroyed!",
            "    has_attacked;{unit}",
            "end"
        ],
        "nid": "12 04c. VillageDestroyed"
    }
]