[
    {
        "name": "02. Village1",
        "trigger": "on_region_interact",
        "level_nid": "12",
        "condition": "region.nid == 'Village1'",
        "commands": [],
        "only_once": true,
        "priority": 20,
        "_source": [
            "transition;close",
            "change_background;Village",
            "transition;open",
            "if;unit.nid == 'Ennis'",
            "    multi_add_portrait;Ennis;Left;Faviyn;Right",
            "    speak;Faviyn;This village holds many refugees from down South.|To think so many have suffered from this war...|Please, Lady Connachta, save as many of my people as you can.",
            "    speak;Ennis;You will not regret putting your trust in me.|I will protect these people, no matter the cost.",
            "    speak;Faviyn;Thank you.|These villagers have little to give, but they are willing to part with this staff.|I trust you'll make good use of it.",
            "    transition;close",
            "    change_background",
            "    transition;open",
            "    give_item;{unit};Restore",
            "    has_traded;{unit}",
            "    show_layer;Closed1;fade",
            "elif;unit.nid == 'Cormorant'",
            "    multi_add_portrait;Cormorant;Left;Faviyn;Right",
            "    speak;Faviyn;This village holds many refugees from down South.|To think so many have suffered from this war...|Please, save as many of my people as you can.",
            "    speak;Cormorant;I'll do what I can to end this war.|No one should have to suffer like this.",
            "    speak;Faviyn;Thank you.|These villagers have little to give, but they are willing to part with this staff.|I trust you'll make good use of it.",
            "    transition;close",
            "    change_background",
            "    transition;open",
            "    give_item;{unit};Restore",
            "    has_traded;{unit}",
            "    show_layer;Closed1;fade",
            "elif;unit.nid == 'Goibniu'",
            "    multi_add_portrait;Goibniu;Left;Faviyn;Right",
            "    speak;Faviyn;This village holds many refugees from down South.|To think so many have suffered from this war...|Please, old friend, save as many of my people as you can.",
            "    speak;Goibniu;All you mortals have such high expectations of me...|But I'll make sure to answer this prayer.",
            "    speak;Faviyn;Thank you.|These villagers have little to give, but they are willing to part with this staff.|I trust you'll make good use of it.",
            "    transition;close",
            "    change_background",
            "    transition;open",
            "    give_item;{unit};Restore",
            "    has_traded;{unit}",
            "    show_layer;Closed1;fade",
            "elif;unit.nid == 'Luan'",
            "    multi_add_portrait;Luan;Left;Faviyn;Right",
            "    speak;Faviyn;This village holds many refugees from down South.|To think so many have suffered from this war...|Please, Luan, save as many of my people as you can.",
            "    speak;Luan;Our people?|I knew you'd come around!|No need to worry, I'll save everyone!",
            "    speak;Faviyn;Thank you.|These villagers have little to give, but they are willing to part with this staff.|I trust you'll make good use of it.",
            "    transition;close",
            "    change_background",
            "    transition;open",
            "    give_item;{unit};Restore",
            "    has_traded;{unit}",
            "    show_layer;Closed1;fade",
            "elif;unit.nid == 'Striga'",
            "    multi_add_portrait;Striga;Left;Faviyn;Right",
            "    speak;Faviyn;This village holds many refugees from down South.|To think so many have suffered from this war...|Please, Striga, save as many of my people as you can.",
            "    speak;Striga;Our people?|It seems you have some wisdom left in you.|I promise, I will protect them.",
            "    speak;Faviyn;Thank you.|These villagers have little to give, but they are willing to part with this staff.|I trust you'll make good use of it.",
            "    transition;close",
            "    change_background",
            "    transition;open",
            "    give_item;{unit};Restore",
            "    has_traded;{unit}",
            "    show_layer;Closed1;fade",
            "else",
            "    multi_add_portrait;{unit};Left;Faviyn;Right",
            "    speak;Faviyn;This village holds many refugees from down South.|To think so many have suffered from this war...|Please, save as many of my people as you can.",
            "    speak;{unit};I promise, I will protect them.",
            "    speak;Faviyn;Thank you.|These villagers have little to give, but they are willing to part with this staff.|I trust you'll make good use of it.",
            "    transition;close",
            "    change_background",
            "    transition;open",
            "    give_item;{unit};Restore",
            "    has_traded;{unit}",
            "    show_layer;Closed1;fade",
            "end"
        ],
        "nid": "12 02. Village1"
    }
]