[
    {
        "name": "Stairs",
        "trigger": "Stairs",
        "level_nid": "12",
        "condition": "True",
        "commands": [],
        "only_once": false,
        "priority": 20,
        "_source": [
            "remove_unit;{unit};fade"
        ],
        "nid": "12 Stairs"
    }
]