[
    {
        "name": "ThiefHighlight",
        "trigger": "enemy_turn_change",
        "level_nid": "12",
        "condition": "game.turncount == 1",
        "commands": [],
        "only_once": true,
        "priority": 20,
        "_source": [
            "move_cursor;EscapeLad",
            "flicker_cursor;EscapeLad",
            "add_portrait;Bandit1;Left",
            "speak;Bandit1;\u2028This is a tad inconvenient.{w}\u2028What's the point of stealing some\u2028weird machine from a terrorist base{w}\u2028if some other unrelated thugs\u2028will show up to kill you anyway?{w}\u2028Maybe I'll just try to\u2028escape off to the northwest...",
            "remove_portrait;Bandit1"
        ],
        "nid": "12 ThiefHighlight"
    }
]