[
    {
        "name": "05. Defeat Steel Fox",
        "trigger": "combat_end",
        "level_nid": "13",
        "condition": "game.check_dead(\"Steel Fox_C13\")",
        "commands": [],
        "only_once": true,
        "priority": 20,
        "_source": [
            "add_portrait;Steel Fox;Left",
            "speak;Steel Fox;Three times now, I have failed to defeat you...|Why?|What is it that I lack?|I must reflect on these failures...",
            "remove_portrait;Steel Fox"
        ],
        "nid": "13 05. Defeat Steel Fox"
    }
]