[
    {
        "name": "02. Turn 9: Steel Fox Charge",
        "trigger": "turn_change",
        "level_nid": "13",
        "condition": "game.turncount == 9",
        "commands": [],
        "only_once": false,
        "priority": 19,
        "_source": [
            "center_cursor;Steel Fox_C13",
            "flicker_cursor;Steel Fox_C13",
            "change_ai;Steel Fox_C13;TargetGreeniesAIWorks",
            "add_portrait;Steel Fox;Left",
            "speak;Steel Fox;I have to crush them now.|Prepare yourself, Lady Connachta.",
            "remove_portrait;Steel Fox",
            ""
        ],
        "nid": "13 02. Turn 9: Steel Fox Charge"
    }
]