[
    {
        "name": "Talk_Axebert",
        "trigger": "on_talk",
        "level_nid": "13_Roam",
        "condition": "unit2.nid == \"AxeBert\"",
        "commands": [],
        "only_once": true,
        "priority": 20,
        "_source": [
            "add_portrait;LanceBert;Right;no_block",
            "add_portrait;Jarze;Left",
            "speak;LanceBert;Finally, another immortal to challenge!",
            "speak;Jarze;Hrmm?|You wanna spar?|I've taken down dragons and lived to tell the tale.|You really think you can take me?",
            "speak;LanceBert;But of course!|I am the mighty LanceBert!|Even the gods are no match for me!",
            "speak;Jarze;You're a strange one, but you seem confident enough.|Very well then, I accept your challenge.",
            "add_portrait;AxeBert;FarRight",
            "speak;AxeBert;And of course, I will officiate!|Let's make it a clean fight, gentlemen!",
            "multi_remove_portrait;AxeBert;Jarze;LanceBert",
            "give_exp;Jarze;25",
            "remove_talk;Ennis;AxeBert"
        ],
        "nid": "13_Roam Talk_Axebert"
    }
]