[
    {
        "name": "Talk_Moore",
        "trigger": "on_talk",
        "level_nid": "13_Roam",
        "condition": "unit2.nid == \"MooreP\"",
        "commands": [],
        "only_once": true,
        "priority": 20,
        "_source": [
            "add_portrait;Ennis;Right;no_block",
            "add_portrait;Moore;Left",
            "speak;Moore;Hey Ennis!|Over 'ere, lass!",
            "speak;Ennis;Yes, what is it?",
            "speak;Moore;I invented a new game!|I call it: the fishing game!",
            "speak;Ennis;Is it just fishing?",
            "speak;Moore;...|Why don't you give it a try?",
            "speak;Ennis;Well, I do have some spare time...",
            "speak;Moore;Here's a fishing rod!|Now all you gotta do is cast your line and pray!",
            "speak;Ennis;Pray?|Whatever for?|I simply need to wait for a fish to bite, correct?|Then perhaps struggle reeling it in a bit,|perhaps trying to tug the rod 3 to 5 times?|And I'd need to tilt the rod the right way, and-",
            "speak;Moore;Nah, you just gotta wait.|Nothing fancy here.",
            "speak;Ennis;Oh.|Well, that's disappointing then.",
            "speak;Moore;Aye, lass.|It truly is.",
            "multi_remove_portrait;Moore;Ennis",
            "give_item;Ennis;The Wise",
            "remove_talk;Ennis;MooreP"
        ],
        "nid": "13_Roam Talk_Moore"
    }
]