[
    {
        "name": "Talk_Finola",
        "trigger": "on_talk",
        "level_nid": "13_Roam",
        "condition": "unit2.nid == \"Finola\"",
        "commands": [],
        "only_once": false,
        "priority": 20,
        "_source": [
            "if;not 'finola_roam' in game.game_vars",
            "add_portrait;Finola;Right;no_block;mirror",
            "add_portrait;Ennis;Left",
            "speak;Ennis;Hmm?|Do you work here?|Do I...know you?",
            "remove_portrait;Finola",
            "bop_portrait;Finola",
            "add_portrait;Finola;Right",
            "speak;Finola;Eep!",
            "move_portrait;Finola;OffscreenLeft",
            "remove_portrait;Finola",
            "move_unit;Finola;7,24;normal;no_follow",
            "speak;Ennis;W-Wait a minute!|Did I scare her?|Looks like she's heading <red>South</>...",
            "remove_portrait;Ennis",
            "inc_game_var;finola_roam;1",
            "add_talk;Ennis;Finola",
            "elif;{v:finola_roam} == 1",
            "add_portrait;Finola;Left;no_block",
            "add_portrait;Ennis;Right",
            "speak;Ennis;Ah, there you are.|Sorry if I scared you earlier-",
            "speak;Finola;Ah!|I, um, um...|It's fine.|I gotta go!|Don't follow me!",
            "remove_portrait;Finola",
            "move_unit;Finola;7,3;normal;no_follow",
            "speak;Ennis;Again?|Really?|Of course I'm going to follow you!|Looks like she went <red>North</> this time...",
            "remove_portrait;Ennis",
            "inc_game_var;finola_roam;1",
            "add_talk;Ennis;Finola",
            "elif;{v:finola_roam} == 2",
            "add_portrait;Finola;Left;no_block;mirror",
            "add_portrait;Ennis;Right",
            "speak;Ennis;I will lock you in time if you try to run again.|Now, who are... are you listening to me?",
            "speak;Finola;...",
            "speak;Ennis;What are you looking at?",
            "move_portrait;Ennis;MidLeft",
            "wait;500",
            "move_portrait;Ennis;Right",
            "speak;Ennis;That's Fiachra, my butler.|Do you know him?",
            "remove_portrait;Finola",
            "add_portrait;Finola;Left",
            "speak;Finola;Fiachra...|I thought so...",
            "speak;Ennis;Again with the not listening to me.|You still haven't-",
            "speak;Finola;Sorry for causing you trouble.|I'll be taking my leave now...",
            "multi_remove_portrait;Finola;Ennis",
            "move_unit;Finola;5,0;normal;no_follow",
            "remove_unit;Finola",
            "add_portrait;Ennis;Right",
            "speak;Ennis;Grr, what an infuriating person.|Though now that I think of it...|<red>She looks surprisingly</> <red>similar to Fiachra...</>|Probably just a coincidence.",
            "remove_portrait;Ennis",
            "inc_game_var;finola_roam;1",
            "end"
        ],
        "nid": "13_Roam Talk_Finola"
    }
]