[
    {
        "name": "Tutorial_Erskine",
        "trigger": null,
        "level_nid": "13",
        "condition": "unit.nid == 'Erskine'",
        "commands": [],
        "only_once": true,
        "priority": 20,
        "_source": [
            "choice;erskine_tutorial;View Erskine's tutorial?;Yes,No",
            "if;game.game_vars['erskine_tutorial'] == 'Yes'",
            "add_portrait;Erskine;Left;no_block",
            "add_portrait;Fiachra;Right",
            "speak;Fiachra;You may have milady's trust, but I will still be keeping an eye on you.",
            "speak;Erskine;Wise. But to alleviate your fears a bit, perhaps an|explanation of my skill set may be warranted?",
            "speak;Fiachra;I'm listening.",
            "speak;Erskine;Every attack that I initiate will allow me to ready my blades.|There is no limit to how many blades I can have prepared.",
            "speak;Fiachra;Where does he get them all?|I guess it doesn't matter...;StyleNid=thought_bubble",
            "speak;Erskine;If a foe initiates combat against me, I will lose 3 blades.",
            "speak;Fiachra;You're a spy, correct?|I'm guessing you'd prefer to avoid direct confrontation.",
            "speak;Erskine;I prefer to strike from the darkness.|My <red>Eye of Shadows</> allows me to prepare to strike during the enemy phase.|During this time, any foe who strays too close will be struck.|These attacks will <red>lower enemy stats</>, and <red>ready another blade.</>",
            "speak;Fiachra;So you can keep watch over an area and cripple any foe who approaches.|Very useful for guarding a point.",
            "speak;Erskine;I can teleport next to any unit within a close range.|This action will cost me 2 blades, but I can follow it up with any other action.",
            "speak;Fiachra;Seems useful enough...|Hmm, what's that blade you have there?",
            "speak;Erskine;This is the <red>Finisher.</>|Similarly to my warping, I can act after using it.|It requires 3 blades to use, but if it slays its foe, that cost is refunded.",
            "speak;Fiachra;That's quite a lot of tricks you have...|Any others I should be concerned about?",
            "speak;Erskine;My line of work has made me skilled at picking locks and... \"acquiring\" items.",
            "speak;Fiachra;*sigh*|Ok, I've heard enough.|As long as I know your tricks, I can make sure they can't harm Lady Ennis...",
            "multi_remove_portrait;Erskine;Fiachra",
            "end"
        ],
        "nid": "13 Tutorial_Erskine"
    }
]