[
    {
        "name": "02. Capture 5 Forts",
        "trigger": "turn_change",
        "level_nid": "14",
        "condition": "game.level_vars['TotalFort'] == 5",
        "commands": [],
        "only_once": true,
        "priority": 20,
        "_source": [
            "move_cursor;14,1",
            "wait;700",
            "spawn_group;StrikeTeamCavForce;north;StrikeTeamCavForce"
        ],
        "nid": "14 02. Capture 5 Forts"
    }
]