[
    {
        "name": "Myrna_Default",
        "trigger": "combat_start",
        "level_nid": "14",
        "condition": "check_default(''Quelea_C14'')",
        "commands": [],
        "only_once": true,
        "priority": 20,
        "_source": [
            "add_portrait;Quelea_C14;Left",
            "speak;Quelea_C14;Mother, is this how you felt?|This fear...|this... anger...",
            ""
        ],
        "nid": "14 Myrna_Default"
    }
]