[
    {
        "name": "5.Victory ",
        "trigger": "combat_end",
        "level_nid": "15",
        "condition": "game.check_dead(\"Nialla\") and game.check_dead(\"Lady Connachta_Evil\")",
        "commands": [],
        "only_once": false,
        "priority": 20,
        "_source": [
            "win_game"
        ],
        "nid": "15 5.Victory "
    }
]