[
    {
        "name": "Bookshelf",
        "trigger": "Search",
        "level_nid": "15",
        "condition": "True",
        "commands": [],
        "only_once": true,
        "priority": 20,
        "_source": [
            "give_item;{unit};Vailafroz",
            "has_traded;{unit}"
        ],
        "nid": "15 Bookshelf"
    }
]