[
    {
        "name": "6.Barn",
        "trigger": "Barn",
        "level_nid": "15_Roam",
        "condition": "True",
        "commands": [],
        "only_once": false,
        "priority": 20,
        "_source": [
            "remove_all_units",
            "change_tilemap;Barn",
            "add_unit;MU;0,7",
            "add_group;Barn",
            "map_anim;Square;0,7;permanent",
            "level_var;Barn;1",
            "if;{v:Chicken_Contest} == 0",
            "    level_var;Chicken_Contest;1",
            "    move_unit;Hugo;1,7;no_follow",
            "    if;{v:Village_Free_Roam} == 0",
            "        multi_add_portrait;Feodor;FarLeft;MU;CenterLeft;Hugo;Right",
            "        speak;Hugo;You two travelers?",
            "        speak;Feodor;Yeah, we are.",
            "        expression;Hugo;Smile",
            "        speak;Hugo;Great.{w} That means you can help me out.|We're holding a contest to see who raised the best chicken.|I'd judge it myself but...|Let's just say chicken politics get complicated.|So, I need an unbiased eye to tell me what the best Chicken is.|You want to judge this contest?",
            "        choice;dialogue;;Yes,No;;;center",
            "        if;\"{var:dialogue}\" == 'Yes'",
            "            speak;Hugo;Glad to hear it.|Come talk to me once you've made your decision.",
            "            multi_remove_portrait;Feodor;MU;Hugo",
            "            move_unit;Hugo;7,15;no_follow",
            "            level_var;Chicken_Contest_Active;1",
            "        else",
            "        end",
            "        if;\"{var:dialogue}\" == 'No'",
            "            speak;Hugo;That's a shame.|Come talk to me if you change your mind.",
            "            multi_remove_portrait;Feodor;MU;Hugo",
            "            move_unit;Hugo;7,15;no_follow",
            "        else",
            "        end",
            "    else",
            "        multi_add_portrait;Mikhail;FarLeft;MU;CenterLeft;Hugo;Right",
            "        speak;Hugo;You two travelers?",
            "        speak;Mikhail;Yeah, we are.",
            "        expression;Hugo;Smile",
            "        speak;Hugo;Great.{w} That means you can help me out.|We're holding a contest to see who raised the best chicken.|I'd judge it myself but...|Let's just say chicken politics get complicated.|So, I need an unbiased eye to tell me what the best Chicken is.|You want to judge this contest?",
            "        choice;dialogue;;Yes,No;;;center",
            "        if;\"{var:dialogue}\" == 'Yes'",
            "            speak;Hugo;Glad to hear it.|Come talk to me once you've made your decision.",
            "            multi_remove_portrait;Mikhail;MU;Hugo",
            "            move_unit;Hugo;7,15;no_follow",
            "            level_var;Chicken_Contest_Active;1",
            "        else",
            "        end",
            "        if;\"{var:dialogue}\" == 'No'",
            "            speak;Hugo;That's a shame.|Come talk to me if you change your mind.",
            "            multi_remove_portrait;Mikhail;MU;Hugo",
            "            move_unit;Hugo;7,15;no_follow",
            "        else",
            "        end",
            "    else",
            "    end"
        ],
        "nid": "15_Roam 6.Barn"
    }
]