[
    {
        "name": "3.130 Talk",
        "trigger": "on_talk",
        "level_nid": "15_Roam",
        "condition": "unit2.nid == \"130\"",
        "commands": [],
        "only_once": false,
        "priority": 20,
        "_source": [
            "if;{v:Village_Free_Roam} == 0",
            "    multi_add_portrait;MU;CenterRight;Feodor;FarRight;Man3;Left",
            "    speak;Man3;For a volunteer musician, he's not bad.|Shame he has to work in the mines.",
            "else",
            "    multi_add_portrait;MU;CenterRight;Mikhail;FarRight;Man3;Left",
            "    speak;Man3;For a volunteer musician, he's not bad.|Shame he has to work in the mines.",
            "end"
        ],
        "nid": "15_Roam 3.130 Talk"
    }
]