[
    {
        "name": "2.House3",
        "trigger": "House3",
        "level_nid": "15_Roam",
        "condition": "game.level_vars['Barn'] == 0",
        "commands": [],
        "only_once": false,
        "priority": 20,
        "_source": [
            "if;{v:Village_Free_Roam} == 0",
            "    change_background;House",
            "    multi_add_portrait;MU;CenterRight;Feodor;FarRight;Woman1;Left",
            "    speak;Woman1;I can't imagine the stress the mayor is under.|Fenians keep stealing our explosives and the Crown keeps increasing its quotas.|I hear there's even been talks of replacing him.|He is a kind man, I hope he can get through this.",
            "else",
            "    change_background;House",
            "    multi_add_portrait;MU;CenterRight;Mikhail;FarRight;Woman1;Left",
            "    speak;Woman1;I can't imagine the stress the mayor is under.|Fenians keep stealing our explosives and the Crown keeps increasing its quotas.|I hear there's been talks of replacing him.|He is a kind man, I hope he can get through this.",
            "end",
            "change_background"
        ],
        "nid": "15_Roam 2.House3"
    }
]