[
    {
        "name": "6.132 Talk",
        "trigger": "on_talk",
        "level_nid": "15_Roam",
        "condition": "unit2.nid == \"132\"",
        "commands": [],
        "only_once": false,
        "priority": 20,
        "_source": [
            "speak;;..."
        ],
        "nid": "15_Roam 6.132 Talk"
    }
]