[
    {
        "name": "08. Sixth Encounter",
        "trigger": "roaming_interrupt",
        "level_nid": "16",
        "condition": "region.nid == 'EncounterBox6'",
        "commands": [],
        "only_once": true,
        "priority": 20,
        "_source": [
            "level_var;current_encounter;6",
            "wait;500",
            "move_unit;Ennis;35,35",
            "add_unit;Cormorant;Ennis;immediate;stack",
            "move_unit;Cormorant;35,37;no_follow",
            "center_cursor;37,36",
            "add_group;Encounter6;Encounter6;warp",
            "for;enemy;[u.nid for u in game.get_enemy_units()]",
            "give_skill;{enemy};Astral Projection;no_banner",
            "endf",
            "wait;500",
            "map_anim;X;21,36;permanent",
            "music_clear",
            "set_game_board_bounds;15;31;39;47",
            "change_roaming;f",
            "center_cursor;Ennis",
            "wait;800",
            "change_music;player_phase;Battle 1",
            "for;the_region;[r.nid for r in game.level.regions if r.nid.startswith('E6')]",
            "add_region;{e:'Deploy' + '{the_region}'};{e:game.get_region('{the_region}').center};1,1;formation",
            "remove_region;{the_region}",
            "endf",
            "prep;t;Preparation for Battle",
            "for;team_unit;[u.nid for u in game.get_units_in_party()]",
            "reset;{team_unit}",
            "endf",
            "",
            "",
            "",
            ""
        ],
        "nid": "16 08. Sixth Encounter"
    }
]