[
    {
        "name": "01. Pipit Talk",
        "trigger": "on_talk",
        "level_nid": "16",
        "condition": "check_pair('Ennis', 'Pipit')",
        "commands": [],
        "only_once": false,
        "priority": 20,
        "_source": [
            "multi_add_portrait;Pipit;CenterLeft;Zackary;CenterRight",
            "expression;Pipit;Smile",
            "speak;Zackary;How... how did they even get that many rabbits?",
            "speak;Pipit;I still don't know! To this day I have no idea how they did that!|Anyways, Shoebill got really angry an-",
            "multi_add_portrait;Cormorant;FarLeft;Ennis;FarRight",
            "speak;Cormorant;What are you two gossiping about?",
            "if;game.check_dead('Pitta')",
            "speak;Pipit;Pitta. I want to remember the happy times with them.|Pitta being gone is... well nothing feels real right now.",
            "else",
            "speak;Pipit;Pitta. I have a duty as their older sister to embarrass them.|Or am I a younger sister now?",
            "end",
            "speak;Cormorant;If you don't mind me asking, how are you feeling about... all that?",
            "expression;Pipit;NoSmile",
            "speak;Pipit;Honestly... I don't really know.|I was worried that I'd lost years of my life, but Abeni says I haven't aged physically.|Not sure how all the magical gobbledegook works, but nothing's changed about me.|So I guess I'm content with this?",
            "speak;Ennis;I believe Cormorant was asking about Pitta working for the Crown.",
            "speak;Cormorant;I... Well yeah, I am curious.",
            "speak;Pipit;Dang, really asking the hard questions today.|I mean, I'm not exactly what you'd call the Crown's biggest fan.|No offense, Prince.",
            "speak;Zackary;I get it, Tibby's not exactly our best representative.",
            "if;game.check_dead('Pitta')",
            "speak;Pipit;But I should be dead, all things considered.|I'm only alive because I was in the right place at the right time.|And I wouldn't be in the right place if not for Pitta.|Maybe this is selfish of me, but I don't regret being alive now.|I don't want to hate a dead family member, anyways.",
            "else",
            "speak;Pipit;But I should be dead, all things considered.|I'm only alive because I was in the right place at the right time.|And I wouldn't be in the right place if not for Pitta.|Maybe this is selfish of me, but I don't regret being alive now.|Even if Pitta had to do some dubious things for it to happen.",
            "end",
            "speak;Cormorant;Never regret being alive. World is a better place with you in it, lass.",
            "speak;Pipit;Ha ha, I'd hope so.|Oh, how's my sister, Pityria? Heard that you met her on your journey.",
            "speak;Cormorant;She... misses you.|You and Pitta.",
            "speak;Ennis;She's no child Cor, just give to her straight.",
            "speak;Cormorant;...",
            "speak;Ennis;She believes your death is her fault, so she had some choice words for Cormorant.",
            "speak;Pipit;Ah, sounds like her.|Well, fun fact, I'm not dead.|So maybe I can try to smooth things over.",
            "speak;Cormorant;I doubt she'll forgive me entirely but...|It'd be nice to talk to her again.",
            "speak;Ennis;If we want that to happen, we should get going, Cor.",
            "speak;Cormorant;Yes, you're right.|Let's talk later, Pipit.",
            "",
            "",
            "",
            "",
            "",
            "",
            "",
            "",
            "",
            "",
            "",
            "",
            "",
            "",
            ""
        ],
        "nid": "16 01. Pipit Talk"
    }
]