[
    {
        "name": "01. Roxy Talk",
        "trigger": "on_talk",
        "level_nid": "16",
        "condition": "check_pair('Ennis', 'Roxy')",
        "commands": [],
        "only_once": false,
        "priority": 20,
        "_source": [
            "multi_add_portrait;Cormorant;FarLeft;Ennis;CenterLeft;Roxy;Right",
            "if;game.level_vars['RoxyIntro'] == 0",
            "speak;Roxy;Another real person?{w}\u2028Way out here?{w}\u2028I must be dreaming.",
            "speak;Ennis;I ought to ask the same thing.|How did you get here?",
            "speak;Roxy;Long story short, mending a Warp staff failed. Badly.|Been here ever since!",
            "speak;Ennis;For how long?",
            "speak;Roxy;Oh, I'd say about four years.",
            "speak;Cormorant;Excuse me? You seem... relatively sane for someone isolated for that long.",
            "speak;Roxy;Then you haven't known me for long enough!|Even before, people said I had a screw or two loose.",
            "speak;Ennis;Ah. Let's leave, Cormorant.",
            "speak;Roxy;Wait wait wait!|I do want to leave though!|This whole dream thing was cool, but I've grown bored of it.|Traveling with you two sounds fun!",
            "speak;Cormorant;I don't see any reason to say no.",
            "speak;Ennis;...|Fine. You can come with us.",
            "speak;Roxy;Ah, that sounds great!|Name is Roxy, by the way.",
            "speak;Cormorant;Welcome to the team, Roxy.",
            "speak;Roxy;Ah... Problem though.|Being here so long has... caused some issues.",
            "speak;Ennis;I can see that.",
            "speak;Roxy;Hey! I meant physical issues.|My soul has been split into four fragments.|Can't leave until I get them all back where they belong.",
            "speak;Cormorant;Lass, I don't want to abandon someone so young.",
            "speak;Ennis;Neither do I. But we're not dying for her.",
            "speak;Cormorant;Ha! You underestimate me, lass.",
            "speak;Ennis;Is that an ounce of pride I hear?|About time, you've more than proven your worth.|Very well, we'll do what we can.",
            "speak;Roxy;Thank you kindly! You won't regret this!",
            "level_var;RoxyIntro;2",
            "else",
            "if;{v:Roxy_Shards} >= 4",
            "speak;Roxy;Oh that feels so much better!|I feel alive! I could sing and dance in joy!",
            "speak;Ennis;Don't.",
            "speak;Cormorant;You ready to get moving?",
            "speak;Roxy;Yes, I'm ready.|I'll repay you back for this a hundred times over!",
            "change_team;Roxy;player",
            "move_unit;Roxy;Ennis;normal;stack",
            "remove_unit;Roxy;fade",
            "remove_talk;Ennis;Roxy",
            "add_lore;Roxy",
            "else",
            "speak;Roxy;Sorry, my soul isn't back together yet.",
            "add_talk;Ennis;Roxy",
            "end",
            "end",
            "",
            "",
            "",
            "",
            "",
            "",
            "",
            "",
            "",
            "",
            "",
            "",
            "",
            "",
            "",
            "",
            "",
            "",
            "",
            "",
            "",
            "",
            ""
        ],
        "nid": "16 01. Roxy Talk"
    }
]