[
    {
        "name": "01. Turnwheel Talk",
        "trigger": "on_talk",
        "level_nid": "16",
        "condition": "check_pair('Ennis', 'save')",
        "commands": [],
        "only_once": false,
        "priority": 20,
        "_source": [
            "table;GoldDisplay;[game.get_money()];;;60;top_right;funds_display;expression",
            "choice;wheel;Purchase a Turnwheel usage for 1000 gold?;Yes,No",
            "if;'{v:wheel}' == 'Yes' and game.get_money() >= 1000 and {v:_max_turnwheel_uses} > {v:_current_turnwheel_uses}",
            "inc_game_var;_current_turnwheel_uses;1",
            "give_money;-1000;no_banner",
            "alert;A use of the Turnwheel has been restored!",
            "elif;'{v:wheel}' == 'Yes' and {v:_max_turnwheel_uses} > {v:_current_turnwheel_uses}",
            "alert;Not enough money!",
            "elif;'{v:wheel}' == 'Yes'",
            "alert;The Turnwheel is already fully charged!",
            "else",
            "alert;Cancelled purchase.",
            "end",
            "add_talk;Ennis;save",
            "",
            "",
            "",
            "",
            "",
            "",
            "",
            ""
        ],
        "nid": "16 01. Turnwheel Talk"
    }
]