[
    {
        "name": "5x. Bronach Dies Outro",
        "trigger": "level_end",
        "level_nid": "16_part2",
        "condition": "game.game_vars['bronach_saved'] == False",
        "commands": [],
        "only_once": false,
        "priority": 20,
        "_source": [
            "multi_add_portrait;Ennis;Left;Cormorant;Right",
            "speak;Ennis;\u2028What a waste...",
            "speak;Cormorant;\u2028There's nothing you could\u2028have done. Let's go.",
            "multi_remove_portrait;Ennis;Cormorant"
        ],
        "nid": "16_part2 5x. Bronach Dies Outro"
    }
]