[
    {
        "name": "3. Bronach Ennis Fight Quote",
        "trigger": "combat_start",
        "level_nid": "16_part2",
        "condition": "check_pair('Ennis', 'Bronach_C16')",
        "commands": [],
        "only_once": false,
        "priority": 26,
        "_source": [
            "multi_add_portrait;Ennis;Left;Bronach;Right",
            "speak;Ennis;\u2028Bronach... what happened to you?{w}",
            "speak;Bronach;\u2028Thanks to the Suzerain, I now have the\u2028power to <red>DESTROY</> you for what you did!",
            "speak;Ennis;\u2028If this is indeed the Suzerain's doing,{w}\u2028then they have completely corrupted you.{w}\u2028Out of respect for the woman you once were, \u2028I will make your death swift and merciful.",
            "multi_remove_portrait;Ennis;Bronach"
        ],
        "nid": "16_part2 3. Bronach Ennis Fight Quote"
    }
]