[
    {
        "name": "Intro",
        "trigger": "level_start",
        "level_nid": "19",
        "condition": "True",
        "commands": [],
        "only_once": false,
        "priority": 20,
        "_source": [
            "game_var;DispellerRegions;[]",
            "game_var;DispellerRegions;{v:DispellerRegions} + [\"Lower Left\"] + [\"Upper Left\"] + [\"Lower Right\"] + [\"Upper Right\"]",
            "resurrect;Steel Fox_C18",
            "add_unit;Steel Fox_C18;13,9;no_warn",
            "change_team;Steel Fox_C18;enemy;no_warn",
            "set_current_hp;Steel Fox_C18;50",
            "add_tag;Steel Fox_C18;Boss",
            "show_layer;base2;immediate",
            "level_var;roomopen;0",
            "show_layer;leftwall",
            "show_layer;rightwall",
            "show_layer;topwall",
            "show_layer;southwall",
            "#",
            "music;Hornet",
            "center_cursor;Steel Fox_C18",
            "flicker_cursor;Steel Fox_C18",
            "wait;1000",
            "add_portrait;Steel Fox_C18;Left",
            "speak;Steel Fox_C18;To think I thought you an honorable woman!|But you're just like your witch of a mother!|Men... prepare the Devil's Cry.|Even if we die here, we must end the Connachta bloodline!",
            "remove_portrait;Steel Fox_C18",
            "move_unit;Steel Fox_C18;13,10",
            "wait;1500",
            "sound;Barrier",
            "wait;1500",
            "map_anim;Square;13,10;permanent",
            "#",
            "center_cursor;13,17",
            "wait;500",
            "show_layer;southwall",
            "wait;200",
            "center_cursor;9,13",
            "wait;500",
            "show_layer;leftwall",
            "wait;200",
            "center_cursor;18,8",
            "wait;500",
            "show_layer;rightwall",
            "wait;200",
            "center_cursor;13,5",
            "wait;500",
            "show_layer;topwall",
            "wait;200",
            "center_cursor;13,10",
            "wait;300",
            "flicker_cursor;13,10",
            "wait;700",
            "center_cursor;Ennis",
            "move_unit;Ennis;4,25;immediate",
            "move_unit;Cormorant;3,25;immediate",
            "center_cursor;Ennis",
            "wait;500",
            "move_unit;Ennis;4,23;no_block",
            "move_unit;Cormorant;3,24;no_follow",
            "add_portrait;Ennis;FarLeft",
            "add_portrait;Cormorant;CenterLeft",
            "speak;Cormorant;The Devil's Cry?|What the hell is she...",
            "speak;Ennis;She wishes to make herself a martyr.|I'm happy to oblige her, although we mus-",
            "speak;Ennis;Oh?",
            "speak;Ennis;A rather dirty trick for our honorable knight.|She's set up four dispellers, <red>weakening magic and prohibiting Mana skills.</>",
            "speak;Cormorant;She's buying herself time.|At this rate, she'll kill us all in <red>12 turns.</>",
            "speak;Ennis;A trivial matter.",
            "remove_portrait;Ennis",
            "remove_portrait;Cormorant",
            "center_cursor;13,21",
            "flicker_cursor;13,21",
            "wait;500",
            "center_cursor;5,14",
            "flicker_cursor;5,14",
            "wait;500",
            "center_cursor;14,0",
            "flicker_cursor;14,0",
            "wait;500",
            "center_cursor;24,3",
            "flicker_cursor;24,3",
            "wait;500",
            "center_cursor;Ennis",
            "wait;500",
            "speak;Narrator;Each highlighted tile will deactivate a different section's barrier.{w}{br}Each tile is linked with the next clockwise barrier.{w}{br}For example, Ennis's tile will unlock the top barrier.{w}{br}Removing a Barrier will give the choice to remove the Dispeller effect from one region.;;200;hint",
            "#",
            "wait;500",
            "add_portrait;Ennis;FarLeft",
            "add_portrait;Cormorant;CenterLeft",
            "speak;Ennis;Shall we, Cor?",
            "speak;Ennis;Let's put these thugs to the sword.",
            "speak;Cormorant;...;;no_talk",
            "arrange_formation",
            "prep;t;Beautiful Emperor",
            "#",
            ""
        ],
        "nid": "19 Intro"
    }
]