[
    {
        "name": "Steel Fox Generic Battle",
        "trigger": "combat_start",
        "level_nid": "19",
        "condition": "check_default('Steel Fox_C18', ['Cormorant'])",
        "commands": [],
        "only_once": true,
        "priority": 20,
        "_source": [
            "add_portrait;Steel Fox_C18;Left",
            "speak;Steel Fox_C18;It is always shameful to see allies come to blows.{w}{br}Whether or not Tiberius lives,{w} honor demands I finish this battle.",
            "remove_portrait;Steel Fox_C18",
            ""
        ],
        "nid": "19 Steel Fox Generic Battle"
    }
]