[
    {
        "name": "-02. Achievement Items",
        "trigger": "level_start",
        "level_nid": "1",
        "condition": "True",
        "commands": [],
        "only_once": false,
        "priority": 99,
        "_source": [
            "if;RECORDS.get('A_I1')",
            "    give_item;convoy;Energy Ring;no_banner",
            "    give_item;convoy;Dragonshield;no_banner",
            "    give_item;convoy;Secret Book;no_banner",
            "    give_item;convoy;Speedwing;no_banner",
            "    give_item;convoy;Goddess Icon;no_banner",
            "    give_item;convoy;Talisman;no_banner",
            "    give_item;convoy;Body Ring;no_banner",
            "    give_item;convoy;Swiftsole;no_banner",
            "end",
            "if;RECORDS.get('A_I2')",
            "    give_item;convoy;Energy Ring;no_banner",
            "    give_item;convoy;Dragonshield;no_banner",
            "    give_item;convoy;Secret Book;no_banner",
            "    give_item;convoy;Speedwing;no_banner",
            "    give_item;convoy;Goddess Icon;no_banner",
            "    give_item;convoy;Talisman;no_banner",
            "    give_item;convoy;Body Ring;no_banner",
            "    give_item;convoy;Swiftsole;no_banner",
            "    give_item;convoy;Energy Ring;no_banner",
            "    give_item;convoy;Dragonshield;no_banner",
            "    give_item;convoy;Secret Book;no_banner",
            "    give_item;convoy;Speedwing;no_banner",
            "    give_item;convoy;Goddess Icon;no_banner",
            "    give_item;convoy;Talisman;no_banner",
            "    give_item;convoy;Body Ring;no_banner",
            "    give_item;convoy;Swiftsole;no_banner",
            "end",
            "if;RECORDS.get('A_I3')",
            "    give_money;5000;no_banner",
            "end",
            "if;RECORDS.get('A_I4')",
            "    give_money;10000;no_banner",
            "end",
            "if;RECORDS.get('A_I5')",
            "    give_item;convoy;Rainbow_Potion;no_banner",
            "end",
            "if;RECORDS.get('A_I6')",
            "    give_item;convoy;Mogall_Gift;no_banner",
            "end",
            "if;RECORDS.get('A_I7')",
            "    give_item;convoy;Mogall_Gift;no_banner",
            "end",
            "if;RECORDS.get('A_I8')",
            "    give_item;convoy;Mogall_Gift;no_banner",
            "end",
            "if;RECORDS.get('A_I9')",
            "    give_item;convoy;Isadors_Tome;no_banner",
            "end",
            "if;RECORDS.get('A_I10')",
            "    give_item;convoy;Isadors_Tome;no_banner",
            "end",
            "if;RECORDS.get('A_I11')",
            "    give_item;convoy;Isadors_Tome;no_banner",
            "end",
            "if;RECORDS.get('A_I12')",
            "    give_item;convoy;Arms Scroll;no_banner",
            "end",
            "if;RECORDS.get('A_I13')",
            "    give_item;convoy;Arms Scroll;no_banner",
            "end",
            "if;RECORDS.get('A_I14')",
            "    give_item;convoy;Arms Scroll;no_banner",
            "end",
            "if;RECORDS.get('A_I15')",
            "    give_item;convoy;Silver_Card;no_banner",
            "end",
            "if;RECORDS.get('A_S1')",
            "    give_item;convoy;Nettlelight_Scroll;no_banner",
            "end",
            "if;RECORDS.get('A_S2')",
            "    give_item;convoy;Darkthorn_Scroll;no_banner",
            "end",
            "if;RECORDS.get('A_S3')",
            "    give_item;convoy;EtherStrikes_Scroll;no_banner",
            "end",
            "if;RECORDS.get('A_S4')",
            "    give_item;convoy;Bluff_Scroll;no_banner",
            "end",
            "if;RECORDS.get('A_S5')",
            "    give_item;convoy;Adapt_Scroll;no_banner",
            "end",
            "if;RECORDS.get('A_S6')",
            "    give_item;convoy;ToxicSweat_Scroll;no_banner",
            "end",
            "if;RECORDS.get('A_S7')",
            "    give_item;convoy;OriginalSin_Scroll;no_banner",
            "end",
            "if;RECORDS.get('A_S8')",
            "    give_item;convoy;CrownsDecree_Scroll;no_banner",
            "end",
            "if;RECORDS.get('A_S9')",
            "    give_item;convoy;ActTwice_Scroll;no_banner",
            "end"
        ],
        "nid": "1 -02. Achievement Items"
    }
]