[
    {
        "name": "-01. AddSkills",
        "trigger": "level_start",
        "level_nid": "1",
        "condition": "True",
        "commands": [],
        "only_once": true,
        "priority": 20,
        "_source": [
            "# use this to add skills to generic units",
            "give_skill;Balhkoin_C1;Bowbreaker;no_banner",
            "# assassin too dodgy",
            "give_skill;Balhkoin_C1;Avoid -25;no_banner",
            "# also various bookkeeping",
            "if;game.get_unit('MU').klass in ['Mercenary', 'Myrmidon']",
            "    give_item;MU;Steel Blade;no_banner",
            "elif;game.get_unit('MU').klass in ['Cavalier', 'Soldier', 'Lance_Knight', 'Pegasus_Knight', 'Wyvern Rider']",
            "    give_item;MU;Steel Lance;no_banner",
            "elif;game.get_unit('MU').klass in ['Fighter', 'Pirate', 'Brigand', 'Axe_Knight', 'Wyvern Rider (Axe)']",
            "    give_item;MU;Steel Axe;no_banner",
            "elif;game.get_unit('MU').klass in ['Archer']",
            "    give_item;MU;Steel Bow;no_banner",
            "elif;game.get_unit('MU').klass in ['Monk']",
            "    give_item;MU;Lightning;no_banner",
            "elif;game.get_unit('MU').klass in ['Mage']",
            "    give_item;MU;Fire;no_banner",
            "elif;game.get_unit('MU').klass in ['Shaman']",
            "    give_item;MU;Flux;no_banner",
            "elif;game.get_unit('MU').klass in ['Thief']",
            "    give_wexp;MU;Dagger;121;no_banner",
            "    give_item;MU;Steel Dagger;no_banner",
            "end",
            "game_var;_convoy;True",
            "change_ai;MU;Defend"
        ],
        "nid": "1 -01. AddSkills"
    }
]