[
    {
        "name": "032. FightMU General",
        "trigger": "combat_start",
        "level_nid": "1",
        "condition": "((unit.nid == \"MU\" and unit2.team == 'player') or (unit2.nid == \"MU\" and unit.team == 'player')) and not (check_pair('MU', 'Cormorant') or check_pair('MU', 'Ennis'))",
        "commands": [],
        "only_once": true,
        "priority": 19,
        "_source": [
            "add_portrait;MU;Left",
            "speak;MU;\u2028Sorry, friend.{w} There's no good reason\u2028for you to die here.{w}\u2028But that's the way of life."
        ],
        "nid": "1 032. FightMU General"
    }
]