[
    {
        "name": "DoorLeftOpen",
        "trigger": "on_region_interact",
        "level_nid": "1",
        "condition": "region.nid == 'DoorLeft'",
        "commands": [],
        "only_once": true,
        "priority": 20,
        "_source": [
            "show_layer;LeftDoor;fade",
            "unlock;{unit}",
            "has_attacked;{unit}"
        ],
        "nid": "1 DoorLeftOpen"
    }
]