[
    {
        "name": "1. Cutscene",
        "trigger": "level_start",
        "level_nid": "20c",
        "condition": "True",
        "commands": [],
        "only_once": false,
        "priority": 20,
        "_source": [
            "change_background;BlackBackground",
            "transition;close",
            "center_cursor;0,0;;immediate",
            "wait;2000",
            "transition;open",
            "speak_style;DDreedur;;5,5;230;;white;;None",
            "speak_style;DAyla;;;;;white;;None",
            "sound;shoveling_dirt",
            "wait;5000",
            "speak;;It is done, mistress.;;;DDreedur",
            "speak;;Good.{w} Dump it in.;;;DAyla",
            "speak;;...;;;DDreedur",
            "wait;1000",
            "speak;;Wait.{w} Let me see her.;;;DAyla",
            "speak;;Yes?;;;DDreedur",
            "speak;;Give me a moment.;;;DAyla",
            "sound;squelch",
            "wait;2000",
            "speak;;Agh!;;;DAyla",
            "speak;;Mistress Ayla! What are you -;;;DDreedur",
            "speak;;Don't...{w} agh...{w} get so worked up.;;;DAyla",
            "speak;;It was nothing more than a magical attachment.;;;DAyla",
            "speak;;The damage is merely...{w} ugh...{w} illusory.;;;DAyla",
            "speak;;My real eye will return shortly.;;;DAyla",
            "speak;;See?;;;DAyla",
            "speak;;I...{w} I see.;;;DDreedur",
            "speak;;Now, show me the body...;;;DAyla",
            "speak;;...;;;DDreedur",
            "sound;squelch",
            "wait;2000",
            "speak;;She always resented me for having the other Eye.;;;DAyla",
            "speak;;What she thought belonged to her.;;;DAyla",
            "speak;;Well, now she can have her due.;;;DAyla",
            "speak;;Is... is there significance to this sacrifice, Mistress?;;;DDreedur",
            "speak;;No.;;;DAyla",
            "speak;;I've merely grown tired of wearing the Eye.;;;DAyla",
            "speak;;And I will not need it any longer.;;;DAyla",
            "speak;;Not after tomorrow.;;;DAyla",
            "speak;;D-do you need a handkerchief?;;;DDreedur",
            "speak;;Yes, thank you.;;;DAyla",
            "speak;;That'll be all - throw the rest of the dirt back on.{w};;;DAyla",
            "sound;shoveling_dirt",
            "wait;3000",
            "speak;;...{w} Good.{w} Your men are dismissed.;;;DAyla",
            "speak;;Praised be the Suzerain, Mistress.;;;DDreedur",
            "speak;;Yes, yes.;;;DAyla",
            "speak;;Now leave me.;;;DAyla",
            "speak;;I must think.;;;DAyla",
            "transition;close",
            "end_skip",
            "music;Clair de Lune",
            "change_background",
            "transition;open;2500",
            "move_cursor;AylaTrue;3500",
            "wait;1000",
            "add_portrait;Ayla;CenterRight",
            "speak;Ayla;Well, Dullahan.{w} Good news, bad news.",
            "bop_portrait;Ayla",
            "speak;Ayla;Your misery now has company.",
            "wait;500",
            "speak;Ayla;Unfortunately, it's Ysbryd.",
            "expression;Ayla;CloseEyes",
            "wait;1000",
            "expression;Ayla;OpenEyes",
            "speak;Ayla;You two chose a poor time to die.{w} Tomorrow's the day.{w} You waited decades for it, and now that it's here, you're fertilizer.",
            "speak;Ayla;...",
            "remove_portrait;Ayla",
            "move_unit;AylaTrue;7,15;no_follow",
            "add_portrait;Ayla;CenterRight",
            "speak;Ayla;I never did like you much, Ysbryd.{w} The Left Eye to my Right ...{w} always wondered why Mordeau gave you the other one.",
            "speak;Ayla;Make us get along? Unlikely.|I can count the number of conversations we've had on my hands.|None of them all too friendly.",
            "speak;Ayla;I think I regret that, somewhat.{w} I still don't like you.",
            "expression;Ayla;CloseEyes",
            "bop_portrait;Ayla",
            "speak;Ayla;But...",
            "transition;close;2500",
            "remove_portrait;Ayla",
            "change_background;moon_night_pnorama",
            "transition;open",
            "wait;1000",
            "speak;;I think I would've liked to know what you were doing this for.",
            "speak;;What made you wake up every morning and decide to put your life to something like this.",
            "speak;;How you thought this was going to end.",
            "speak;;...",
            "speak;;I have nightmares often.{w} Quelea believes me to be unstable because of them.",
            "speak;;In some ways, I'm thankful for it.{w} It means that I'm glad to wake up.{w} Even if I have to wake up to all of this.|If I didn't have nightmares, then waking up would be a lot more difficult to justify.",
            "speak;;That's not the case with you.{w} You're probably glad to die to see this dream come true.{w} That's why I really didn't like you.",
            "speak;;We never saw eye to eye, but maybe that's the idea.{w} Us two Eyes, seeing the world differently.",
            "speak;;Just in case one of them got it right.",
            "speak;;Unfortunately, you did not.{w}",
            "speak;;...{w} but I don't think I got it right, either.",
            "speak;;It's hard to say.{w} We'll have to see what happens.",
            "speak;;The thought does please me, though.",
            "speak;;Tomorrow, *you* are going to have to wake up from a twenty-year dream.",
            "speak;;As for me...",
            "transition;close;2500",
            "change_background",
            "end_skip",
            "transition;open",
            "add_portrait;Ayla;CenterRight",
            "bop_portrait;Ayla",
            "speak;Ayla;I think waking up will be easier.",
            "remove_portrait;Ayla",
            "move_cursor;9,19",
            "wait;1000",
            "add_unit;101;9,19;fade",
            "wait;1000",
            "add_portrait;Novala;Right",
            "add_portrait;Ayla;Left",
            "speak;Novala;Mistress Ayla.{w} Quelea wishes for you to return to your post. ",
            "speak;Ayla;Quelea?{w} Tell her I'll return when I'm ready.",
            "remove_portrait;Novala",
            "remove_unit;101;fade",
            "remove_portrait;Ayla",
            "move_unit;AylaTrue;9,19",
            "remove_unit;AylaTrue;fade",
            "wait;1000",
            "center_cursor;6,14;2000",
            "wait;1000",
            "move_cursor;0,0;3500",
            "speak;Ayla;Wherever you are, Ysbryd, I hope you're disappointed.",
            "wait;2000",
            "change_background;title_background;no_warn",
            "transition;close;2500",
            "change_background;BlackBackground",
            "music;An Infinite Sadness;4000",
            "wait;4000"
        ],
        "nid": "20c 1. Cutscene"
    }
]