[
    {
        "name": "2f. Visions of the Past",
        "trigger": null,
        "level_nid": "20i",
        "condition": "True",
        "commands": [],
        "only_once": false,
        "priority": 20,
        "_source": [
            "change_background;BlackBackground",
            "wait;500",
            "sound;heartbeat",
            "change_music;player_phase;Soul Sanctum",
            "music;Soul Sanctum",
            "wait;500",
            "speak;;I suppose you will need a name.;;;memory",
            "speak;;I can hardly call you \"Suzerain\" in your present state, no?;;;memory",
            "transition;close",
            "change_background",
            "transition;open",
            "give_item;AylaTrue;Lia_Fal_Fake",
            "remove_item;AylaTrue;Lia_Fal_Fake;;no_banner"
        ],
        "nid": "20i 2f. Visions of the Past"
    }
]