[
    {
        "name": "1. Bedroom Interact",
        "trigger": "BedroomInteract",
        "level_nid": "20i",
        "condition": "True",
        "commands": [],
        "only_once": false,
        "priority": 20,
        "_source": [
            "if;'Book' in region.nid",
            "    draw_overlay_sprite;dialog;grey_dialogue",
            "    speak;;A book... There's a message scrawled in these pages, over and over again.;;;self",
            "    speak;;WAKE UP.;center;;self",
            "    speak;;FACE THE MUSIC.;center;;self",
            "elif;'Bed' in region.nid",
            "    draw_overlay_sprite;dialog;grey_dialogue",
            "    speak;;Sleeping will only take me deeper into this nightmare.;;;self",
            "    battle_save",
            "elif;'Fire' in region.nid",
            "    draw_overlay_sprite;dialog;grey_dialogue",
            "    speak;;The fire is crackling. It's warm.{w} I feel I could stay here forever...;;;self",
            "elif;'Door' in region.nid",
            "    if;not {v:MusicTurnedOff}",
            "        draw_overlay_sprite;dialog;grey_dialogue",
            "        speak;;The door is unlocked.;;;self",
            "        speak;;I feel HER out there.{w} She's waiting for me.;;;self",
            "        speak;;...;;;self",
            "        speak;;I don't know if I have a choice.;;;self",
            "        speak;;...;;;self",
            "        speak;;That damnable music.{w} I should shut it off before leaving.;;;self",
            "        speak;;Or it'll stick in my head when I'm awake, too.;;;self",
            "    else",
            "        draw_overlay_sprite;dialog;grey_dialogue",
            "        speak;;The door is unlocked.;;;self",
            "        speak;;I feel HER out there.{w} She's waiting for me.;;;self",
            "        speak;;...;;;self",
            "        speak;;I don't know if I have a choice.;;;self",
            "        choice;Abort;Leave the dream?;Yes,No;no_bg",
            "        if;'{v:Abort}' == 'Yes'",
            "            win_game",
            "        end",
            "    end",
            "elif;'Music' in region.nid",
            "    draw_overlay_sprite;dialog;grey_dialogue",
            "    if;{v:MusicTurnedOff}",
            "        if;not {v:FirstDoorUnlocked}",
            "            speak;;There's a keyhole in the gramophone. Wonder what it's for?;;;self",
            "            remove_overlay_sprite;dialog",
            "            if;{v:FirstKeyAcquired}",
            "                choice;UnlockGramophone;Use the Key of Beginnings?;Yes,No;no_bg",
            "                if;'{v:UnlockGramophone}' == 'Yes'",
            "                    sound;door unlocking",
            "                    level_var;FirstDoorUnlocked;1",
            "                end",
            "            end",
            "        else",
            "            remove_overlay_sprite;dialog",
            "            sound;door creaking",
            "            transition;close",
            "        remove_unit;{unit}",
            "        center_cursor;9,79;immediate",
            "        wait;500",
            "        transition;open",
            "        add_unit;{unit};9,79;fade;closest;south",
            "        wait;500",
            "        end",
            "    else",
            "        speak;;This piece again. I hate this piece...;;;self",
            "        choice;TurnOff;Turn off the music?;Yes,No;no_bg",
            "        remove_overlay_sprite;dialog",
            "        if;'{v:TurnOff}' == 'Yes'",
            "            level_var;MusicTurnedOff;1",
            "            change_music;player_phase;rain_and_fire",
            "            music;rain_and_fire",
            "            draw_overlay_sprite;dialog;grey_dialogue",
            "            speak;;...{w} What's this?;;;self",
            "            speak;;There's a keyhole in the gramophone. Wonder what it's for?;;;self",
            "        end",
            "    end",
            "end"
        ],
        "nid": "20i 1. Bedroom Interact"
    }
]