[
    {
        "name": "BossQuote - Suzerain+Ayla",
        "trigger": "combat_start",
        "level_nid": "21",
        "condition": "check_pair('SuzerainC21', 'AylaTrue') and game.level_vars['BTag'] == 1",
        "commands": [],
        "only_once": true,
        "priority": 20,
        "_source": [
            "multi_add_portrait;Suzerain;Left;Ayla;Right",
            "if;game.get_unit('AylaTrue').get_weapon().nid == 'Deviant Fragarach'",
            "    speak;Suzerain;\u2028WHAT YOU HOLD THERE IS A MERE IMITATION.{w}\u2028THAT IS ALL YOU WILL EVER BE,\u2028A BEING SUBPAR OF THE ORIGINAL.;;;noir",
            "    speak;Ayla;\u2028Imitation or not, this is the precise \u2028shape of a god's death.{w}\u2028Crafted by my hands for only one purpose.{w}\u2028Tell me, in the presence of this\u2028\"imitation\", do you feel fear?",
            "end",
            "speak;Suzerain;\u2028A VESSEL THAT BETRAYED FATE!{w}\u2028THERE'S STILL TIME TO REDEEM \u2028YOURSELF.{w} DEVOTE YOUSELF TO ME!;;;noir;NumLines=3",
            "speak;Ayla;\u2028You've manifested into a physical form\u2028and now you're making demands?!{w}\u2028For a mere god you sure are aggravating.{w}\u2028You wouldn't understand my true desires.{w}\u2028Perish once and for all!"
        ],
        "nid": "21 BossQuote - Suzerain+Ayla"
    }
]