[
    {
        "name": "BossQuote - EnnisG+Kingfisher",
        "trigger": "combat_start",
        "level_nid": "21",
        "condition": "check_pair('Ennis', 'Kingfisher') and game.game_vars['EnnisDeified'] == True",
        "commands": [],
        "only_once": true,
        "priority": 20,
        "_source": [
            "multi_add_portrait;EnnisGamerCutscene;Left;Kingfisher;Right",
            "speak;Kingfisher;\u2028L-lady Connachta.",
            "speak;EnnisGamerCutscene;\u2028Kingfisher.{w} \u2028You're looking awful grim.",
            "speak;Kingfisher;\u2028I h-have to \u2028fight you now.",
            "speak;EnnisGamerCutscene;\u2028I always wanted to ask.{w} \u2028How did you lose your eye, exactly?{w} \u2028And how come you're such \u2028a good shot with just one?",
            "speak;Kingfisher;\u2028I d-don't...",
            "speak;EnnisGamerCutscene;\u2028Can I touch it?",
            "speak;Kingfisher;\u2028H-huh?",
            "move_portrait;EnnisGamerCutscene;CenterRight",
            "wait;200",
            "move_portrait;EnnisGamerCutscene;Left",
            "bop_portrait;Kingfisher",
            "#[Ennis moves close, then back.]",
            "end_skip",
            "speak;Kingfisher;A-ack!",
            "speak;EnnisGamerCutscene;\u2028Blinded in the war...{w} \u2028grievous wounds...{w} \u2028a prisoner... a survivor?{w} \u2028You've had quite the life, haven't you?",
            "speak;Kingfisher;\u2028H-how did you...",
            "speak;EnnisGamerCutscene;\u2028But yet...{w} \u2028you've never missed a shot?",
            "speak;Kingfisher;\u2028... No. Never.",
            "speak;EnnisGamerCutscene;\u2028Someone who's gone through \u2028as much as you have...{w} \u2028you should've gotten the \u2028chance to live a quiet life.{w} \u2028But with a skillset like yours, made for war...{w} \u2028Not much else you can do, huh?",
            "speak;Kingfisher;\u2028It's just how it is.",
            "speak;EnnisGamerCutscene;\u2028I can't help but notice,{w} \u2028Kingfisher, that you're aiming at me.{w} \u2028Do you mean to kill me?",
            "speak;Kingfisher;\u2028I've never missed a shot, Lady Connachta."
        ],
        "nid": "21 BossQuote - EnnisG+Kingfisher"
    }
]