[
    {
        "name": "Oc. Outro EnnisGod",
        "trigger": "level_end",
        "level_nid": "21",
        "condition": "False",
        "commands": [],
        "only_once": false,
        "priority": 20,
        "_source": [
            "transition;close",
            "remove_all_units",
            "change_background;spacebg21",
            "music;Veiled in Black - Insomnia",
            "transition;open",
            "add_portrait;Ennis;Left;;CloseEyes",
            "speak;Ennis;\u2028...",
            "add_portrait;Cormorant;Right",
            "speak;Cormorant;\u2028It's over Ennis.{w} \u2028You've lost.",
            "speak;Ennis;\u2028... I've been bested.{w}",
            "expression;Ennis;OpenEyes",
            "speak;Ennis;\u2028You drove the Fragarach \u2028through me without hesitation.{w}\u2028For that you deserve praise.",
            "speak;Cormorant;\u2028You didn't leave me much of a choice.{w}\u2028I'm sorry it had to end this way.",
            "speak;Ennis;\u2028Don't pity me.{w}\u2028I finally attained the \u2028power to enact my revenge.{w}\u2028The world was in the palm of my hand.{w}\u2028Until you stood against me.",
            "speak;Cormorant;\u2028You were drunk on power.{w}\u2028No remorse, you were \u2028going to kill us all!{w}\u2028All I did was put a\u2028stop to your rampage.{w}\u2028There's still time Ennis,{w} \u2028relinquish the Godheart.",
            "speak;Ennis;\u2028I have no intention of \u2028giving up the Godheart.{w}\u2028The stage has been set for \u2028me to perform my final act.",
            "#Ennis regaining power",
            "speak;Cormorant;\u2028Ennis please stop,{w} \u2028there is no need to continue this!",
            "speak;Ennis;\u2028As long as I am one with the Godheart I will \u2028continue to regenerate,{w} thus making me immortal.{w}\u2028You should have aimed for the heart!",
            "#Cor final stab",
            "#end skip",
            "end_skip",
            "move_portrait;Cormorant;MidLeft",
            "sound;Critical Kill",
            "music_clear",
            "expression;Ennis;CloseEyes",
            "wait;500",
            "speak;Ennis;\u2028... I knew I could rely on you..{w}\u2028... Thank you...{w} \u2028Cor...",
            "remove_portrait;Ennis",
            "sound;Death",
            "wait;750",
            "#moment of silence, Chronos appears",
            "#temp end skip",
            "end_skip",
            "music;Past Below",
            "wait;500",
            "expression;Cormorant;CloseEyes",
            "add_portrait;Chronos;Right",
            "speak;Cormorant;\u2028She reminded me of my own daughter.{w}",
            "expression;Cormorant;OpenEyes",
            "speak;Cormorant;\u2028I had already buried my \u2028own daughter once before.{w}\u2028And now I sent another\u2028girl to an early grave.{w}\u2028This... is some kind of sick joke.",
            "speak;Chronos;\u2028Unfortunately there's a price to pay for \u2028peace.{w} History continues to repeat itself.",
            "mirror_portrait;Cormorant",
            "speak;Cormorant;\u2028Are those words supposed to console me?",
            "speak;Chronos;\u2028No.{w} These words wouldn't suffice.{w}\u2028And neither can I understand \u2028the pain in your heart.{w}",
            "remove_portrait;Chronos",
            "#end skip",
            "end_skip",
            "multi_add_portrait;MU;FarLeft;Feodor;MidRight;Mikhail;Right;Isador;FarRight",
            "speak;Feodor;\u2028Is she actually dead?{w}\u2028Not going to suddenly raise from \u2028the dead and get her revenge?",
            "speak;Mikhail;\u2028Maybe we should cut her head off.{w}\u2028Just to make sure.",
            "speak;Isador;\u2028No signs of life.{w}\u2028She's dead.",
            "choice;dialogue;;I think we should give her time to mourn.,Must be difficult to kill a friend.;;;center",
            "speak;MU;{var:dialogue}",
            "speak;Cormorant;\u2028I would like to be left alone.",
            "remove_portrait;Isador",
            "add_portrait;Chronos;FarRight",
            "speak;Chronos;\u2028Leave the Godheart to me,{w}\u2028it'll be placed far away\u2028from the hands of mortals.\u2028The rest of you gather around.{w}\u2028I'll return you back to Braghedunn.;NumLines=3",
            "transition;close",
            "music_clear",
            "#load \"EnnisGod\" route epilogue",
            "game_var;_goto_level;\"EpilogueEnnis\""
        ],
        "nid": "21 Oc. Outro EnnisGod"
    }
]