[
    {
        "name": "WS. Suzerain Dead Cor",
        "trigger": "combat_end",
        "level_nid": "21",
        "condition": "game.check_dead(\"SuzerainC21\")  and game.game_vars['Cor'] == True",
        "commands": [],
        "only_once": true,
        "priority": 20,
        "_source": [
            "transition;close;500;0,0,0;BlackBackground",
            "speak_style;C;;center;;;black;;None;;f;None;fit",
            "remove_all_units",
            "resurrect;SuzerainC21",
            "add_unit;SuzerainC21;16,2",
            "add_unit;Cormorant;16,7",
            "if;not_dead('Kingfisher')",
            "    add_unit;Kingfisher;15,7",
            "else",
            "    add_unit;Thrant;15,7",
            "end",
            "if;not_dead('Sionn')",
            "    add_unit;Sionn;17,7",
            "else",
            "    add_unit;Abeni;17,7",
            "end",
            "center_cursor;SuzerainC21",
            "transition;open;1000",
            "wait;300",
            "",
            "move_unit;Cormorant;16,4;no_block",
            "move_unit;Thrant;15,4;no_block",
            "move_unit;Kingfisher;15,4;no_block",
            "move_unit;Abeni;17,4",
            "move_unit;Sionn;17,4",
            "add_portrait;Suzerain;Right",
            "e;Suzerain;CloseEyes",
            "s;Suzerain;No... no...{c:e;Suzerain;NormalBlink} BEGONE!;;;noir;NumLines=1",
            "remove_unit;Thrant;warp",
            "remove_unit;Kingfisher;warp",
            "remove_unit;Abeni;warp",
            "remove_unit;Sionn;warp",
            "add_portrait;Cormorant;Left",
            "s;Cormorant;That's a nice trick.;NumLines=1",
            "s;Suzerain;...;;;noir;NumLines=1",
            "music;doll_sadness",
            "s;Cormorant;You afraid?;NumLines=1",
            "s;Suzerain;...;;;noir;NumLines=1",
            "s;Suzerain;Why do you do this to me?;;;noir",
            "s;Suzerain;What... have I done?;;;noir",
            "s;Cormorant;...;NumLines=1",
            "s;Cormorant;To me? Nothing. Nothing you meant to do.",
            "s;Cormorant;Really, you... what did you want, anyway?",
            "s;Cormorant;Looking at you now, it hardly feels like you're an enemy.",
            "s;Cormorant;You didn't ask to be in this mess. ",
            "s;Cormorant;But you're gonna have to be cleaned up all the same.",
            "s;Cormorant;Bad luck, I guess.;NumLines=1",
            "s;Suzerain;I... I don't want to...;;;noir",
            "s;Cormorant;To die?;NumLines=1",
            "s;Cormorant;You know. What if I told you you didn't have to?",
            "s;Suzerain;... to die?;;;noir;NumLines=1",
            "s;Cormorant;I don't have a bone to pick with you.",
            "s;Cormorant;I'm not Abeni, or Remri, or anyone.",
            "s;Cormorant;You can just walk away here. I won't follow you.",
            "s;Cormorant;Go, fly away into space. Whatever. Live in the spirit world or wherever you were. Live quietly.|Without blessing people or cursing them or reaching into their minds and poisoning them with thoughts of war.;NumLines=3",
            "s;Cormorant;If you do that, then we can kiss each other goodbye and go back home.",
            "s;Suzerain;... I cannot. That is... my purpose.;;;noir",
            "e;Suzerain;CloseEyes",
            "s;Suzerain;I must...;;;noir;NumLines=1",
            "s;Cormorant;You want to fight, still?;NumLines=1",
            "s;Suzerain;It is... my purpose...;;;noir",
            "e;Suzerain;NormalBlink",
            "s;Suzerain;Even though I don't want to...;;;noir",
            "s;Cormorant;...;NumLines=1",
            "s;Cormorant;Yeah, I thought it might've been a bum hand from the start.",
            "s;Cormorant;Still, had to try to play it. You only get one, after all.",
            "e;Cormorant;CloseEyes",
            "s;Cormorant;Goodbye, Suzerain.;NumLines=1",
            "transition;close;1000;;WhiteBackground",
            "wait;1000",
            "change_tilemap;Ch 12",
            "add_unit;Chronos;16,5",
            "add_unit;Cormorant;27,7",
            "center_cursor;Chronos",
            "change_background;BlackBackground",
            "transition;open;1000;255,255,255",
            "change_background",
            "music;Clair de Lune",
            "move_unit;Cormorant;16,7;no_follow",
            "multi_add_portrait;Cormorant;Left;Chronos;Right",
            "s;Cormorant;Job's done, Ibormeith.",
            "s;Cormorant;Time to hold up your end of the promise.",
            "s;Chronos;Do you have the Lia F\u00e1l?;NumLines=1",
            "bop;Cormorant",
            "s;Cormorant;With interest.;NumLines=1",
            "s;Chronos;Very well.;NumLines=1",
            "s;Cormorant;Wait.;NumLines=1",
            "s;Cormorant;... Could you restore the Connachta mansion to its prior state, too?",
            "s;Cormorant;I want her to wake up in a place she calls home.",
            "s;Chronos;Simple. Done.;NumLines=1",
            "s;Cormorant;... and one more thing.;NumLines=1",
            "s;Cormorant;This one's easy. Just a question.",
            "s;Cormorant;Ennis's mother. What was she like, really?",
            "s;Cormorant;I never met the woman, but there must have been a reason you brought her back.",
            "s;Cormorant;Seems like an awful departure from how cagey you normally are.",
            "s;Chronos;\"Cagey\"... ;NumLines=1",
            "s;Chronos;I do not deny that I dislike interfering in mortal affairs.",
            "s;Cormorant;We're of one mind there.;NumLines=1",
            "s;Chronos;Ennis's mother... the Lady Connachta...",
            "s;Chronos;I brought her back because she would act. In so doing, I could avoid acting myself.",
            "s;Cormorant;That's all? Because she would act?",
            "s;Chronos;It is enough. That she would obsessively seek the destruction of the Suzerain, and ultimately bring about the desired outcome.;NumLines=3",
            "s;Cormorant;Don't you think that's cruel?",
            "s;Cormorant;If I were her, I would've preferred to go out at the eleventh hour. Final moment, thinking I took the Suzerain down with me.;NumLines=3",
            "s;Cormorant;Imagine having to live in the shadow of that, never really out of the woods. Having that hanging over you.;NumLines=3",
            "s;Chronos;Is that not hypocritical of you to say that now, of all times?",
            "s;Cormorant;No. Things are different with her. Things will turn out better, I trust.",
            "s;Cormorant;That's what second chances are for.",
            "s;Chronos;Hm.;NumLines=1",
            "s;Cormorant;Enough yapping. Let's get on with it.",
            "s;Chronos;...;NumLines=1",
            "s;Chronos;Very well.;NumLines=1",
            "transition;close;1000;255,255,255",
            "change_background;WhiteBackground",
            "multi_remove_portrait;Cormorant;Chronos",
            "transition;open;;255,255,255",
            "s;C;Let us begin.",
            "s;C;Lia F\u00e1l. Tell me.",
            "s;C;What is the price of a life?",
            "if;not has_achievement('ch21')",
            "    complete_achievement;ch21;true;banner",
            "    update_record;ach_points;RECORDS.get('ach_points') + 200",
            "end",
            "if;{v:AylaSecret} and not has_achievement('ch21a')",
            "    complete_achievement;ch21a;true;banner",
            "    update_record;ach_points;RECORDS.get('ach_points') + 50",
            "end",
            "if;game.game_vars['pushforward'] == 0 and not has_achievement('a3')",
            "    #complete game no turnwheel check",
            "    complete_achievement;a3;true;banner",
            "    update_record;ach_points;RECORDS.get('ach_points') + 200",
            "end",
            "set_next_chapter;EpilogueCor",
            "win_game",
            ""
        ],
        "nid": "21 WS. Suzerain Dead Cor"
    }
]