[
    {
        "name": "01. Intro",
        "trigger": "level_start",
        "level_nid": "2",
        "condition": "True",
        "commands": [],
        "only_once": false,
        "priority": 20,
        "_source": [
            "# Setup",
            "remove_group;FromTopLeft;immediate",
            "remove_group;FromTopRight;immediate",
            "remove_group;FromBottomRight;immediate",
            "remove_unit;BottomArcher;immediate",
            "remove_unit;TopBandit;immediate",
            "remove_unit;TopBandit2;immediate",
            "remove_unit;LeftBandit;immediate",
            "remove_unit;120",
            "# Show chapter title",
            "chapter_title",
            "change_background",
            "center_cursor;Ennis;immediate",
            "music;SmallMarketplace",
            "transition;Open",
            "# Show group at market",
            "location_card;Galvain Market",
            "flicker_cursor;Ennis",
            "transition;close",
            "change_background;SeaPort",
            "transition;open",
            "add_portrait;Ennis;MidRight;no_block",
            "add_portrait;Cormorant;FarRight",
            "speak;Ennis;This dress seems proper.{w} Better these than the rags I have right now.{w} What do you think?",
            "speak;Cormorant;You're asking me?",
            "bop_portrait;Ennis",
            "speak;Ennis;\u2028But this shade of blue isn't quite right...{w}\u2028I wonder what sorts of colors\u2028are fashionable in Vegrande nowadays?",
            "speak;Cormorant;Is this important?",
            "speak;Ennis;Of course you would hardly understand.{w}\u2028Merchants must keep up appearances.{w}\u2028Even in times of crisis.",
            "speak;Cormorant;And they'd deny you aid over it?",
            "speak;Ennis;Maybe not.{w}\u2028But if you cannot stick \u2028to the rules everyone knows?{w}\u2028It means you don't respect \u2028the things others believe in.",
            "speak;Ennis;I doubt the ways of mercenaries are much different.",
            "speak;Cormorant;There are always exceptional circumstances.",
            "speak;Ennis;No exceptions.{w} Mother always was a stickler for decorum.{w}\u2028Now, quiet. I must think.{w}\u2028Is it to be green, or...",
            "add_portrait;Kingfisher;MidLeft",
            "speak;Kingfisher;Cor, someone's been trailing us since we entered the town.|And he's doing a decent job of it.",
            "speak;Cormorant;Good eye.",
            "add_portrait;Fiachra;FarLeft",
            "speak;Fiachra;I should have noticed.|My age is catching up to me.",
            "speak;Cormorant;Wait here and stay sharp.|I'll double back around. King?",
            "speak;Kingfisher;Aye.",
            "multi_remove_portrait;Kingfisher;Cormorant",
            "transition;Close",
            "end_skip",
            "music;Midna's Theme",
            "change_background",
            "transition;open",
            "flicker_cursor;Cormorant",
            "move_unit;Cormorant;12,5;no_block;no_follow",
            "move_unit;Kingfisher;12,6",
            "wait;200",
            "move_unit;Cormorant;9,2;no_block;no_follow",
            "move_unit;Kingfisher;10,2",
            "wait;1000",
            "transition;close",
            "change_background;Town",
            "transition;open",
            "add_portrait;Thrant;Left;mirror;no_block",
            "multi_add_portrait;Kingfisher;FarRight;Cormorant;MidRight",
            "speak;Cormorant;Hey!",
            "#He twists around.",
            "wait;400",
            "remove_portrait;Thrant",
            "add_portrait;Thrant;Left",
            "speak;Thrant;Fancy a little scuffle in the alleyway?|Oh... but I wouldn't mind one with you, beautiful.",
            "speak;Cormorant;You've been following us for nearly half a bell.|What do you want?",
            "speak;Thrant;Your pretty face isn't reason enough?",
            "bop_portrait;Kingfisher",
            "speak;Kingfisher;Scum, out with it!",
            "speak;Thrant;Your words really wound, y'know.|Hey beautiful, how 'bout you and I discuss this alone--",
            "speak;Cormorant;Don't test my patience, kid.|Plus, you don't look a day over twenty.",
            "speak;Thrant;Ah, no harm in trying though, right?",
            "speak;Cormorant;\u2028You're no ordinary crook.\u2028What are you really tailing us for?",
            "speak;Thrant;Same reason you're following me, I wager.",
            "speak;Cormorant;Meaning?",
            "speak;Thrant;\u2028That girl over yonder - that's\u2028Ennis, isn't she?",
            "speak;Cormorant;Who are you?",
            "speak;Thrant;\u2028A, uh, family friend.{w}\u2028Showed up in the nick of time, too.{w} \u2028You'll need all the help you can find.",
            "speak;Cormorant;Huh?",
            "speak;Thrant;You've let yourself get distracted.",
            "# Thrant turns",
            "remove_portrait;Thrant",
            "add_portrait;Thrant;Left;mirror",
            "speak;Thrant;One moment --",
            "end_skip",
            "transition;Close",
            "change_background;SeaPort",
            "music;SmallMarketplace",
            "add_unit;Assassin;2,9;immediate",
            "transition;open",
            "# Fade to scene with Ennis",
            "add_portrait;Ennis;FarLeft;mirror",
            "speak;Ennis;This seems appropriate.{w} Of course, we'll need a gift, as well...",
            "add_portrait;Assassin;Right",
            "speak;Assassin;You the Lady Connachta?",
            "speak;Ennis;Huh?",
            "remove_portrait;Ennis",
            "add_portrait;Ennis;FarLeft",
            "speak;Ennis;Who are--",
            "add_portrait;Fiachra;OffscreenLeft",
            "move_portrait;Fiachra;MidLeft",
            "music;Street Fighting",
            "speak;Fiachra;Lady Ennis!",
            "end_skip",
            "transition;Close",
            "change_background",
            "center_cursor;Fiachra;immediate",
            "transition;open",
            "# Fade out to main, assassin attacks Fiachra",
            "interact_unit;Assassin;Fiachra;crit1,end;force_animation",
            "remove_skill;Fiachra;Murder Knife Debuff;no_banner",
            "add_portrait;Fiachra;Left",
            "speak;Fiachra;Urgh...",
            "remove_portrait;Fiachra",
            "# thrant warps in and delivers a killing blow.",
            "interact_unit;Thrant;Yarrow;hit1,end;Soulswap",
            "wait;200",
            "interact_unit;Thrant;Assassin;crit1,end;Flux;force_animation",
            "transition;close",
            "change_background;SeaPort",
            "move_unit;Fiachra;3,8",
            "transition;open",
            "multi_add_portrait;Ennis;MidLeft;Fiachra;FarLeft",
            "bop_portrait;Fiachra",
            "speak;Ennis;Fiachra!",
            "speak;Fiachra;Agh...",
            "speak;Ennis;It's deep...",
            "add_portrait;Thrant;Right",
            "speak;Thrant;He'll be fine.{w} The old fart's made of tougher stuff than that.",
            "speak;Ennis;Huh? Who are you?",
            "speak;Thrant;You don't remember me, Ennis? I'm wounded.",
            "expression;Fiachra;CloseEyes",
            "speak;Fiachra;Gah...",
            "speak;Thrant;Ah, that was insensitive of me.",
            "speak;Ennis;Are you a friend?{w} We need to get him a healer.",
            "speak;Thrant;No need, pipsqueak. My sister will get the butler patched up.|One moment--",
            "# Thrant fades out",
            "remove_portrait;Thrant",
            "wait;500",
            "add_portrait;Yarrow;Right;right",
            "speak;Yarrow;Uh... hi?",
            "bop_portrait;Yarrow",
            "wait;50",
            "speak;Yarrow;*blergh* Oof...|Sorry, I get all woozy at the sight of blood.",
            "speak;Fiachra;Urgh...",
            "speak;Yarrow;Right... right. Let me get that...",
            "end_skip",
            "transition;close",
            "change_background",
            "move_unit;Kingfisher;8,2;immediate;stack",
            "move_unit;Cormorant;7,2;immediate;stack",
            "move_unit;Thrant;9,2;immediate;stack",
            "move_unit;Yarrow;2,9;immediate;stack",
            "set_current_mana;Thrant;34",
            "set_current_mana;Yarrow;34",
            "transition;open",
            "move_unit;Yarrow;3,9;normal",
            "# Show healing anim.",
            "interact_unit;Yarrow;Fiachra;hit1,end;Heal;force_animation",
            "set_current_hp;Fiachra;99",
            "move_unit;Yarrow;3,10;normal;no_block;no_follow",
            "# Cor and Thrant",
            "flicker_cursor;Thrant",
            "multi_add_portrait;Thrant;Left;Cormorant;MidRight;Kingfisher;FarRight",
            "speak;Thrant;Yarrow is seeing to the oldbie.|She's an accomplished healer if nothing else.",
            "speak;Cormorant;Hmph.{w} Well, we welcome the help.",
            "speak;Cormorant;This was supposed to be a simple courier job.",
            "speak;Thrant;Simple? Carrying that thing?",
            "speak;Cormorant;What?",
            "speak;Thrant;Oops - never mind.{w} Plenty of time later to talk.{w} There's more of them.",
            "multi_remove_portrait;Thrant;Cormorant;Kingfisher",
            "end_skip",
            "# Reinforcements arrive",
            "move_cursor;0,0",
            "add_group;FromTopLeft;0,2;immediate;stack",
            "move_group;FromTopLeft;starting",
            "wait;1000",
            "move_cursor;22,0",
            "add_group;FromTopRight;22,1;immediate;stack",
            "move_group;FromTopRight;starting",
            "wait;1000",
            "move_cursor;21,12",
            "add_group;FromBottomRight;21,12;immediate;stack",
            "move_group;FromBottomRight;starting",
            "add_unit;BottomArcher",
            "add_unit;120",
            "wait;1000",
            "end_skip",
            "#Civilians leave and board up houses.",
            "move_group;MainCiv;9,4;normal;stack;no_block;no_follow",
            "move_group;BottomLeftCiv;0,8;normal;stack;no_block;no_follow",
            "move_group;TopRightCiv;21,0;normal;stack;no_block;no_follow",
            "move_group;TopLeftCiv;3,1;normal;stack;no_block;no_follow",
            "move_unit;Bottom;8,11;no_follow;no_block",
            "wait;1500",
            "remove_group;MainCiv",
            "remove_group;BottomLeftCiv",
            "remove_group;TopRightCiv",
            "remove_group;TopLeftCiv",
            "remove_unit;Bottom",
            "wait;400",
            "show_layer;main_shutter;fade",
            "wait;400",
            "move_unit;Cormorant;3,9;no_block",
            "move_unit;Kingfisher;5,10;no_block",
            "move_unit;Thrant;4,9",
            "center_cursor;Cormorant",
            "#Chapter start!",
            "change_team;Yarrow;player",
            "change_team;Thrant;player",
            "add_lore;Thrant",
            "add_lore;Yarrow",
            "level_var;villager;0",
            "change_ai;Kalash;Guard"
        ],
        "nid": "2 01. Intro"
    }
]