[
    {
        "name": "Village4",
        "trigger": "Visit",
        "level_nid": "2",
        "condition": "region.nid == 'Village4'",
        "commands": [],
        "only_once": false,
        "priority": 20,
        "_source": [
            "transition;Close",
            "change_background;Town",
            "transition;Open",
            "add_portrait;{unit};Left",
            "add_portrait;Man3;Right",
            "speak;Man3;Tch, kids these days are so naive.|Damn Imperials rob us blind, and they get excited over some silver spoon noble visiting.",
            "speak;Man3;It's all one big joke.",
            "speak;Man3;Still, the last thing I want is these vagabonds running around our town.|Consider this payment for cleaning up those thugs.",
            "transition;Close",
            "show_layer;shutter4",
            "change_background",
            "transition;Open",
            "give_item;{unit};Red Gem",
            "has_traded;{unit}",
            "remove_region;DestroyVillage4",
            "inc_level_var;villager",
            "if;game.level_vars['villager'] == 4 and not has_achievement('ch2')",
            "    complete_achievement;ch2;true;banner",
            "    update_record;ach_points;RECORDS.get('ach_points') + 20",
            "end"
        ],
        "nid": "2 Village4"
    }
]