[
    {
        "name": "Select_Cistia",
        "trigger": "unit_select",
        "level_nid": "3",
        "condition": "unit.nid == 'Cistia'",
        "commands": [],
        "only_once": true,
        "priority": 20,
        "_source": [
            "choice;cistia_tutorial;View Cistia's tutorial?;Yes,No",
            "if;game.game_vars['cistia_tutorial'] == 'Yes'",
            "    trigger_script;3 Tutorial_Cistia",
            "end"
        ],
        "nid": "3 Select_Cistia"
    }
]