[
    {
        "name": "1a. Strange Happenings",
        "trigger": "roaming_interrupt",
        "level_nid": "3x",
        "condition": "region.nid == 'Talk_ForestBridge'",
        "commands": [],
        "only_once": false,
        "priority": 20,
        "_source": [
            "add_portrait;Mikhail;Right",
            "add_portrait;Feodor;Left",
            "speak;Mikhail;Hey.{w} Are you seeing what I'm seeing?",
            "speak;Feodor;\u2028If by seeing you mean not seeing,\u2028then yeah.{w} I wasn't dreamin', was I?{w} \u2028We did in fact come here last week{w}\u2028and put this little fiefdom of House \u2028Connachta's into a meat grinder?",
            "speak;Mikhail;We routed them pretty bad, yeah.",
            "speak;Feodor;We fought a lotta fellas, Mik.{w} So. Where are the bodies?",
            "remove_portrait;Feodor",
            "remove_portrait;Mikhail"
        ],
        "nid": "3x 1a. Strange Happenings"
    }
]