[
    {
        "name": "2a. Interact Storeroom Door",
        "trigger": "Storeroom",
        "level_nid": "3x",
        "condition": "True",
        "commands": [],
        "only_once": false,
        "priority": 20,
        "_source": [
            "location_card;Food Storeroom",
            "add_portrait;Feodor;MidRight;mirror",
            "if;{v:storeroom_interact_count} == 0",
            "    speak;Feodor;A pantry. Good thing too. I'm starving.",
            "    move_portrait;Feodor;OffscreenRight",
            "    bop_portrait;Feodor",
            "    sound;Attack Hit 4",
            "    bop_portrait;Feodor",
            "    move_portrait;Feodor;MidRight",
            "    speak;Feodor;Yowch!{w} Blast! Who locks a pantry?",
            "    remove_portrait;Feodor",
            "    add_portrait;Feodor;MidRight",
            "    speak;Feodor;Gotta be a key around here somewhere.",
            "    remove_portrait;Feodor",
            "    inc_level_var;storeroom_interact_count",
            "    finish",
            "elif;has_item(\"StoreroomKey\", party='MU')",
            "    wait;250",
            "    move_portrait;Feodor;OffscreenRight",
            "    bop_portrait;Feodor",
            "    sound;door unlocking",
            "    wait;500",
            "    sound;door creaking",
            "    bop_portrait;Feodor",
            "    move_portrait;Feodor;MidRight",
            "    speak;Feodor;Another win for the good guys.{w} You can't keep a man from his meat.",
            "    remove_portrait;Feodor",
            "    remove_region;Interact_StoreroomDoor",
            "    transition;close",
            "    wait;500",
            "    hide_layer;StoreroomLocked;fade",
            "    transition;open;500",
            "    finish",
            "else",
            "    move_portrait;Feodor;OffscreenRight",
            "    bop_portrait;Feodor",
            "    sound;Attack Hit 1",
            "    bop_portrait;Feodor",
            "    move_portrait;Feodor;MidRight",
            "    speak;Feodor;Yep.{w} No muscling past this one.",
            "    remove_portrait;Feodor",
            "    finish",
            "end"
        ],
        "nid": "3x 2a. Interact Storeroom Door"
    }
]