[
    {
        "name": "2d. Interact Misc",
        "trigger": "MiscInteract",
        "level_nid": "3x",
        "condition": "True",
        "commands": [],
        "only_once": false,
        "priority": 20,
        "_source": [
            "multi_add_portrait;Feodor;Right;Mikhail;Left",
            "if;'Apple' in region.nid",
            "    speak;Feodor;You think those apples are still good?",
            "    speak;Mikhail;Didn't your mother teach you not to eat things off the ground?",
            "    speak;Feodor;She would've, if we had things to eat.",
            "    speak;Mikhail;...|Didn't I teach you not to eat things off the ground?",
            "    speak;Feodor;Fine, I'll leave it to the birds.",
            "elif;'Bed' in region.nid",
            "    speak;Feodor;Looks comfy, haven't slept in a real bed in ages.",
            "    speak;Mikhail;Feodor, no.",
            "    speak;Feodor;Come on, just a five minute nap.",
            "    speak;Mikhail;We are not arguing this.|I will not have another Leewil incident.",
            "    speak;Feodor;I was hit with a sleep staff!|I couldn't have woken up even if I wanted to.",
            "    speak;Mikhail;Save your excuses for someone else, let's get going.",
            "    speak;Feodor;Son of a ...|I expect an apology when a sleep staff finally hits you.",
            "elif;'Statue' in region.nid",
            "    speak;Mikhail;You have any idea what this is?",
            "    speak;Feodor;A statue? If you don't know, there's no way I know.",
            "    speak;Mikhail;Seems like a deity of some sort? A symbol of House Connachta? A person in armor?",
            "    speak;Feodor;Or maybe a fancy coat rack?",
            "    speak;Mikhail;...|I'll just pretend you're right so I stop thinking about it.",
            "end",
            "multi_remove_portrait;Mikhail;Feodor"
        ],
        "nid": "3x 2d. Interact Misc"
    }
]