[
    {
        "name": "TransferZonesEvent",
        "trigger": "roaming_interrupt",
        "level_nid": "3x",
        "condition": "True",
        "commands": [],
        "only_once": false,
        "priority": 20,
        "_source": [
            "level_var;x;unit.position[0]",
            "level_var;y;unit.position[1]",
            "if;region.nid == 'AC_BridgeSouth'",
            "    level_var;connecting_pos;({v:x},58)",
            "    level_var;exdirec;'north'",
            "    level_var;endirec;'south'",
            "    change_music;player_phase;doll_sadness",
            "    music;doll_sadness",
            "elif;region.nid == 'AC_BridgeNorth'",
            "    level_var;connecting_pos;({v:x},74)",
            "    level_var;exdirec;'south'",
            "    level_var;endirec;'north'",
            "    change_music;player_phase;night_ambience",
            "    music;night_ambience",
            "elif;region.nid == 'AC_AtelierEnter'",
            "    level_var;connecting_pos;({v:x} - 9,15)",
            "    level_var;exdirec;'north'",
            "    level_var;endirec;'south'",
            "    change_music;player_phase;The Dark Forest",
            "    music;The Dark Forest",
            "elif;region.nid == 'AC_AtelierExit'",
            "    level_var;connecting_pos;({v:x} + 9,34)",
            "    level_var;exdirec;'south'",
            "    level_var;endirec;'north'",
            "    change_music;player_phase;doll_sadness",
            "    music;doll_sadness",
            "elif;region.nid == 'AC_BedroomEnter'",
            "    level_var;connecting_pos;(55,{v:y} - 23)",
            "    level_var;exdirec;'west'",
            "    level_var;endirec;'east'",
            "elif;region.nid == 'AC_BedroomExit'",
            "    level_var;connecting_pos;(38,{v:y} + 23)",
            "    level_var;exdirec;'east'",
            "    level_var;endirec;'west'",
            "else",
            "    finish",
            "end",
            "remove_unit;{unit};fade;{v:exdirec}",
            "remove_unit;MikhailC3;fade;{v:exdirec}",
            "transition;close",
            "center_cursor;{v:connecting_pos};immediate",
            "wait;500",
            "transition;open",
            "wait;100",
            "add_unit;{unit};{v:connecting_pos};fade;closest;{v:endirec}",
            "add_unit;MikhailC3;{v:connecting_pos};fade;closest;{v:endirec}",
            "wait;500"
        ],
        "nid": "3x TransferZonesEvent"
    }
]