[
    {
        "name": "DestoryVillage1",
        "trigger": "Destrucable",
        "level_nid": "4",
        "condition": "region.nid == 'DestroyVillage1'",
        "commands": [],
        "only_once": false,
        "priority": 20,
        "_source": [
            "flicker_cursor;{position}",
            "show_layer;Villege1Destory",
            "alert;The village was destroyed!",
            "wait;500"
        ],
        "nid": "4 DestoryVillage1"
    }
]