[
    {
        "name": "17.Left Stairs",
        "trigger": "Visit",
        "level_nid": "4_interlude",
        "condition": "region.nid == 'Stairs'",
        "commands": [],
        "only_once": false,
        "priority": 20,
        "_source": [
            "add_portrait;Ennis;Right",
            "speak;Ennis;These stairs lead into the cellar.|Did Mother go to get a drink?;;;thought_bubble",
            "remove_portrait;Ennis",
            "remove_unit;Ennis",
            "wait;2000",
            "add_unit;Ennis;2,6",
            "add_portrait;Ennis;Right",
            "speak;Ennis;No, she wasn't down there.;;;thought_bubble",
            "remove_map_anim;Square;2,6"
        ],
        "nid": "4_interlude 17.Left Stairs"
    }
]