[
    {
        "name": "Moore Death",
        "trigger": "unit_death",
        "level_nid": "4",
        "condition": "unit.nid == 'Moore'",
        "commands": [],
        "only_once": false,
        "priority": 20,
        "_source": [
            "add_portrait;Moore;Left",
            "speak;Moore;I'm sorry my boy, seems I've gotten rusty.",
            "remove_portrait;Moore",
            "remove_portrait;Buyer",
            "remove_skill;Moore;Crippled;no_banner;no_warn",
            "remove_skill;Moore;Poisoned;no_banner;no_warn",
            "remove_skill;Moore;Poisoned_stack;no_banner;no_warn"
        ],
        "nid": "4 Moore Death"
    }
]