[
    {
        "name": "0A1. Accipiter Cistia Chat",
        "trigger": "on_talk",
        "level_nid": "5",
        "condition": "check_pair('Accipiter', 'Cistia')",
        "commands": [],
        "only_once": true,
        "priority": 20,
        "_source": [
            "add_portrait;Cistia;Right",
            "add_portrait;Accipiter;Left",
            "speak;Accipiter;Tia!",
            "speak;Cistia;Accipiter! It's been too long.",
            "speak;Accipiter;You're telling me, Tia.|Say... you got a boy on the go at the moment?",
            "speak;Cistia;Uh, no. I'm focusing on my spearwork at the moment.|Boys just get in the way of training,|and I still need a lot more before I can fight effectively with this injury.",
            "speak;Accipiter;Shame!|I remember when the two of us would have our pick of the tavern after a big battle.",
            "speak;Cistia;Heh, good times.|..Maybe I've lost track of how to have fun like we used to.",
            "speak;Accipiter;I'm willing to bet I can remind you!|First round's on me, Tia!",
            "multi_remove_portrait;Accipiter;Cistia",
            "# Remove Talk Convos",
            "remove_talk;Cistia;Accipiter",
            "remove_talk;Accipiter;Cistia"
        ],
        "nid": "5 0A1. Accipiter Cistia Chat"
    }
]