[
    {
        "name": "BC Secrets of the Seas",
        "trigger": "on_base_convo",
        "level_nid": "6",
        "condition": "unit == 'Secrets of the Seas (!)'",
        "commands": [],
        "only_once": false,
        "priority": 20,
        "_source": [
            "music;Silence",
            "transition;close",
            "change_background;Village 2 Rainy",
            "transition;open",
            "add_portrait;Cormorant;Right",
            "speak;Cormorant;...|...What is that shape out there in the swamp?|Is that... a boat?",
            "music;He's a Pirate",
            "add_portrait;Moore;Left",
            "speak;Moore;Alright... lower the mainsail...|rudder to starboard...|And here we- Ack!",
            "speak;Cormorant;You! What are you doing following us out here?",
            "speak;Moore;Ah-ah, it's the... other Capt'n.",
            "speak;Cormorant;While I've got you, I oughta beat another apology outta you...",
            "speak;Moore;Ack! Mercy, mercy. I'm real sorry about that whole thing. Part of why I came out here.",
            "speak;Moore;\u2028That kid that set us up, he was real keen on grabbing you and your lady.{w} They ranted about some evil brother, a package,{w} telling me to kick Scampers...{w}\u2028All sorts of craziness.",
            "speak;Moore;\u2028But since we lost, I figured our contract was done for,{w} and my hopes with it.",
            "speak;Cormorant;Your hopes?",
            "speak;Moore;Swear one Capt'n to another, keep my secret?",
            "speak;Cormorant;Done.",
            "speak;Moore;\u2028It's my son. He... ran off with some bad sorts a few years ago.",
            "speak;Cormorant;\u2028Pirates? Actual pirates, I mean?",
            "speak;Moore;I don't like to talk about it.\u2028I heard they'd run into trouble on the seas.{w}\u2028If he's still locked away as\u2028a galley slave somewhere out there...{w}\u2028If that kid Zackary's got no chance\u2028of finding him,{w}\u2028I figure I may as well throw in with you.{w}",
            "expression;Moore;CloseEyes",
            "speak;Moore;\u2028It's been real hard going...",
            "speak;Cormorant;I understand. But we're out to deliver a package.{w} Not to rescue prodigal children.",
            "expression;Moore;NormalBlink",
            "expression;Moore;Smile",
            "speak;Moore;Beats rotting in Belrann, waiting for the next contract to come.{w}\u2028You seem like you're planning on seeing the world.{w}\u2028And it's high time I did something myself.",
            "expression;Cormorant;Smile",
            "speak;Cormorant;Well, we'd be glad to have you on board.",
            "multi_remove_portrait;Cormorant;Moore",
            "add_lore;Moore",
            "ignore_base_convo;Secrets of the Seas (!)",
            "load_unit;MooreP;player",
            "if;game.current_mode.nid == 'CurseoftheMogall'",
            "    remove_skill;MooreP;Rummage;no_banner",
            "    give_skill;MooreP;Rummage_Plus;no_banner",
            "    set_unit_field;MooreP;Blessed;True",
            "end",
            "transition;close",
            "change_background",
            "transition;Open"
        ],
        "nid": "6 BC Secrets of the Seas"
    }
]