[
    {
        "name": "FightAmada Cor",
        "trigger": "combat_start",
        "level_nid": "6",
        "condition": "check_pair('Amada', 'Cormorant')",
        "commands": [],
        "only_once": true,
        "priority": 20,
        "_source": [
            "add_portrait;Amada;Left",
            "add_portrait;Cormorant;Right",
            "speak;Cormorant;Stand down, Amada!|Your cultist friends are dying around you,|and the weather is taking any hope of victory with it.|For your mother's sake, drop that damn dagger!",
            "speak;Amada;I have no mother!|Bronach doesn't understand...|All she's done is belittle me, banish me, chase me about.|Only the Faithful have a place for me now.",
            "speak;Cormorant;I... know how it feels to look upon your mother with nothing but disdain.|But you don't have to-",
            "speak;Amada;Enough!",
            "speak;Cormorant;You don't have to throw away your own life just to wound her!",
            "speak;Amada;ENOUGH!|You've hardly met her! You haven't known her!|And you'll never have the chance to!|DIE!",
            "remove_portrait;Amada",
            "remove_portrait;Cormorant"
        ],
        "nid": "6 FightAmada Cor"
    }
]