[
    {
        "name": "House BL Destroy",
        "trigger": "Destructible",
        "level_nid": "6",
        "condition": "region.nid == 'BL Destroy'",
        "commands": [],
        "only_once": true,
        "priority": 20,
        "_source": [
            "flicker_cursor;{position}",
            "show_layer;BLRuin",
            "alert;The village was destroyed!",
            "wait;500"
        ],
        "nid": "6 House BL Destroy"
    }
]