[
    {
        "name": "06r. ReinRouge",
        "trigger": "turn_change",
        "level_nid": "7",
        "condition": "game.turncount == 6",
        "commands": [],
        "only_once": true,
        "priority": 20,
        "_source": [
            "add_unit;rein2;3,11;immediate;closest",
            "flicker_cursor;3,11",
            "wait;500"
        ],
        "nid": "7 06r. ReinRouge"
    }
]