[
    {
        "name": "FightOwl Cistia",
        "trigger": "combat_start",
        "level_nid": "7",
        "condition": "check_pair('Owl', 'Cistia') and game.get_unit('Owl').team != 'player'",
        "commands": [],
        "only_once": true,
        "priority": 20,
        "_source": [
            "multi_add_portrait;Cistia;Right;Owl;Left",
            "speak;Cistia;Hey - I remember you! How's that floozie of yours?",
            "speak;Owl;Floozie?",
            "speak;Cistia;Oh, sorry. Your {c:e;Cistia;HalfCloseEyes} *cheri cocotte*. That brothel girl?",
            "speak;Owl;What are you -",
            "speak;Cistia;Oh, come on. Everyone knows Owl.{w}\u2028He's always clawing for coin so he can go see that girl of his.",
            "speak;Owl;N-no! What? That's not at all what I...",
            "expression;Cistia;NormalBlink",
            "speak;Cistia;I don't judge! Really! She must be a real cutie...",
            "expression;Owl;CloseEyes",
            "speak;Owl;Agh! Can it, 'Tia!",
            "multi_remove_portrait;Cistia;Owl"
        ],
        "nid": "7 FightOwl Cistia"
    }
]