[
    {
        "name": "FightMagister Owl",
        "trigger": "combat_start",
        "level_nid": "7",
        "condition": "check_pair('Magister', 'Owl')",
        "commands": [],
        "only_once": true,
        "priority": 20,
        "_source": [
            "multi_add_portrait;Owl;Right;Magister;Left",
            "speak;Magister;Another betrayal? Master Quelea's company is full of leaks...",
            "speak;Owl;Eh. That's her problem. Seeing as I got paid, I'm currently your problem.",
            "multi_remove_portrait;Owl;Magister"
        ],
        "nid": "7 FightMagister Owl"
    }
]