[
    {
        "name": "05a. Osberts + Sionn Talk",
        "trigger": "on_talk",
        "level_nid": "7_roam",
        "condition": "unit2.nid == \"Osbert\" and game.check_alive('Sionn')",
        "commands": [],
        "only_once": true,
        "priority": 20,
        "_source": [
            "multi_add_portrait;AxeBert;FarLeft;Osbert;CenterLeft;LanceBert;CenterRight;Swordbert;FarRight",
            "music;Flouring With You",
            "wait;500",
            "speak;LanceBert;-So AxeBert charges in, I flank,{w}\u2028and Swordbert-",
            "speak;AxeBert;Hey! We're all charging. A full frontal offensive-",
            "speak;Swordbert;I- Is the best way to get in trouble!{w}\u2028Lady Ennis won't be happy-",
            "add_portrait;Ennis;OffscreenRight",
            "speak;Ennis;Won't be happy about what?",
            "speak;Swordbert;AAH!",
            "move_portrait;Swordbert;OffscreenLeft;2.9",
            "wait;300",
            "move_portrait;Ennis;FarRight",
            "speak;Ennis;...What are you planning, Osbert?",
            "expression;Osbert;Smile",
            "speak;Osbert;A strategy, of course!",
            "speak;Ennis;Against who, exactly?",
            "speak;Osbert;Tenebrae!",
            "speak;Ennis;...Our host.",
            "speak;Osbert;Of course! There is no better way to show our gratitude than to-",
            "speak;Ennis;Vetoed.",
            "speak;Osbert;And you, boys?",
            "expression;LanceBert;Smile",
            "expression;AxeBert;Smile",
            "speak;LanceBert;Let's do it!",
            "speak;AxeBert;Here we go!",
            "expression;Osbert;Smile",
            "speak;Osbert;Hah! 4-1. Now, LanceBert, as you were saying-",
            "add_portrait;FakeLanceBert;OffscreenLeft",
            "expression;FakeLanceBert;Smile",
            "speak;FakeLanceBert;Ah, have we begun discussing our plan?",
            "move_portrait;FakeLanceBert;Left",
            "expression;Osbert;NoSmile",
            "expression;FakeLanceBert;NoSmile",
            "expression;LanceBert;NoSmile",
            "expression;AxeBert;NoSmile",
            "speak;FakeLanceBert;...Wait. A- another?!",
            "speak;AxeBert;2?!",
            "speak;LanceBert;N-no... That's clearly a fake!",
            "speak;Osbert;Another rebellion? I- I'll shoot!",
            "speak;FakeLanceBert;Shoot him! He's the fake!",
            "speak;LanceBert;No, he's the faker!",
            "expression;AxeBert;CloseEyes",
            "speak;AxeBert;I can't deal with this again... I'm out of here!",
            "mirror_portrait;AxeBert",
            "move_portrait;AxeBert;OffscreenLeft",
            "wait;200",
            "speak;LanceBert;D- Don't shoot!",
            "mirror_portrait;LanceBert",
            "move_portrait;LanceBert;OffscreenRight",
            "speak;Osbert;Get back here, fake!",
            "move_portrait;Osbert;CenterRight",
            "speak;FakeLanceBert;No, Osbert.",
            "mirror_portrait;Osbert",
            "remove_portrait;FakeLanceBert",
            "add_portrait;FakeOsbert;Left;;Smile",
            "speak;FakeOsbert;You're the faker.",
            "expression;Osbert;CloseEyes",
            "speak;Osbert;I...",
            "speak;Osbert;I think I need a nap.",
            "remove_portrait;Osbert",
            "speak;Ennis;Looks like you\u2028had your fun, Sionn.",
            "remove_portrait;FakeOsbert",
            "add_portrait;Sionn;Left",
            "speak;Sionn;Heh, for sure.",
            "multi_remove_portrait;Ennis;Sionn",
            "add_unit;Sionn;6,4;swoosh;closest;no_warn",
            "music;Ravi Island - Winds of Fate",
            "remove_talk;Ennis;Osbert"
        ],
        "nid": "7_roam 05a. Osberts + Sionn Talk"
    }
]