[
    {
        "name": "00. Intro",
        "trigger": "level_start",
        "level_nid": "7_roam",
        "condition": "True",
        "commands": [],
        "only_once": false,
        "priority": 20,
        "_source": [
            "remove_all_units",
            "music;Midna's Theme",
            "change_background;Forest 2 Evening",
            "transition;open;400",
            "add_portrait;Cormorant;Right;mirror;CloseEyes",
            "wait;500",
            "add_portrait;Abeni;Left",
            "expression;Cormorant;NormalBlink",
            "speak;Cormorant;Abeni. How are things holding up?",
            "speak;Abeni;...It doesn't bode well. Your old mercenary friends are holding together, but the others...{w}\u2028Lady Ennis is struggling greatly.\u2028Even my body is beginning to give out.",
            "speak;Abeni;I don't know how many days this can go on.",
            "expression;Cormorant;CloseEyes",
            "speak;Cormorant;...",
            "wait;300",
            "speak;Abeni;...Is it not too late to return to Ratsbridge?{w}\u2028After all, that Fenian, the Steel Fox... She seemed amenable to a temporary truce....",
            "mirror_portrait;Cormorant",
            "expression;Cormorant;NormalBlink",
            "speak;Cormorant;We were expelled by the Chieftness.\u2028I don't think begging's gonna work.",
            "speak;Abeni;I don't wish to point out the obvious, but our force is quite formidable.{w}\u2028Even if she has expelled us, could she hope to stand-",
            "bop_portrait;Cormorant",
            "speak;Cormorant;No.{w}\u2028That's...{c:e;Cormorant;CloseEyes} no. I will not do that.",
            "expression;Cormorant;NormalBlink",
            "wait;500",
            "speak;Abeni;...I do not suffer disease, nor can I be maimed in these cultist-ridden swamps.",
            "speak;Abeni;I am lucky.{w}\u2028Most of the others are not.",
            "speak;Abeni;Tomorrow, what will happen?",
            "speak;Cormorant;...There's a storm coming.{w} Heavy rain.",
            "speak;Cormorant;Tell Cistia and King to scramble.{w}\u2028We'll need to find some kind of shelter.",
            "speak;Cormorant;First, we'll make it through tonight.{w}\u2028Tomorrow will come nonetheless.",
            "remove_portrait;Cormorant",
            "speak;Abeni;...",
            "remove_portrait;Abeni",
            "end_skip",
            "wait;300",
            "change_background;WhiteBackground",
            "wait;200",
            "change_background;BlackBackground",
            "wait;300",
            "sound;lightning strike",
            "wait;500",
            "speak;;Shoot! This thing is coming down in sheets.",
            "speak;;We're going to lose the road at this rate!",
            "speak;;That doesn't matter. We need to keep everyone together! Where is everyone?",
            "speak;;Lady Ennis!{w} Where are you?",
            "speak;;They're all over here. I... something's blocking out the stars over there.{w}\u2028It's enormous! What is that? A tree? A mountain?",
            "speak;;King, get everyone headed towards that thing. Cistia, let's scope it out.",
            "wait;500",
            "change_background",
            "add_unit;Cormorant;24,9",
            "add_unit;Cistia;24,10",
            "end_skip",
            "flicker_cursor;Cormorant",
            "move_group;IntroCorCistia;starting",
            "wait;500",
            "add_unit;Ennis;24,7;;giveup;east",
            "move_unit;Ennis;Cormorant;normal;closest",
            "add_portrait;Cormorant;Left;mirror",
            "speak;Cormorant;What... {c:mirror;Cormorant}{c:wait;100}{c:mirror;Cormorant}What in the nine waves?",
            "add_portrait;Cistia;Right",
            "speak;Cistia;It's a castle! I didn't see anything like this from the air.",
            "speak;Cormorant;It's too big to have been missed. Something's strange here.{w}{c:mirror;Cormorant} Ennis?",
            "remove_portrait;Cistia",
            "add_portrait;Ennis;Right",
            "speak;Ennis;This feels... familiar...{c:bop;Ennis} This is...!",
            "move_portrait;Ennis;MidLeft",
            "mirror_portrait;Ennis",
            "add_unit;Tenebrae;24,1",
            "move_unit;Tenebrae;18,8",
            "move_portrait;Cormorant;FarLeft",
            "add_portrait;TenebraeRW;Right",
            "speak;TenebraeRW;Ennis Connachta, and Cormorant of the Wren's Wings.",
            "speak;Cormorant;What kind of creature--",
            "speak;Ennis;Where is this? Who are you?{w} A-answer me!",
            "speak;TenebraeRW;He dreams. Not yet, not yet.",
            "speak;TenebraeRW;Not my place to say. My master will talk when he's ready.",
            "speak;TenebraeRW;Your safety is assured here. My name is Tenebrae. <red>Speak to me once you are able.</>",
            "remove_portrait;TenebraeRW",
            "speak;Cormorant;Just what is going on? Ennis? Are you alright?",
            "speak;Ennis;This... this feels like back then.{w}\u2028When I touched the Lia F\u00e1l... And saw that memory.",
            "speak;Ennis;I never told you, did I?",
            "speak;Cormorant;Not hard to guess, seeing as the council of spooks started calling you Lady right after.",
            "speak;Cormorant;You don't have to talk about it. It's hard.{w} I know.",
            "speak;Ennis;It's nothing... this castle, it feels like that.",
            "speak;Ennis;A memory, or...{c:wait;400} a dream?",
            "speak;Cormorant;Whatever it is, it's giving me a right shiver. We should get out of here.",
            "speak;Ennis;No. That person - Tenebrae - he spoke the truth.{w}\u2028We should stay here.",
            "speak;Cormorant;Here? In a castle that reminds you of watching your mother die?",
            "speak;Ennis;It's... it's nothing, Cor. We've hardly any other choice.",
            "speak;Ennis;Unless we return to Ratsbridge, where there's a mother grieving her child?",
            "speak;Cormorant;...",
            "speak;Ennis;It's *nothing*, Cor.",
            "remove_portrait;Cormorant",
            "transition;close;1000",
            "add_group;PeopleTalking;starting;fade",
            "wait;300",
            "show_layer;Door",
            "show_layer;Chest",
            "transition;open",
            "#Roam transition",
            "music;Ravi Island - Winds of Fate",
            "speak;Ennis;Hmm,{w} looks like everyone is talking it up.{w}\u2028I might as well use this time to hear what some have to say.",
            "transition;close",
            "center_cursor;Ennis;immediate",
            "change_background",
            "wait;200",
            "end_skip",
            "transition;open",
            "speak;;\u2028If you wish to end free roaming,{w} speak to <red>Tenebrae</>{w}\u2028He is waiting at the <red>bottom right edge</> of the map.;;;hint",
            "move_cursor;18,8",
            "flicker_cursor;18,8",
            "wait;200",
            "change_roaming_unit;Ennis",
            "#Berts",
            "resurrect;AxeBert",
            "resurrect;LanceBert",
            "resurrect;Swordbert",
            "add_unit;AxeBert;2,7;immediate;closest",
            "add_unit;LanceBert;2,5;immediate;closest",
            "add_unit;Swordbert;1,6;immediate;closest",
            "# Set up talks",
            "add_talk;Ennis;Cormorant",
            "add_talk;Ennis;Fiachra",
            "if; game.check_alive('Shoebill')",
            "    add_talk;Ennis;Kingfisher",
            "end",
            "add_talk;Ennis;Thrant",
            "if; game.check_alive('Sionn')",
            "    add_talk;Ennis;Sionn",
            "end",
            "if; game.check_alive('Accipiter')",
            "    add_talk;Ennis;Cistia",
            "end",
            "add_talk;Ennis;Osbert",
            "add_talk;Ennis;MooreP",
            "if; game.check_alive('Sadhbh') and game.check_alive('Farl')",
            "    add_talk;Ennis;Lychee",
            "end",
            "level_var;ThrantEnd;True",
            "add_talk;Ennis;Tenebrae",
            "add_talk;Ennis;Abeni",
            "#if; game.check_alive('Caer') and game.check_alive('Lim') and game.check_alive('Striga') and game.check_alive('Luan')",
            "#add_talk;Ennis;Goibniu",
            "#endf",
            "#if; game.check_alive('Fessian') and game.check_alive('Brandon')",
            "#add_talk;Ennis;Remri",
            "#endf",
            "#if; game.check_alive('Seliche')",
            "#add_talk;Ennis;Jarze",
            "#endf"
        ],
        "nid": "7_roam 00. Intro"
    }
]