[
    {
        "name": "09. Lychee, Sahdbh, Farl Talk",
        "trigger": "on_talk",
        "level_nid": "7_roam",
        "condition": "unit2.nid == \"Lychee\" and game.check_alive('Sadhbh') and game.check_alive('Farl')",
        "commands": [],
        "only_once": true,
        "priority": 20,
        "_source": [
            "multi_add_portrait;Sadhbh;FarLeft;Lychee;CenterLeft;Farl;FarRight",
            "speak;Lychee;\u2028Sadhbh,{w} can you \u2028pass me the bread?",
            "speak;Sadhbh;Oh.{w}",
            "bop_portrait;Sadhbh",
            "speak;Sadhbh;Here you go.",
            "speak;Lychee;Thanks.",
            "speak;Farl;Ah.{w} \u2028Nothing like enjoying \u2028a good meal with company.",
            "add_portrait;Ennis;CenterRight",
            "speak;Ennis;Oh the food looks good.",
            "speak;Lychee;Oh,{w} hey there Ennis!{w}\u2028Would you like to join us for breakfast?",
            "speak;Farl;We have plenty of food to go around.{w}\u2028You kids need to eat plenty to grow.",
            "speak;Sadhbh;I think this is as tall as I'll grow...",
            "speak;Ennis;Well I haven't eaten breakfast yet.{w}\u2028Thank you for the meal.",
            "multi_remove_portrait;Sadhbh;Lychee;Farl;Ennis",
            "remove_talk;Ennis;Lychee"
        ],
        "nid": "7_roam 09. Lychee, Sahdbh, Farl Talk"
    }
]