[
    {
        "name": "Select_Owl",
        "trigger": "unit_select",
        "level_nid": "7",
        "condition": "unit.nid == 'Owl' and game.get_unit('Owl').team == 'player'",
        "commands": [],
        "only_once": true,
        "priority": 20,
        "_source": [
            "choice;owl_tutorial;View Owl's tutorial?;Yes,No",
            "if;game.game_vars['owl_tutorial'] == 'Yes'",
            "    trigger_script;7 Tutorial_Owl",
            "end"
        ],
        "nid": "7 Select_Owl"
    }
]