[
    {
        "name": "T. Turn Count Check for Achievement",
        "trigger": "turn_change",
        "level_nid": "7",
        "condition": "True",
        "commands": [],
        "only_once": false,
        "priority": 20,
        "_source": [
            "#for achievement purposes",
            "level_var;warp5;0"
        ],
        "nid": "7 T. Turn Count Check for Achievement"
    }
]