[
    {
        "name": "TalkOwl Accip",
        "trigger": "on_talk",
        "level_nid": "7",
        "condition": "check_pair('Accipiter', 'Owl') and game.get_unit('Owl').team == 'player'",
        "commands": [],
        "only_once": true,
        "priority": 20,
        "_source": [
            "multi_add_portrait;Owl;Left;Accipiter;Right",
            "speak;Accipiter;\u2028Owl! Been a hot minute.",
            "speak;Accipiter;Still chasing after that magical girl?\u2028You sure she's just not from your dreams?",
            "speak;Owl;\u2028She's very real.{w} And she's not \"magical\".{w}\u2028She's a talented mage and eye catching.",
            "speak;Accipiter;\u2028I'd like to meet her.{w} To see \u2028if you aren't just imagining things.",
            "speak;Owl;\u2028Well, aren't you funny!",
            "multi_remove_portrait;Owl;Accipiter",
            "remove_talk;Accipiter;Owl",
            "remove_talk;Owl;Accipiter"
        ],
        "nid": "7 TalkOwl Accip"
    }
]