[
    {
        "name": "ZDb. DoorNE",
        "trigger": "Door",
        "level_nid": "7",
        "condition": "region.nid == 'DoorNortheast'",
        "commands": [],
        "only_once": true,
        "priority": 20,
        "_source": [
            "show_layer;DoorNE",
            "unlock;{unit}",
            "has_attacked;{unit}"
        ],
        "nid": "7 ZDb. DoorNE"
    }
]