[
    {
        "name": "04. Turn 3 but again",
        "trigger": "turn_change",
        "level_nid": "8",
        "condition": "'survival' in game.level_vars and game.level_vars.get('survival') == 2",
        "commands": [],
        "only_once": false,
        "priority": 20,
        "_source": [
            "show_layer;Phase2",
            "center_cursor;Cormorant",
            "flicker_cursor;Cormorant",
            "add_portrait;Cormorant;Left;no_block",
            "add_portrait;Goibniu;Right",
            "speak;Cormorant;Hmph! I smell a breath of fresh air. And flowers. And the sky's starting to look blue.|Something's off.",
            "speak;Goibniu;I... this is unprecedented. We're being forced out of Tirnanogue, or...|No, the worlds are beginning to merge.",
            "s;Cormorant;Well, you could use the sunshine.",
            "s;Goibniu;This is the mechanism at work inside the portals themselves, but at this scale...!{w}\u2028What have you humans done...?|Grah! Watch your step. The land is not entirely the same between the two worlds.",
            "multi_remove_portrait;Cormorant;Goibniu",
            "add_group;zack_3;zack_3;fade;giveup;create",
            "add_group;zack_4;zack_4;fade;giveup;create"
        ],
        "nid": "8 04. Turn 3 but again"
    }
]