[
    {
        "name": "A. Double Trouble Achievement",
        "trigger": "combat_end",
        "level_nid": "8",
        "condition": "game.check_dead('Pitta_C7') and game.check_dead('Zackary_C7')",
        "commands": [],
        "only_once": false,
        "priority": 20,
        "_source": [
            "if;not has_achievement('ch8')",
            "    complete_achievement;ch8;true;banner",
            "    update_record;ach_points;RECORDS.get('ach_points') + 20",
            "end"
        ],
        "nid": "8 A. Double Trouble Achievement"
    }
]