[
    {
        "name": "00.1 - BC Effective",
        "trigger": "on_base_convo",
        "level_nid": "9",
        "condition": "unit == 'Effective (!)'",
        "commands": [],
        "only_once": false,
        "priority": 20,
        "_source": [
            "# Cistiagang rise up?",
            "music;Calm Folk",
            "change_background;InsideCastle",
            "add_portrait;Cistia;Left;no_block",
            "add_portrait;Kingfisher;Right",
            "speak;Cistia;\u2028Well hello there, King.{w}\u2028Something the matter?",
            "speak;Kingfisher;\u2028Yes, actually.{w}\u2028Well, um, not really a matter,{w}\u2028in a bad way, but here.{w}",
            "speak;Cistia;\u2028What's this?{w} A sword?",
            "speak;Kingfisher;\u2028The man who sold it to me\u2028s-said it would help my spirits.{w}\u2028It was used by a very confident\u2028man in the past, apparently.{w}",
            "speak;Cistia;\u2028Shouldn't you keep it then?",
            "speak;Kingfisher;\u2028I was never able to get\u2028good at using a sword.{w}\u2028It ended up being a waste\u2028of money, but I held onto it.{w}\u2028I saw you starting to use\u2028swords recently, so...{w}",
            "speak;Cistia;\u2028Well, I'll happily accept, then.{w}\u2028For what it's worth, I don't think\u2028you need to concern yourself.{w}\u2028You've already steely nerves from\u2028talking to pretty ladies all day.{w}",
            "speak;Kingfisher;\u2028That's not usually something one\u2028says about themselves, right?",
            "speak;Cistia;\u2028See?{w} That was bold of you.{w}\u2028My good arm and I will remember\u2028that's what you think, though.{w}\u2028...Just kidding.{w} Anyway I'll go\u2028take this thing for test swings.{w}\u2028Thanks again.{w}",
            "remove_portrait;Cistia",
            "speak;Kingfisher;\u2028...That could've b-been real bad.{w}\u2028Maybe a little nervousness isn't\u2028that bad after all.{w}",
            "remove_portrait;Kingfisher",
            "give_item;Cistia;Excalipoor;no_choice",
            "ignore_base_convo;Effective (!)"
        ],
        "nid": "9 00.1 - BC Effective"
    }
]