[
    {
        "name": "BossQuotes - Quelea-Shoe",
        "trigger": "combat_start",
        "level_nid": "C20",
        "condition": "check_pair('Quelea', 'Shoebill')",
        "commands": [],
        "only_once": true,
        "priority": 20,
        "_source": [
            "add_portrait;Quelea;Left",
            "add_portrait;Shoebill;Right",
            "speak;Shoebill;Still embarking on this foolish crusade of yours, I see.",
            "speak;Quelea;That's right.",
            "speak;Shoebill;I wonder, if I hadn't satisfied a bright-eyed young woman's curiosity...",
            "speak;Quelea;We all must live with the consequences of our own actions.",
            "speak;Shoebill;And what of your own actions?|All the suffering that has been, and the suffering that will be?",
            "speak;Quelea;I intend to take responsibility for those as well.{w} Come what may.",
            "speak;Shoebill;That sort of attitude is the most dangerous of all, young lady.{w} Harrumph! I failed you.{w} Didn't raise you right.{w} Guess it's up to me to discipline you again."
        ],
        "nid": "C20 BossQuotes - Quelea-Shoe"
    }
]