[
    {
        "name": "3a. Northern Rein Wyvern",
        "trigger": "turn_change",
        "level_nid": "C20",
        "condition": "not is_dead('Fiachra') and (game.turncount > 4) and (game.turncount % game.level_vars.get('ReinTimer', 3) == 0)",
        "commands": [],
        "only_once": false,
        "priority": 20,
        "_source": [
            "make_generic;;Wyvern Lord;10;enemy2;Pursue;Cult;;MasterAxe,Tomahawk",
            "add_unit;{created_unit};FortRein_North_1;fade;;fade",
            "make_generic;;Wyvern Knight;10;enemy2;Pursue;Cult;;MasterSword",
            "add_unit;{created_unit};FortRein_North_2;fade;;fade",
            "center_cursor;FortRein_North_1;1000",
            "flicker_cursor;FortRein_North_1"
        ],
        "nid": "C20 3a. Northern Rein Wyvern"
    }
]