[
    {
        "name": "LOSS. Whisper Death",
        "trigger": "unit_death",
        "level_nid": "C20",
        "condition": "unit.nid == 'TheWhisper'",
        "commands": [],
        "only_once": true,
        "priority": 20,
        "_source": [
            "add_portrait;Cormorant;Left",
            "speak;Cormorant;Watch out!{w} The Whisper's going to explode!",
            "expression;Cormorant;CloseEyes",
            "transition;close;1000;255,255,255",
            "lose_game"
        ],
        "nid": "C20 LOSS. Whisper Death"
    }
]