[
    {
        "name": "BQ. Rasta_Cistia",
        "trigger": "combat_start",
        "level_nid": "Extra",
        "condition": "check_pair('Rasta', 'Cistia')",
        "commands": [],
        "only_once": true,
        "priority": 20,
        "_source": [
            "add_portrait;Rasta;Left;no_block",
            "add_portrait;Cistia;Right",
            "speak;Cistia;Specialist... \"Pro\"?{w} Really?",
            "speak;Rasta;\u2028Hey!{w} I have an uh...{w} 10 hit advantage over you?",
            "speak;Rasta;Yeah, it's a bad skill. Yours is definitely better but...{w} you could be even stronger!",
            "speak;Cistia;Better?",
            "speak;Rasta;Yeah! Imagine this. Galeforce,{w} passive AoE 3,{w} infantry effective multi item,{w} capped res,{w} Piercer never misses and can double,{w} brave effective weaponry,{w} doubled co-",
            "speak;Cistia;I don't think I'm able to comprehend anything you just said.",
            "wait;300",
            "speak;Cistia;But do you really think all of that would make me happy?",
            "speak;Rasta;Yeah!",
            "expression;Cistia;CloseEyes",
            "speak;Cistia;Please.{w} All I ever wanted was to stop fighting.{w} To retire peacefully and never have to pick up a lance again.",
            "expression;Cistia;NormalBlink",
            "speak;Cistia;Then I was thrown into this mess.{w} Had to watch as my old friends try to kill each other over some damn cult.{w} Was that you?",
            "speak;Rasta;Maybe.",
            "speak;Cistia;Well then. If you wanted to watch me kill for your amusment,{w} then I'll give you a first-hand demonstration.",
            "speak;Rasta;Uhh...",
            "wait;300",
            "speak;Rasta;I...{w} Did not think this through.",
            "multi_remove_portrait;Cistia;Rasta"
        ],
        "nid": "Extra BQ. Rasta_Cistia"
    }
]