[
    {
        "name": "BQ. RW_Farl",
        "trigger": "combat_start",
        "level_nid": "Extra",
        "condition": "check_pair('RandomWizard', 'Farl')",
        "commands": [],
        "only_once": true,
        "priority": 20,
        "_source": [
            "add_portrait;RandomWizard;Left;no_block",
            "add_portrait;Farl;Right",
            "speak;RandomWizard;This world's bards sing and its troubadours say",
            "speak;Farl;the tale of a knight for whose soul we pray",
            "speak;RandomWizard;His squire did cower and his horse did neigh",
            "speak;Farl;as the knight charged up the great hill that day.",
            "speak;RandomWizard;His foes' arrows flew, in a thousandfold spray",
            "speak;Farl;In his heart, they struck, and he fell to the clay",
            "speak;RandomWizard;The monsters he fought yet slaughtered more prey",
            "speak;Farl;And his corpse bled out in the dirt that day.",
            "multi_remove_portrait;Farl;RandomWizard"
        ],
        "nid": "Extra BQ. RW_Farl"
    }
]