[
    {
        "name": "X. Grant Aura",
        "trigger": null,
        "level_nid": "Extra",
        "condition": "game.get_unit('SigmaRaven').position",
        "commands": [],
        "only_once": false,
        "priority": 19,
        "_source": [
            "if;not game.get_unit('SigmaRaven').get_field(\"Booned\") == 't'",
            "    level_var;sig_aura;{eval:['Antiego Aura_5', 'Dispeller Aura_5', 'Unbody Aura_5']}",
            "    level_var;aura_num;{eval:static_random.get_randint(0, 2)}",
            "    level_var;aura_chosen;'{eval:{v:sig_aura}[{v:aura_num}]}'",
            "    remove_skill;SigmaRaven;Antiego Aura_5;no_banner",
            "    remove_skill;SigmaRaven;Dispeller Aura_5;no_banner",
            "    remove_skill;SigmaRaven;Unbody Aura_5;no_banner",
            "    give_skill;SigmaRaven;{v:aura_chosen}",
            "end"
        ],
        "nid": "Extra X. Grant Aura"
    }
]