[
    {
        "name": "3. Rein - lord",
        "trigger": "turn_change",
        "level_nid": "Extra",
        "condition": "game.turncount == 5",
        "commands": [],
        "only_once": false,
        "priority": 20,
        "_source": [
            "center_cursor;mag;immediate",
            "flicker_cursor;mag",
            "show_layer;bridge",
            "spawn_group;lord;south;lord;normal;push",
            "center_cursor;lord",
            "flicker_cursor;lord",
            "add_unit;SigmaRaven;8,0;;push",
            "center_cursor;SigmaRaven;immediate",
            "flicker_cursor;SigmaRaven",
            "add_unit;Jumpants;16,0;;push",
            "center_cursor;Jumpants;immediate",
            "flicker_cursor;Jumpants"
        ],
        "nid": "Extra 3. Rein - lord"
    }
]