[
    {
        "name": "X. Balance Patch",
        "trigger": "turn_change",
        "level_nid": "Extra",
        "condition": "game.get_unit('Lord_Tweed').position and game.get_unit('Lord_Tweed').get_field(\"Booned\") == 't'",
        "commands": [],
        "only_once": false,
        "priority": 15,
        "_source": [
            "level_var;patch_members;{eval:[unitx.nid for unitx in game.get_player_units() if unitx.position]}",
            "level_var;patch_target_num;{eval:static_random.get_randint(0, len({v:patch_members}) - 1)}",
            "level_var;patch_target;'{eval:{v:patch_members}[{v:patch_target_num}]}'",
            "center_cursor;Lord_Tweed;immediate",
            "flicker_cursor;Lord_Tweed",
            "center_cursor;{eval:game.get_unit('{v:patch_target}').position};immediate",
            "flicker_cursor;{eval:game.get_unit('{v:patch_target}').position}",
            "level_var;rand_str;{eval:static_random.get_randint(-2,2)}",
            "level_var;rand_mag;{eval:static_random.get_randint(-2,2)}",
            "level_var;rand_skl;{eval:static_random.get_randint(-2,2)}",
            "level_var;rand_spd;{eval:static_random.get_randint(-2,2)}",
            "level_var;rand_lck;{eval:static_random.get_randint(-2,2)}",
            "level_var;rand_def;{eval:static_random.get_randint(-2,2)}",
            "level_var;rand_res;{eval:static_random.get_randint(-2,2)}",
            "change_stats;{eval:game.get_unit('{v:patch_target}')};STR,{v:rand_str},MAG,{v:rand_mag},SKL,{v:rand_skl},SPD,{v:rand_spd},LCK,{v:rand_lck},DEF,{v:rand_def},RES,{v:rand_res}"
        ],
        "nid": "Extra X. Balance Patch"
    }
]