[
    {
        "name": "BQ. Mag_Mikhail",
        "trigger": "combat_start",
        "level_nid": "Extra",
        "condition": "check_pair('Mikhail_Xtra', 'mag')",
        "commands": [],
        "only_once": true,
        "priority": 20,
        "_source": [
            "add_portrait;mag;Left;no_block",
            "add_portrait;Mikhail;Right",
            "speak;Mikhail;I'd heard tales of your people, the Creators...{w} about your immense might, your all-seeing wisdom, your...{w} rapturous beauty...",
            "speak;mag;Yes, all true.{w} I AM wise, and mighty, and rather beautiful.|Although this form is a little bit...{w} ordinary...",
            "speak;mag;Well!{w} Would you like an autograph, perhaps?{w} A boon of some kind, or a Blessing?{w} Please, tell me more of what you've heard.",
            "speak;Mikhail;...{w} I heard a lot of stuff, but...",
            "speak;mag;But?",
            "speak;Mikhail;Well, I dunno? Sorta feels like meeting Santa in the marketplace.{w} Old, ugly, creepy, grubby hands all over...{w} Wish I could undo this whole meeting, to be honest.",
            "multi_remove_portrait;mag;Mikhail"
        ],
        "nid": "Extra BQ. Mag_Mikhail"
    }
]