[
    {
        "name": "Ability_Deathmatch",
        "trigger": null,
        "level_nid": null,
        "condition": "True",
        "commands": [],
        "only_once": false,
        "priority": 20,
        "_source": [
            "interact_unit;{unit};{unit2};;;5;force_animation"
        ],
        "nid": "Global Ability_Deathmatch"
    }
]