[
    {
        "name": "Ability_OneIsMany_Kill",
        "trigger": null,
        "level_nid": null,
        "condition": "True",
        "commands": [],
        "only_once": false,
        "priority": 20,
        "_source": [
            "if;unit2.get_hp() == 0",
            "    for;PARTY_UNIT;[unit.nid for unit in game.get_all_units() if 'Chronos' in unit.tags]",
            "        set_current_mana;{PARTY_UNIT};{e:game.get_unit('{PARTY_UNIT}').get_mana() + 2}",
            "    endf",
            "end"
        ],
        "nid": "Global Ability_OneIsMany_Kill"
    }
]