[
    {
        "name": "A5. LongDistance achievement check",
        "trigger": "unit_wait",
        "level_nid": null,
        "condition": "has_achievement(\"a5\") != True",
        "commands": [],
        "only_once": false,
        "priority": 20,
        "_source": [
            "level_var;trvldist;0 if not unit.previous_position or not unit.position else abs(unit.position[0] - unit.previous_position[0]) + abs(unit.position[1] - unit.previous_position[1])",
            "if;game.level_vars['trvldist'] >= 40 and not has_achievement('a5')",
            "    complete_achievement;a5;true;banner",
            "    update_record;ach_points;RECORDS.get('ach_points') + 20",
            "end"
        ],
        "nid": "Global A5. LongDistance achievement check"
    }
]