[
    {
        "name": "GameSetup",
        "trigger": "on_startup",
        "level_nid": null,
        "condition": "True",
        "commands": [],
        "only_once": false,
        "priority": 20,
        "_source": [
            "speak_style;__default;NumLines=0"
        ],
        "nid": "Global GameSetup"
    }
]