[
    {
        "name": "Death17: Remri",
        "trigger": "unit_death",
        "level_nid": null,
        "condition": "unit.nid == 'Remri'",
        "commands": [],
        "only_once": false,
        "priority": 20,
        "_source": [
            "add_portrait;Remri;Right",
            "speak;Remri;What a stupid, stupid, life.{w}{br}Struggling for so long with so little to show.",
            "remove_portrait;Remri"
        ],
        "nid": "Global Death17: Remri"
    }
]