[
    {
        "name": "A06b. Manamaniac combat end check",
        "trigger": "combat_end",
        "level_nid": null,
        "condition": "has_achievement(\"a6\") != True",
        "commands": [],
        "only_once": false,
        "priority": 20,
        "_source": [
            "#A6 Manamaniac achievement check",
            "if;game.level_vars['manazero'] == 0 and game.level_vars['manadiff'] >= unit.get_mana()",
            "    level_var;manazero;{eval:game.level_vars['manadiff'] - unit.get_mana()}",
            "    if;game.level_vars['manazero'] >= 100",
            "        complete_achievement;a6;true;banner",
            "        update_record;ach_points;RECORDS.get('ach_points') + 20",
            "    end",
            "elif;game.level_vars['manazero'] != 0 and game.level_vars['manadiff'] >= unit.get_mana()",
            "    level_var;manazero;{eval:game.level_vars['manadiff'] - unit.get_mana() + game.level_vars['manazero']}",
            "    if;game.level_vars['manazero'] >= 100",
            "        complete_achievement;a6;true;banner",
            "        update_record;ach_points;RECORDS.get('ach_points') + 20",
            "    end",
            "end"
        ],
        "nid": "Global A06b. Manamaniac combat end check"
    }
]