[
    {
        "name": "Death19: Fessian",
        "trigger": "unit_death",
        "level_nid": null,
        "condition": "unit.nid == \"Fessian\"",
        "commands": [],
        "only_once": false,
        "priority": 20,
        "_source": [
            "add_portrait;Fessian;Left",
            "speak;Fessian;Fear. Grief. Acceptance.;;;noir",
            "remove_portrait;Fessian"
        ],
        "nid": "Global Death19: Fessian"
    }
]