[
    {
        "name": "DeathH: Clyde",
        "trigger": "unit_death",
        "level_nid": null,
        "condition": "unit.nid == \"Clyde\"",
        "commands": [],
        "only_once": false,
        "priority": 20,
        "_source": [
            "add_portrait;Clyde;Left",
            "speak;Clyde;I will not forget the time you failed me."
        ],
        "nid": "Global DeathH: Clyde"
    }
]