[
    {
        "name": "Ability_Mortal_Fire",
        "trigger": null,
        "level_nid": null,
        "condition": "True",
        "commands": [],
        "only_once": false,
        "priority": 20,
        "_source": [
            "remove_item;Zackary_P;Fire"
        ],
        "nid": "Global Ability_Mortal_Fire"
    }
]