[
    {
        "name": "Ability_TheWorld",
        "trigger": null,
        "level_nid": null,
        "condition": "True",
        "commands": [],
        "only_once": false,
        "priority": 20,
        "_source": [
            "for;SUBITEM;[s.uid for s in get_item('Lim', 'Major Arcana').subitems]",
            "    remove_item_from_multiitem;Lim;Major Arcana;{SUBITEM}",
            "endf",
            "add_item_to_multiitem;Lim;Major Arcana;The Magician",
            "add_item_to_multiitem;Lim;Major Arcana;The Popess",
            "add_item_to_multiitem;Lim;Major Arcana;The Empress",
            "add_item_to_multiitem;Lim;Major Arcana;The Emperor",
            "add_item_to_multiitem;Lim;Major Arcana;The Hierophant",
            "add_item_to_multiitem;Lim;Major Arcana;The Lovers",
            "add_item_to_multiitem;Lim;Major Arcana;The Chariot",
            "add_item_to_multiitem;Lim;Major Arcana;Justice",
            "add_item_to_multiitem;Lim;Major Arcana;The Hermit",
            "add_item_to_multiitem;Lim;Major Arcana;Wheel of Fortune",
            "add_item_to_multiitem;Lim;Major Arcana;Strength",
            "add_item_to_multiitem;Lim;Major Arcana;The Hanged Man",
            "add_item_to_multiitem;Lim;Major Arcana;Death",
            "add_item_to_multiitem;Lim;Major Arcana;Temperance",
            "add_item_to_multiitem;Lim;Major Arcana;The Devil",
            "add_item_to_multiitem;Lim;Major Arcana;The Tower",
            "add_item_to_multiitem;Lim;Major Arcana;The Star",
            "add_item_to_multiitem;Lim;Major Arcana;The Moon",
            "add_item_to_multiitem;Lim;Major Arcana;The Sun",
            "add_item_to_multiitem;Lim;Major Arcana;Judgement"
        ],
        "nid": "Global Ability_TheWorld"
    }
]