[
    {
        "name": "Ability_FessianBooster",
        "trigger": null,
        "level_nid": null,
        "condition": "True",
        "commands": [],
        "only_once": false,
        "priority": 20,
        "_source": [
            "add_region;{eval:target_pos};{eval:target_pos};1,1;status;FessBooster;interrupt_move;only_once",
            "map_anim;Square;{eval:target_pos};permanent"
        ],
        "nid": "Global Ability_FessianBooster"
    }
]