[
    {
        "name": "Ability_TimeweaverActivate_2",
        "trigger": "enemy2_turn_change",
        "level_nid": null,
        "condition": "'used_timeweaver' in game.level_vars and game.level_vars.get('used_timeweaver') == 1",
        "commands": [],
        "only_once": false,
        "priority": 99,
        "_source": [
            "#Made a copy of this event basically, if there is no enemy team but there is an enemy2 team, then this version fires instead",
            "#Check if the target is being rescued",
            "for;rescuer;[unitx.nid for unitx in game.get_player_units() if unitx.traveler and unitx.traveler == '{v:allyID}']",
            "    separate;{rescuer}",
            "    add_unit;{eval:game.get_unit('{v:allyID}')};{eval:game.get_unit('{rescuer}').position};immediate;stack",
            "    remove_skill;{rescuer};EmpowerChild;no_banner",
            "    remove_skill;{rescuer};WardChild;no_banner",
            "    remove_skill;{rescuer};HasteChild;no_banner",
            "    remove_skill;{rescuer};Rescue;no_banner",
            "endf",
            "#Check if the target is rescuing another unit",
            "if;game.get_unit('{v:allyID}').traveler",
            "    level_var;new_pos;game.get_unit('{v:allyID}').position",
            "    level_var;rescuee;game.get_unit('{v:allyID}').traveler",
            "    separate;{eval:game.get_unit('{v:allyID}')}",
            "    add_unit;{eval:game.get_unit('{v:rescuee}')};{eval:{v:new_pos}};immediate;stack",
            "    remove_skill;{eval:game.get_unit('{v:allyID}')};Rescue;no_banner",
            "end",
            "#Revive the target if necessary, and move them",
            "if;game.check_dead('{v:allyID}')",
            "    resurrect;{eval:game.get_unit('{v:allyID}')}",
            "    add_unit;{eval:game.get_unit('{v:allyID}')};{v:allyPos};warp;push",
            "else",
            "    move_unit;{eval:game.get_unit('{v:allyID}')};{v:allyPos};warp;push",
            "end",
            "#Set parameters",
            "set_current_hp;{eval:game.get_unit('{v:allyID}')};{v:allyHP}",
            "set_current_mana;{eval:game.get_unit('{v:allyID}')};{v:allyMP}",
            "level_var;used_timeweaver;0"
        ],
        "nid": "Global Ability_TimeweaverActivate_2"
    }
]