[
    {
        "name": "Item_Separator",
        "trigger": null,
        "level_nid": null,
        "condition": "True",
        "commands": [],
        "only_once": false,
        "priority": 20,
        "_source": [
            "level_var;partner;unit2.traveler",
            "separate;{unit2}",
            "add_unit;{v:partner};{eval:unit2.position};warp;closest",
            "remove_skill;{unit2};EmpowerChild;no_banner",
            "remove_skill;{unit2};WardChild;no_banner",
            "remove_skill;{unit2};HasteChild;no_banner",
            "remove_skill;{unit2};Rescue;no_banner"
        ],
        "nid": "Global Item_Separator"
    }
]