[
    {
        "name": "RecruitFeodor",
        "trigger": null,
        "level_nid": null,
        "condition": "True",
        "commands": [],
        "only_once": false,
        "priority": 20,
        "_source": [
            "speak;Cormorant;This is a filler conversation.",
            "speak;Feodor;Huh?{w} The hell's that mean?{w} Hey - you're the one who offed {var:mu_name}!",
            "speak;Cormorant;In the flesh.{w} My sword arm's getting tired, so I'll cut you a deal.{w} Whatever they're paying you, we'll pay double.",
            "speak;Feodor;Bold of ya.{w} But my employer's not so nice to turncoats.",
            "speak;Cormorant;I can tell you're a betting man.{w} How much you wanna bet your employer's dead by the morning?",
            "speak;Feodor;Those sound like bum odds.",
            "speak;Cormorant;Doesn't make a difference to me.{w} I'll kill you right here.",
            "speak;Feodor;I ain't never afraid of bum odds.{w} You said you'd pay double?{w} That's good enough for me.",
            "change_team;Feodor;player"
        ],
        "nid": "Global RecruitFeodor"
    }
]