[
    {
        "name": "Global_FinolaUpkeep",
        "trigger": "turn_change",
        "level_nid": null,
        "condition": "game.get_unit('Finola') and game.get_unit('Finola').position",
        "commands": [],
        "only_once": false,
        "priority": 20,
        "_source": [
            "#Grants Finola a stack of her current stance at upkeep",
            "if;any([skill.nid == 'Finale' for skill in game.get_unit('Finola').skills])",
            "    give_skill;Finola;Healing Serenade;no_banner",
            "    give_skill;Finola;Enervating Waltz;no_banner",
            "    give_skill;Finola;Striking Requiem;no_banner",
            "elif;any([skill.nid == 'Healing Stance' for skill in game.get_unit('Finola').skills]) and len([skill for skill in game.get_unit('Finola').skills if skill.nid == 'Healing Serenade']) < 8",
            "    give_skill;Finola;Healing Serenade;no_banner",
            "elif;any([skill.nid == 'Enervating Stance' for skill in game.get_unit('Finola').skills]) and len([skill for skill in game.get_unit('Finola').skills if skill.nid == 'Enervating Waltz']) < 8",
            "    give_skill;Finola;Enervating Waltz;no_banner",
            "elif;any([skill.nid == 'Striking Stance' for skill in game.get_unit('Finola').skills]) and len([skill for skill in game.get_unit('Finola').skills if skill.nid == 'Striking Requiem']) < 8",
            "    give_skill;Finola;Striking Requiem;no_banner",
            "end"
        ],
        "nid": "Global Global_FinolaUpkeep"
    }
]