[
    {
        "name": "Ability_BattleCry",
        "trigger": "combat_end",
        "level_nid": null,
        "condition": "item.nid == 'Battle Cry+'",
        "commands": [],
        "only_once": false,
        "priority": 20,
        "_source": [
            "give_skill;{unit};Battle Cry_Child;no_banner"
        ],
        "nid": "Global Ability_BattleCry"
    }
]