[
    {
        "name": "Ability_Timeweaver",
        "trigger": null,
        "level_nid": null,
        "condition": "True",
        "commands": [],
        "only_once": false,
        "priority": 20,
        "_source": [
            "level_var;allyHP;unit2.get_hp()",
            "level_var;allyMP;unit2.get_mana()",
            "level_var;allyPos;unit2.position",
            "level_var;allyID;unit2.nid",
            "level_var;used_timeweaver;1"
        ],
        "nid": "Global Ability_Timeweaver"
    }
]