[
    {
        "name": "AchievementShop_Purchase",
        "trigger": null,
        "level_nid": null,
        "condition": "True",
        "commands": [],
        "only_once": false,
        "priority": 20,
        "_source": [
            "if;int(RECORDS.get('ach_points')) >= int({d:Achievement_Shop.{v:ach_item}.Cost}) and not RECORDS.get('{v:ach_item}')",
            "    update_record;ach_points;RECORDS.get('ach_points') - int({d:Achievement_Shop.{v:ach_item}.Cost})",
            "    create_record;{v:ach_item};True",
            "    if;game.game_vars['ach_item'] == 'A_F2'",
            "        unlock_difficulty;CurseoftheMogall",
            "    end",
            "    alert;Purchased!",
            "elif;int(RECORDS.get('ach_points')) < int({d:Achievement_Shop.{v:ach_item}.Cost}) and not RECORDS.get('{v:ach_item}')",
            "    alert;Not enough points!",
            "else",
            "    alert;Already purchased!",
            "end"
        ],
        "nid": "Global AchievementShop_Purchase"
    }
]