[
    {
        "name": "Ability_Disguise",
        "trigger": null,
        "level_nid": null,
        "condition": "",
        "commands": [],
        "only_once": false,
        "priority": 20,
        "_source": [
            "if;unit2.team == 'enemy'",
            "    give_skill;Sionn;DisguiseEnemyDummy;no_banner",
            "elif;unit2.team == 'enemy2'",
            "    give_skill;Sionn;DisguiseEnemy2Dummy;no_banner",
            "end"
        ],
        "nid": "Global Ability_Disguise"
    }
]