[
    {
        "name": "Ability_CraneShowOff!Combo",
        "trigger": null,
        "level_nid": null,
        "condition": "True",
        "commands": [],
        "only_once": false,
        "priority": 20,
        "_source": [
            "####This applies displacement debuff to enemies",
            "give_skill;{unit2};Displaced_immune;no_banner",
            "add_region;Displaced;{eval:unit.position};{eval:','.join([str(unit2.position[0]-unit.position[0]+1), str(unit2.position[1]-unit.position[1]+1)])};status;Displaced_remove",
            "remove_region;Displaced",
            "############ Using \"Show Off! Combo\" on allies",
            "if;unit2.team == 'player'",
            "    ####IF BLESSED",
            "    if;game.get_unit('Crane').get_field(\"Blessed\") == True",
            "        table;combo_desc;[\"{d:ShowOff!ComboData.{v:combo_choice_hover}.Description}\"];Alignment=bottom_left;BG=menu_bg_parchment;RowWidth=220;expression",
            "        ###checks for traveler (fixes unit deleting bug)",
            "        if;target.traveler == None",
            "            choice;combo;Select an action.;Advanced Guard,Bail Out & Swap,Don't care;EntryType=type_base_item",
            "        else",
            "            choice;combo;Select an action.;Bail Out & Swap,Don't care;EntryType=type_base_item",
            "        end",
            "        ##Advanced Guard",
            "        if;game.game_vars['_last_choice'] == 'Advanced Guard'",
            "            move_unit;{unit};{unit2};swoosh;closest",
            "            wait;400",
            "            pair_up;{unit};{unit2};no_warn",
            "            give_skill;{unit2};Crane's Way_child;;no_banner",
            "            if;game.game_vars['CraneGuardCountdown'] == 1",
            "                remove_region;CraneGuard;no_warn",
            "                for;GuardUnit;[unit.nid for unit in game.get_all_units()]",
            "                    remove_skill;{GuardUnit};Advanced Guard;no_banner;no_warn",
            "                endf",
            "                remove_map_anim;AdvancedGuard;{var:CraneGuardLocationX},{var:CraneGuardLocationY}",
            "            end",
            "            map_anim;AdvancedGuard;{unit2};permanent",
            "            add_region;CraneGuard;{eval:','.join([str(unit2.position[0]-1), str(unit2.position[1]-1)])};3,3;status;Advanced Guard",
            "            game_var;CraneGuardCountdown;1",
            "            game_var;CraneGuardLocationX;unit2.position[0]",
            "            game_var;CraneGuardLocationY;unit2.position[1]",
            "            ##Bail Out & Swap",
            "        elif;game.game_vars['_last_choice'] == 'Bail Out & Swap'",
            "            interact_unit;{unit};{unit2};hit1;Bail Out & Swap",
            "            reset;{unit}",
            "        end",
            "        #### IF NOT BLESSED",
            "    else",
            "        table;combo_desc;[\"{d:ShowOff!ComboData.{v:combo_choice_hover}.Description}\"];Alignment=bottom_left;BG=menu_bg_parchment;RowWidth=220;expression",
            "        if;target.traveler == None",
            "            choice;combo;Select an action.;Crane Guard,Crane Swap,Don't care;EntryType=type_base_item",
            "        else",
            "            choice;combo;Select an action.;Crane Swap,Don't care;EntryType=type_base_item",
            "        end",
            "        ##Crane Guard",
            "        if;game.game_vars['_last_choice'] == 'Crane Guard'",
            "            move_unit;{unit};{unit2};swoosh;closest",
            "            wait;400",
            "            pair_up;{unit};{unit2};no_warn",
            "            give_skill;{unit2};Crane's Way_child;;no_banner",
            "            ##Crane Swap",
            "        elif;game.game_vars['_last_choice'] == 'Crane Swap'",
            "            interact_unit;{unit};{unit2};hit1;Crane Swap",
            "            reset;{unit}",
            "        end",
            "    end",
            "else",
            "    ############ Using \"Show Off! Combo\" on enemies",
            "    ####IF BLESSED",
            "    if;game.get_unit('Crane').get_field(\"Blessed\") == True",
            "        table;combo_desc;[\"{d:ShowOff!ComboData.{v:combo_choice_hover}.Description}\"];Alignment=bottom_left;BG=menu_bg_parchment;RowWidth=220;expression",
            "        choice;combo;Select an action.;Cannon Barrage,Grappling Hook,Don't care;EntryType=type_base_item",
            "        ##Cannon Barrage",
            "        if;game.game_vars['_last_choice'] == 'Cannon Barrage'",
            "            interact_unit;{unit};{unit2};;Cannon Barrage",
            "            if;game.game_vars['CannonfireCountdown'] >= 1",
            "                remove_region;Cannonfire;no_warn",
            "                for;CannonUnit;[unit.nid for unit in game.get_all_units()]",
            "                    remove_skill;{CannonUnit};Cannon Barrage;no_banner;no_warn",
            "                endf",
            "                remove_map_anim;CannonBarrage;{var:CannonfireLocationX},{var:CannonfireLocationY}",
            "            end",
            "            map_anim;CannonBarrage;{unit2};permanent",
            "            add_region;Cannonfire;{eval:','.join([str(unit2.position[0]-2), str(unit2.position[1]-2)])};5,5;status;Cannon Barrage",
            "            game_var;CannonfireCountdown;1",
            "            game_var;CannonfireLocationX;unit2.position[0]",
            "            game_var;CannonfireLocationY;unit2.position[1]",
            "            ##Grappling Hook",
            "        elif;game.game_vars['_last_choice'] == 'Grappling Hook'",
            "            give_skill;Crane;Grappling Hook;no_banner",
            "            move_unit;{unit};{unit2};swoosh;closest",
            "            wait;400",
            "            interact_unit;{unit};{unit2}",
            "        end",
            "        #### IF NOT BLESSED",
            "    else",
            "        table;combo_desc;[\"{d:ShowOff!ComboData.{v:combo_choice_hover}.Description}\"];Alignment=bottom_left;BG=menu_bg_parchment;RowWidth=220;expression",
            "        choice;combo;Select an action.;Crane Bomb,Crane Harpoon,Don't care;EntryType=type_base_item",
            "        ##Crane Bomb",
            "        if;game.game_vars['_last_choice'] == 'Crane Bomb'",
            "            interact_unit;{unit};{unit2};;Egg Bomb",
            "            ##Crane Harpoon",
            "        elif;game.game_vars['_last_choice'] == 'Crane Harpoon'",
            "            move_unit;{unit};{unit2};swoosh;closest",
            "            wait;400",
            "            interact_unit;{unit};{unit2}",
            "        end",
            "    end",
            "end"
        ],
        "nid": "Global Ability_CraneShowOff!Combo"
    }
]