[
    {
        "name": "Ability_RemoveTrap",
        "trigger": "unit_wait",
        "level_nid": null,
        "condition": "any([skill.nid == 'FessTrap' for skill in unit.skills])",
        "commands": [],
        "only_once": false,
        "priority": 20,
        "_source": [
            "remove_map_anim;Square;{unit}"
        ],
        "nid": "Global Ability_RemoveTrap"
    }
]