[
    {
        "name": "Ability_Dive",
        "trigger": null,
        "level_nid": null,
        "condition": "True",
        "commands": [],
        "only_once": false,
        "priority": 20,
        "_source": [
            "level_var;Dive_Cost;utils.calculate_distance({e:u('Jarze').position}, {v:Jarze_Pos})",
            "if;unit.get_hp() - (10 * {v:Dive_Cost}) <= 0",
            "    set_current_hp;Jarze;1",
            "else",
            "    set_current_hp;Jarze;{e:unit.get_hp() - (10 * {v:Dive_Cost})}",
            "end",
            "give_skill;Jarze;Perfect_Evade;no_banner",
            "interact_unit;Jarze;{e:u('Jarze').position};Ability=Dive_Land"
        ],
        "nid": "Global Ability_Dive"
    }
]