[
    {
        "name": "Ability_Bluff",
        "trigger": null,
        "level_nid": null,
        "condition": "True",
        "commands": [],
        "only_once": false,
        "priority": 20,
        "_source": [
            "set_current_mana;{unit2};{eval:unit2.get_mana() + 5}"
        ],
        "nid": "Global Ability_Bluff"
    }
]