[
    {
        "name": "Ability_BattleCry_Removal",
        "trigger": "unit_wait",
        "level_nid": null,
        "condition": "game.get_unit('Lychee').position and any(skill.nid == 'Battle Cry+ Temporary' for skill in game.get_unit('Lychee').skills)",
        "commands": [],
        "only_once": false,
        "priority": 20,
        "_source": [
            "remove_skill;Lychee;Battle Cry+ Temporary;no_banner"
        ],
        "nid": "Global Ability_BattleCry_Removal"
    }
]