[
    {
        "name": "Ability_Bomb",
        "trigger": null,
        "level_nid": null,
        "condition": "True",
        "commands": [],
        "only_once": false,
        "priority": 20,
        "_source": [
            "map_anim;AOE_Fireball;{unit}",
            "sound;ElfireHit",
            "for;EXPLODE;[u.nid for u in get_units_within_distance(unit, dist=2)];no_warn",
            "    if;u('{EXPLODE}').get_hp() <= 20",
            "        kill_unit;{EXPLODE}",
            "    else",
            "        set_current_hp;{EXPLODE};{e:u('{EXPLODE}').get_hp() - 20}",
            "    end",
            "endf",
            "if;unit.get_hp() == 0",
            "    kill_unit;{unit}",
            "end"
        ],
        "nid": "Global Ability_Bomb"
    }
]