[
    {
        "name": "Ability_Freezing",
        "trigger": null,
        "level_nid": null,
        "condition": "True",
        "commands": [],
        "only_once": false,
        "priority": 20,
        "_source": [
            "if;game.get_unit('Mordeau_Ch14').position and utils.calculate_distance(game.get_unit('Mordeau_Ch14').position, unit.position) <= 5",
            "    if;(len([skill for skill in game.get_unit('{e:unit}').skills if skill.nid == 'Freezing']) >= 3)",
            "        remove_skill;{unit};Freezing;no_banner;no_warn",
            "        give_skill;{unit};FrozenUpkeep;no_banner;no_warn",
            "    else",
            "        give_skill;{unit};Freezing;no_banner;no_warn",
            "    end",
            "end"
        ],
        "nid": "Global Ability_Freezing"
    }
]