[
    {
        "name": "Death_ImmortalStatLoss",
        "trigger": "unit_death",
        "level_nid": null,
        "condition": "'Immortal' in [skill.nid for skill in unit.skills] and unit.team == 'player' or has_skill(unit, 'DeathImmortal')",
        "commands": [],
        "only_once": false,
        "priority": 19,
        "_source": [
            "#resurrect;{unit}",
            "#change_stats;{unit};HP,-1,STR,-1,MAG,-1,SKL,-1,SPD,-1,LCK,-1,DEF,-1,RES,-1",
            "## immortal death counter",
            "#if;unit.get_field(\"ImmortalDeaths\")",
            "#    set_unit_field;{unit};ImmortalDeaths;1;FLAG(increment_mode)",
            "#else",
            "#    set_unit_field;{unit};ImmortalDeaths;1",
            "#end",
            "if;game.level.nid == '4'",
            "else",
            "if;unit.nid == 'Gospel'",
            "    change_stats;{unit};STR,+1,MAG,+1,SKL,+1,SPD,+1,LCK,+1,DEF,+1,RES,+1",
            "    # immortal death counter",
            "    if;unit.get_field(\"ImmortalDeaths\")",
            "        set_unit_field;{unit};ImmortalDeaths;1;increment_mode",
            "    else",
            "        set_unit_field;{unit};ImmortalDeaths;1",
            "    end",
            "else",
            "    give_skill;{unit};Immortal_Rot",
            "    set_unit_field;{unit};just_died;1",
            "    # immortal death counter",
            "    if;unit.get_field(\"ImmortalDeaths\")",
            "        set_unit_field;{unit};ImmortalDeaths;1;increment_mode",
            "    else",
            "        set_unit_field;{unit};ImmortalDeaths;1",
            "    end",
            "end",
            "end"
        ],
        "nid": "Global Death_ImmortalStatLoss"
    }
]