[
    {
        "name": "Summon Phantom",
        "trigger": null,
        "level_nid": null,
        "condition": "True",
        "commands": [],
        "only_once": false,
        "priority": 20,
        "_source": [
            "if;game.get_unit('phantom')",
            "    resurrect;phantom",
            "    remove_unit;phantom;warp",
            "    autolevel_to;phantom;unit.level",
            "else",
            "    make_generic;phantom;Fighter;unit.level;player",
            "end",
            "add_unit;phantom;{position};warp",
            "wait;200"
        ],
        "nid": "Global Summon Phantom"
    }
]