[
    {
        "name": "Achievements",
        "trigger": "on_startup",
        "level_nid": null,
        "condition": "True",
        "commands": [],
        "only_once": false,
        "priority": 20,
        "_source": [
            "#clear_achievements",
            "#for testing",
            "#story achievements",
            "create_achievement;prologue;No Gods, No Masters, No Chosen Ones;Prologue: Defeat the Suzerain in alternate history.",
            "create_achievement;ch1;Early Escape;In Ch.1 exit using the first door.",
            "create_achievement;ch2;Villager;In Ch.2 visit all the villages.",
            "create_achievement;ch3;Brave Biran;In Ch.3 get attacked by Biran with Brave Lance.",
            "create_achievement;ch3a;Defeat Ayla;In Ch.3 defeat Ayla.",
            "#create_achievement;ch3xx;Ayla Beginning;In Ch.3xx defeat Ayla with Ezra;hidden",
            "create_achievement;ch4;Attack of the Clones;In Ch.4 defeat the other Berts before Osbert.",
            "create_achievement;ch4S;Goodbye, Mother;Completed the story up through chapter 4.;hidden",
            "create_achievement;ch5;Blessed;In Ch.5 grant a boon to a unit.",
            "create_achievement;ch6;Savior;In Ch.6 keep all the villagers alive.",
            "create_achievement;ch6b;Boss Rush;In Ch.6 defeat each boss.;hidden",
            "create_achievement;ch7;Warp Lunatic;In Ch.7 use warp tiles 5 times in 1 turn.",
            "create_achievement;ch7S;The games of the Gods;Met Chronos.;hidden",
            "create_achievement;ch8;Double Trouble;In Ch.8 defeat both Pitta & Zackary.",
            "create_achievement;ch9;LTC 1;In Ch.9 clear the map on the first turn.",
            "create_achievement;ch10;Capture the Flag;In Ch.10 steal the Royal Banner from Steel Fox.",
            "create_achievement;ch10a;Defeat Ayla 2;In Ch.10 defeat Ayla using Ennis or Cormorant",
            "create_achievement;ch10S;Wren's Wings;Met Quelea for the first time.;hidden",
            "create_achievement;ch11;Brave Fighter;In Ch.11 obtain both Brave weapons.",
            "create_achievement;ch11b;I've Killed Countless;In Ch.11 kill 100 enemies;hidden",
            "create_achievement;ch12;Two Time;In Ch.12 clear the map within 2 turns.",
            "create_achievement;ch12x;Taking Flight;In Chapter 12x, promote Sparrow into a Wyvern Rider.;hidden",
            "create_achievement;ch13;Despised;In Ch.13 defeat Tiberius.",
            "create_achievement;ch13a;Defeat Ayla 3;In Ch.13 defeat Ayla.",
            "create_achievement;ch13S;Defender of Tirnanogue;Suppressed the invasion of St. Lote.;hidden",
            "create_achievement;ch14;Defend the Fort;In Ch.14 never have a fort retaken by enemy.",
            "create_achievement;ch15;Rest in Peace;In Ch.15 defeat Lady Connachta before Nialla.;hidden",
            "create_achievement;ch16;Raid;In Ch.16 obtain every treasure chest.",
            "create_achievement;ch16S;All gone wrong;Betrayal, alternate dimensions, old foes... this is ludicrous!;hidden",
            "create_achievement;ch17;Hidden Treasure;In Ch.17 find every hidden treasure.",
            "create_achievement;ch17a;Defeat Ayla 4;In Ch.17 defeat Ayla using the Fragarach.",
            "create_achievement;ch18;Disposed;In Ch.18 get Tiberius killed.",
            "create_achievement;ch18b;LTC 2;In Ch.18 defeat Spirin on the first turn.",
            "create_achievement;ch19;LTC 3;In Ch.19 clear the map on the first turn.",
            "create_achievement;ch19S;End of the Fenians;Defeated the Fenians once and for all.;hidden",
            "create_achievement;ch20;Any Last Words;In Ch.20 execute Quelea.",
            "create_achievement;ch21;Suzerain Defeated;Endgame: Defeat the Suzerain.;hidden",
            "create_achievement;ch21a;Ayla's Freedom;Endgame: Defeat the Suzerain with Ayla by your side.;hidden",
            "create_achievement;ch21b;Goodbye Ennis;Endgame: Defeat Ennis.;hidden",
            "create_achievement;winX;Defeated the Devs;Completed the Extra chapter.;hidden",
            "create_achievement;winXhard;Thank you for playing!;Completed the Extra chapter on the hardest difficulty. You are a true Lex Telephonis master!;hidden",
            "#gameplay achievements",
            "create_achievement;a1;Blessed;Grant 3 boons.",
            "create_achievement;a2;Overkill;Deal 150 damage in one hit.",
            "create_achievement;a3;Push Forward;Complete the game without turnwheel.",
            "create_achievement;a4;My Turn Again;Have a unit take 4 turns in 1 player phase.",
            "create_achievement;a5;Long Distance;Have a unit end their turn 40+ tiles away.",
            "create_achievement;a6;Manamaniac;Lose 100+ mana in 1 player phase.",
            "create_achievement;a7;Manaless;Finish a chapter without spending mana.",
            "#character achievements",
            "#Achievement Points",
            "create_record;ach_points;0"
        ],
        "nid": "Global Achievements"
    }
]