[
    {
        "name": "ManaTetherGoibniu",
        "trigger": "unit_death",
        "level_nid": null,
        "condition": "unit2 and unit2.nid == 'Goibniu' and game.phase.get_current() == 'player'",
        "commands": [],
        "only_once": false,
        "priority": 20,
        "_source": [
            "#If Goibniu is tethered, give kill mana to his partners as well.",
            "if;any(skill.nid == 'Tether_Parent' for skill in unit2.skills)",
            "    for;share_unit;[unit.nid for unit in game.get_units_in_party() if any(skill.nid == 'Tether_Child' for skill in unit.skills)]",
            "        set_current_mana;{share_unit};{eval:game.get_unit('{share_unit}').get_mana() + 2}",
            "    endf",
            "end"
        ],
        "nid": "Global ManaTetherGoibniu"
    }
]