[
    {
        "name": "Ability_SelicheSeparate",
        "trigger": "unit_wait",
        "level_nid": null,
        "condition": "True",
        "commands": [],
        "only_once": false,
        "priority": 20,
        "_source": [
            "#When Seliche is removed from her Vanguard",
            "#remove stat buffs given by Seliche",
            "for;party_unit;[unit for unit in game.get_player_units()]",
            "    if;any(skill.nid in ['Fusion_Regen'] for skill in game.get_unit('{party_unit}').skills) and game.get_unit('{party_unit}').traveler != 'Seliche'",
            "        remove_skill;{party_unit};Fusion_Regen;no_banner",
            "        remove_skill;{party_unit};Invocation;no_banner",
            "        remove_skill;{party_unit};Detonation;no_banner",
            "        remove_skill;{party_unit};Invocation_Plus;no_banner",
            "        remove_skill;{party_unit};Detonation_Plus;no_banner",
            "        remove_skill;{party_unit};hidden_rescue_no_nerf;no_banner",
            "    end",
            "endf"
        ],
        "nid": "Global Ability_SelicheSeparate"
    }
]