[
    {
        "name": "Ability_SwordDancerR",
        "trigger": null,
        "level_nid": null,
        "condition": "True",
        "commands": [],
        "only_once": false,
        "priority": 20,
        "_source": [
            "for;stack;[skill for skill in unit.skills if skill.nid == 'Striking Requiem']",
            "    give_skill;{unit2};Requiem;no_banner",
            "endf"
        ],
        "nid": "Global Ability_SwordDancerR"
    }
]