[
    {
        "name": "A4. MyTurnAgain achievement check",
        "trigger": "unit_wait",
        "level_nid": null,
        "condition": "has_achievement(\"a4\") != True",
        "commands": [],
        "only_once": false,
        "priority": 20,
        "_source": [
            "if;unit._finished",
            "    give_skill;{unit};MyTurn;no_banner",
            "    if;len([skill for skill in unit.skills if skill.nid == 'MyTurn']) >= 4 and not has_achievement('a4')",
            "        complete_achievement;a4;true;banner",
            "        update_record;ach_points;RECORDS.get('ach_points') + 20",
            "    end",
            "end"
        ],
        "nid": "Global A4. MyTurnAgain achievement check"
    }
]