[
    {
        "nid": "Ballistician",
        "name": "Ballistician",
        "desc": "Operators of long-range\nballistae. Unfortunately landlocked.",
        "tier": 1,
        "movement_group": "Armors",
        "promotes_from": null,
        "turns_into": [],
        "tags": [
            "All"
        ],
        "max_level": 20,
        "bases": {
            "HP": 25,
            "STR": 5,
            "MAG": 1,
            "SKL": 1,
            "SPD": 2,
            "LCK": 0,
            "DEF": 10,
            "RES": 0,
            "CON": 25,
            "MOV": 3
        },
        "growths": {
            "HP": 75,
            "STR": 35,
            "MAG": 5,
            "SKL": 40,
            "SPD": 32,
            "LCK": 15,
            "DEF": 15,
            "RES": 15,
            "CON": 0,
            "MOV": 0
        },
        "growth_bonus": {
            "HP": 0,
            "STR": 0,
            "MAG": 0,
            "SKL": 0,
            "SPD": 0,
            "LCK": 0,
            "DEF": 0,
            "RES": 0,
            "CON": 0,
            "MOV": 0
        },
        "promotion": {
            "HP": 0,
            "STR": 0,
            "MAG": 0,
            "SKL": 0,
            "SPD": 0,
            "LCK": 0,
            "DEF": 0,
            "RES": 0,
            "CON": 0,
            "MOV": 0
        },
        "max_stats": {
            "HP": 60,
            "STR": 30,
            "MAG": 30,
            "SKL": 30,
            "SPD": 30,
            "LCK": 30,
            "DEF": 30,
            "RES": 30,
            "CON": 25,
            "MOV": 15
        },
        "learned_skills": [],
        "wexp_gain": {
            "Dagger": [
                false,
                0,
                251
            ],
            "Sword": [
                false,
                0,
                251
            ],
            "Lance": [
                false,
                0,
                251
            ],
            "Axe": [
                false,
                0,
                251
            ],
            "Bow": [
                2,
                0,
                251
            ],
            "Staff": [
                false,
                0,
                251
            ],
            "Light": [
                false,
                0,
                251
            ],
            "Anima": [
                false,
                0,
                251
            ],
            "Dark": [
                false,
                0,
                251
            ],
            "Default": [
                false,
                0,
                251
            ]
        },
        "icon_nid": "fleet class card",
        "icon_index": [
            0,
            0
        ],
        "map_sprite_nid": "Ballistician",
        "combat_anim_nid": null,
        "fields": []
    }
]