[
    {
        "nid": "DracoZombieDummy",
        "name": "Draco Zombie",
        "desc": "The revived corpse of a dragon. Its putrid breath decays all it touches.",
        "tier": 2,
        "movement_group": "Fliers",
        "promotes_from": "Shaman",
        "turns_into": [],
        "tags": [
            "Flying",
            "Monster",
            "Magic",
            "All"
        ],
        "max_level": 20,
        "bases": {
            "HP": 16,
            "STR": 1,
            "MAG": 0,
            "SKL": 1,
            "SPD": 6,
            "LCK": 0,
            "DEF": 4,
            "RES": 10,
            "CON": 8,
            "MOV": 5
        },
        "growths": {
            "HP": 85,
            "STR": 35,
            "MAG": 0,
            "SKL": 20,
            "SPD": 20,
            "LCK": 25,
            "DEF": 30,
            "RES": 10,
            "CON": 0,
            "MOV": 0
        },
        "growth_bonus": {
            "HP": 0,
            "STR": 0,
            "MAG": 0,
            "SKL": 0,
            "SPD": 0,
            "LCK": 0,
            "DEF": 0,
            "RES": 0,
            "CON": 0,
            "MOV": 0
        },
        "promotion": {
            "HP": 0,
            "STR": 0,
            "MAG": 0,
            "SKL": 0,
            "SPD": 0,
            "LCK": 0,
            "DEF": 0,
            "RES": 0,
            "CON": 0,
            "MOV": 0
        },
        "max_stats": {
            "HP": 100,
            "STR": 50,
            "MAG": 15,
            "SKL": 50,
            "SPD": 50,
            "LCK": 30,
            "DEF": 50,
            "RES": 50,
            "CON": 25,
            "MOV": 15
        },
        "learned_skills": [],
        "wexp_gain": {
            "Sword": [
                false,
                0,
                251
            ],
            "Lance": [
                false,
                0,
                251
            ],
            "Axe": [
                false,
                0,
                251
            ],
            "Bow": [
                false,
                0,
                251
            ],
            "Dagger": [
                false,
                0,
                251
            ],
            "Staff": [
                false,
                0,
                251
            ],
            "Light": [
                false,
                0,
                251
            ],
            "Anima": [
                false,
                0,
                251
            ],
            "Dark": [
                false,
                0,
                251
            ],
            "Default": [
                false,
                0,
                251
            ]
        },
        "icon_nid": "Dracozombie {IS}",
        "icon_index": [
            0,
            0
        ],
        "map_sprite_nid": "Dracozombie {IS}-stand",
        "combat_anim_nid": "Morva",
        "fields": []
    }
]