[
    {
        "nid": "Ephraim_Great_Lord",
        "name": "Toxophilite",
        "desc": "Talented rider who wields a bow. ",
        "tier": 2,
        "movement_group": "Light Cav",
        "promotes_from": "Clone_Immortal",
        "turns_into": [],
        "tags": [
            "Horse",
            "Mounted",
            "All"
        ],
        "max_level": 20,
        "bases": {
            "HP": 18,
            "STR": 3,
            "MAG": 2,
            "SKL": 3,
            "SPD": 4,
            "LCK": 0,
            "DEF": 5,
            "RES": 0,
            "CON": 10,
            "MOV": 7
        },
        "growths": {
            "HP": 90,
            "STR": 45,
            "MAG": 22,
            "SKL": 40,
            "SPD": 45,
            "LCK": 40,
            "DEF": 15,
            "RES": 15,
            "CON": 0,
            "MOV": 0
        },
        "growth_bonus": {
            "HP": 0,
            "STR": 0,
            "MAG": 0,
            "SKL": 0,
            "SPD": 0,
            "LCK": 0,
            "DEF": 0,
            "RES": 0,
            "CON": 0,
            "MOV": 0
        },
        "promotion": {
            "HP": 4,
            "STR": 2,
            "MAG": 1,
            "SKL": 3,
            "SPD": 2,
            "LCK": 0,
            "DEF": 2,
            "RES": 3,
            "CON": 2,
            "MOV": -99
        },
        "max_stats": {
            "HP": 60,
            "STR": 27,
            "MAG": 20,
            "SKL": 26,
            "SPD": 27,
            "LCK": 30,
            "DEF": 23,
            "RES": 23,
            "CON": 25,
            "MOV": 15
        },
        "learned_skills": [
            [
                1,
                "Canto"
            ]
        ],
        "wexp_gain": {
            "Sword": [
                false,
                0,
                251
            ],
            "Lance": [
                false,
                0,
                251
            ],
            "Axe": [
                false,
                0,
                251
            ],
            "Bow": [
                true,
                0,
                251
            ],
            "Dagger": [
                false,
                0,
                251
            ],
            "Staff": [
                false,
                0,
                251
            ],
            "Light": [
                false,
                0,
                251
            ],
            "Anima": [
                false,
                0,
                251
            ],
            "Dark": [
                false,
                0,
                251
            ],
            "Default": [
                false,
                0,
                251
            ]
        },
        "icon_nid": "Generic_Portrait_Citizen",
        "icon_index": [
            0,
            0
        ],
        "map_sprite_nid": "Bow Knight (M) {Der, Pikmin}-stand",
        "combat_anim_nid": "Promoted_BertSquad",
        "fields": []
    }
]