[
    {
        "nid": "Lady_Evil",
        "name": "Lady",
        "desc": "A woman wielding supreme power in all spheres.",
        "tier": 2,
        "movement_group": "Mages",
        "promotes_from": "Heiress",
        "turns_into": [],
        "tags": [
            "Sword",
            "Magic",
            "All"
        ],
        "max_level": 20,
        "bases": {
            "HP": 0,
            "STR": 0,
            "MAG": 0,
            "SKL": 0,
            "SPD": 0,
            "LCK": 0,
            "DEF": 0,
            "RES": 0,
            "CON": 0,
            "MOV": 0
        },
        "growths": {
            "HP": 0,
            "STR": 0,
            "MAG": 0,
            "SKL": 0,
            "SPD": 0,
            "LCK": 0,
            "DEF": 0,
            "RES": 0,
            "CON": 0,
            "MOV": 0
        },
        "growth_bonus": {
            "HP": 0,
            "STR": 0,
            "MAG": 0,
            "SKL": 0,
            "SPD": 0,
            "LCK": 0,
            "DEF": 0,
            "RES": 0,
            "CON": 0,
            "MOV": 0
        },
        "promotion": {
            "HP": 3,
            "STR": 3,
            "MAG": 3,
            "SKL": 0,
            "SPD": 0,
            "LCK": 0,
            "DEF": 1,
            "RES": 3,
            "CON": 0,
            "MOV": 1
        },
        "max_stats": {
            "HP": 99,
            "STR": 30,
            "MAG": 30,
            "SKL": 30,
            "SPD": 30,
            "LCK": 30,
            "DEF": 30,
            "RES": 30,
            "CON": 25,
            "MOV": 15
        },
        "learned_skills": [],
        "wexp_gain": {
            "Sword": [
                2,
                0,
                251
            ],
            "Lance": [
                false,
                0,
                251
            ],
            "Axe": [
                false,
                0,
                251
            ],
            "Bow": [
                false,
                0,
                251
            ],
            "Dagger": [
                false,
                0,
                251
            ],
            "Staff": [
                0,
                0,
                251
            ],
            "Light": [
                2,
                0,
                251
            ],
            "Anima": [
                2,
                0,
                251
            ],
            "Dark": [
                2,
                0,
                251
            ],
            "Default": [
                false,
                0,
                251
            ]
        },
        "icon_nid": "Generic_Portrait_Valkyrie",
        "icon_index": [
            0,
            0
        ],
        "map_sprite_nid": "Lord (F) Red Bean's Celica {Blood}-stand",
        "combat_anim_nid": "Ennis Lord T2",
        "fields": []
    }
]