[
    {
        "nid": "War Cleric",
        "name": "Einherjar",
        "desc": "By church doctrine, only women can be Valkyries. Alternatives, however, exist.",
        "tier": 2,
        "movement_group": "Light Cav",
        "promotes_from": "Troubadour",
        "turns_into": [],
        "tags": [
            "Horse",
            "Mounted",
            "Magic",
            "All"
        ],
        "max_level": 20,
        "bases": {
            "HP": 20,
            "STR": 0,
            "MAG": 4,
            "SKL": 3,
            "SPD": 5,
            "LCK": 0,
            "DEF": 4,
            "RES": 8,
            "CON": 6,
            "MOV": 8
        },
        "growths": {
            "HP": 45,
            "STR": 35,
            "MAG": 15,
            "SKL": 25,
            "SPD": 45,
            "LCK": 40,
            "DEF": 10,
            "RES": 40,
            "CON": 0,
            "MOV": 0
        },
        "growth_bonus": {
            "HP": 0,
            "STR": 0,
            "MAG": 0,
            "SKL": 0,
            "SPD": 0,
            "LCK": 0,
            "DEF": 0,
            "RES": 0,
            "CON": 0,
            "MOV": 0
        },
        "promotion": {
            "HP": 3,
            "STR": 2,
            "MAG": 0,
            "SKL": 1,
            "SPD": 0,
            "LCK": 0,
            "DEF": 2,
            "RES": 2,
            "CON": 1,
            "MOV": -99
        },
        "max_stats": {
            "HP": 60,
            "STR": 25,
            "MAG": 20,
            "SKL": 24,
            "SPD": 25,
            "LCK": 30,
            "DEF": 24,
            "RES": 28,
            "CON": 25,
            "MOV": 15
        },
        "learned_skills": [
            [
                1,
                "Canto"
            ]
        ],
        "wexp_gain": {
            "Sword": [
                false,
                0,
                251
            ],
            "Lance": [
                false,
                0,
                251
            ],
            "Axe": [
                true,
                0,
                251
            ],
            "Bow": [
                false,
                0,
                251
            ],
            "Dagger": [
                false,
                0,
                251
            ],
            "Staff": [
                true,
                0,
                251
            ],
            "Light": [
                false,
                0,
                251
            ],
            "Anima": [
                false,
                0,
                251
            ],
            "Dark": [
                false,
                0,
                251
            ],
            "Default": [
                false,
                0,
                251
            ]
        },
        "icon_nid": "Generic_Portrait_Valkyrie",
        "icon_index": [
            0,
            0
        ],
        "map_sprite_nid": "Valkyrie (M) Non-Religious Staff {Der}-stand",
        "combat_anim_nid": "WarCleric",
        "fields": []
    }
]