[
    {
        "nid": "Wyvern",
        "name": "Wyvern",
        "desc": "Wyvern",
        "tier": 1,
        "movement_group": "Fliers",
        "promotes_from": null,
        "turns_into": [],
        "tags": [
            "Dragon",
            "Flying"
        ],
        "max_level": 20,
        "bases": {
            "HP": 20,
            "STR": 4,
            "MAG": 0,
            "SKL": 8,
            "SPD": 4,
            "LCK": 0,
            "DEF": 4,
            "RES": 0,
            "CON": 12,
            "MOV": 7
        },
        "growths": {
            "HP": 45,
            "STR": 30,
            "MAG": 0,
            "SKL": 25,
            "SPD": 35,
            "LCK": 0,
            "DEF": 15,
            "RES": 0,
            "CON": 0,
            "MOV": 0
        },
        "growth_bonus": {
            "HP": 0,
            "STR": 0,
            "MAG": 0,
            "SKL": 0,
            "SPD": 0,
            "LCK": 0,
            "DEF": 0,
            "RES": 0,
            "CON": 0,
            "MOV": 0
        },
        "promotion": {
            "HP": 0,
            "STR": 0,
            "MAG": 0,
            "SKL": 0,
            "SPD": 0,
            "LCK": 0,
            "DEF": 0,
            "RES": 0,
            "CON": 0,
            "MOV": 0
        },
        "max_stats": {
            "HP": 60,
            "STR": 30,
            "MAG": 30,
            "SKL": 30,
            "SPD": 30,
            "LCK": 30,
            "DEF": 30,
            "RES": 30,
            "CON": 25,
            "MOV": 15
        },
        "learned_skills": [],
        "wexp_gain": {
            "Sword": [
                false,
                0,
                251
            ],
            "Lance": [
                false,
                0,
                251
            ],
            "Axe": [
                false,
                0,
                251
            ],
            "Bow": [
                false,
                0,
                251
            ],
            "Dagger": [
                false,
                0,
                251
            ],
            "Staff": [
                false,
                0,
                251
            ],
            "Light": [
                false,
                0,
                251
            ],
            "Anima": [
                false,
                0,
                251
            ],
            "Dark": [
                false,
                0,
                251
            ],
            "Default": [
                false,
                0,
                251
            ]
        },
        "icon_nid": "Wyvern Wild {Faeriefruit}",
        "icon_index": [
            0,
            0
        ],
        "map_sprite_nid": "Wyvern Wild (U) {Faeriefruit}-stand",
        "combat_anim_nid": "Wyvern",
        "fields": []
    }
]