[
    [
        "Aircalibur",
        null
    ],
    [
        "Apocalypse1",
        null
    ],
    [
        "Apocalypse2",
        null
    ],
    [
        "Apocalypse3",
        null
    ],
    [
        "Armor Shift",
        null
    ],
    [
        "Attack Hit 1",
        "Attack"
    ],
    [
        "Attack Hit 2",
        "Attack"
    ],
    [
        "Attack Hit 3",
        "Attack"
    ],
    [
        "Attack Hit 4",
        null
    ],
    [
        "Attack Hit 5",
        null
    ],
    [
        "Attack Miss 2",
        null
    ],
    [
        "Attack Miss 3",
        null
    ],
    [
        "Aura1",
        "Light"
    ],
    [
        "Aura2",
        "Light"
    ],
    [
        "Aura3",
        "Light"
    ],
    [
        "Aureola1",
        "Light"
    ],
    [
        "Aureola2",
        "Light"
    ],
    [
        "Aureola3",
        "Light"
    ],
    [
        "Axe Pull",
        null
    ],
    [
        "Axe Push",
        null
    ],
    [
        "Barrier",
        "Staff"
    ],
    [
        "Battle Cry",
        null
    ],
    [
        "Berserk",
        "Staff"
    ],
    [
        "BindingBladeRanged",
        null
    ],
    [
        "Bolting1",
        "Anima"
    ],
    [
        "Bolting2",
        "Anima"
    ],
    [
        "Bow Miss",
        null
    ],
    [
        "Bow",
        null
    ],
    [
        "BrightFlash",
        null
    ],
    [
        "CombatDeath",
        null
    ],
    [
        "CrimsonEye",
        "Monster"
    ],
    [
        "Critical Hit 1",
        null
    ],
    [
        "Critical Hit 2",
        null
    ],
    [
        "Critical Kill",
        null
    ],
    [
        "CritInit",
        null
    ],
    [
        "CyclopsCrit",
        null
    ],
    [
        "Dance1",
        null
    ],
    [
        "Dance2",
        null
    ],
    [
        "Death",
        null
    ],
    [
        "DebuffRecover",
        "Staff"
    ],
    [
        "DemonLight",
        "Monster"
    ],
    [
        "DemonLightHit",
        "Monster"
    ],
    [
        "DemonSurge",
        "Monster"
    ],
    [
        "Divine1",
        "Light"
    ],
    [
        "Divine2",
        "Light"
    ],
    [
        "Divine3",
        "Light"
    ],
    [
        "door creaking",
        null
    ],
    [
        "door unlocking",
        null
    ],
    [
        "DruidCrit",
        null
    ],
    [
        "EckesachsRanged",
        "Dark"
    ],
    [
        "Eclipse1",
        "Dark"
    ],
    [
        "Eclipse2",
        "Dark"
    ],
    [
        "Eclipse3",
        "Dark"
    ],
    [
        "ElfireHit",
        "Anima"
    ],
    [
        "Ereshkigal1",
        "Dark"
    ],
    [
        "Ereshkigal2",
        "Dark"
    ],
    [
        "Error",
        null
    ],
    [
        "EvilEye",
        "Monster"
    ],
    [
        "Experience Gain Old",
        null
    ],
    [
        "Experience Gain",
        null
    ],
    [
        "Fenrir1",
        "Dark"
    ],
    [
        "Fenrir2",
        "Dark"
    ],
    [
        "Fenrir3",
        "Dark"
    ],
    [
        "Fenrir4",
        "Dark"
    ],
    [
        "Fimbulvetr1",
        "Anima"
    ],
    [
        "Fimbulvetr2",
        "Anima"
    ],
    [
        "Final Hit",
        null
    ],
    [
        "FireBall",
        "Anima"
    ],
    [
        "FireCharge",
        "Anima"
    ],
    [
        "FireHit",
        "Anima"
    ],
    [
        "First Stat Up",
        null
    ],
    [
        "Flux1",
        "Dark"
    ],
    [
        "Flux2",
        "Dark"
    ],
    [
        "Foot Step",
        null
    ],
    [
        "Forblaze1",
        "Anima"
    ],
    [
        "Forblaze2",
        "Anima"
    ],
    [
        "FormationSelect",
        null
    ],
    [
        "Fortify",
        "Staff"
    ],
    [
        "General Step",
        null
    ],
    [
        "Gespenst1",
        "Dark"
    ],
    [
        "Gespenst2",
        "Dark"
    ],
    [
        "Gespenst3",
        "Dark"
    ],
    [
        "Gleipnir",
        "Dark"
    ],
    [
        "GleipnirHit",
        "Dark"
    ],
    [
        "GoldExchange",
        null
    ],
    [
        "Gust",
        "Anima"
    ],
    [
        "Hammerne",
        "Staff"
    ],
    [
        "Heal1",
        "Staff"
    ],
    [
        "Heal2",
        "Staff"
    ],
    [
        "HealBoop",
        "Staff"
    ],
    [
        "HealInit",
        "Staff"
    ],
    [
        "heartbeat",
        null
    ],
    [
        "Heavy Foot Steps 1",
        null
    ],
    [
        "Heavy Spear Spin",
        null
    ],
    [
        "Heavy Wing Flap",
        null
    ],
    [
        "Horse Step 1",
        null
    ],
    [
        "Horse Step 2",
        null
    ],
    [
        "Horse Step 3",
        null
    ],
    [
        "Horse Steps",
        null
    ],
    [
        "HP_Recovery",
        null
    ],
    [
        "Info In",
        null
    ],
    [
        "Info Out",
        null
    ],
    [
        "Intro",
        null
    ],
    [
        "Item",
        null
    ],
    [
        "ItemBreak",
        null
    ],
    [
        "Ivaldi1",
        "Light"
    ],
    [
        "Ivaldi2",
        "Light"
    ],
    [
        "Knight Step",
        null
    ],
    [
        "knocking",
        null
    ],
    [
        "Legendary Weapon",
        null
    ],
    [
        "Level Up",
        null
    ],
    [
        "Level_Up_Level",
        null
    ],
    [
        "Light Foot Steps 1",
        null
    ],
    [
        "lightning strike",
        null
    ],
    [
        "lightning_strike_2",
        null
    ],
    [
        "Lightning1",
        "Light"
    ],
    [
        "Lightning2",
        "Light"
    ],
    [
        "Long Wing Flap",
        null
    ],
    [
        "Luce1",
        "Light"
    ],
    [
        "Luce2",
        "Light"
    ],
    [
        "Luce3",
        "Light"
    ],
    [
        "Luna1",
        "Dark"
    ],
    [
        "Luna2",
        "Dark"
    ],
    [
        "Map In",
        null
    ],
    [
        "Map Out",
        null
    ],
    [
        "Map_Step_Armor1",
        "Map_Sounds"
    ],
    [
        "Map_Step_Armor2",
        "Map_Sounds"
    ],
    [
        "Map_Step_FDragon",
        "Map_Sounds"
    ],
    [
        "Map_Step_Flier",
        "Map_Sounds"
    ],
    [
        "Map_Step_Infantry1",
        "Map_Sounds"
    ],
    [
        "Map_Step_Infantry2",
        "Map_Sounds"
    ],
    [
        "Map_Step_Mounted1",
        "Map_Sounds"
    ],
    [
        "Map_Step_Mounted2",
        "Map_Sounds"
    ],
    [
        "Map_Step_Mounted3",
        "Map_Sounds"
    ],
    [
        "MapHeal",
        "Staff"
    ],
    [
        "Mend",
        "Staff"
    ],
    [
        "Message",
        null
    ],
    [
        "Miss",
        null
    ],
    [
        "MonkRune",
        null
    ],
    [
        "Naglfar",
        "Dark"
    ],
    [
        "NaglfarHit",
        "Dark"
    ],
    [
        "Neigh",
        null
    ],
    [
        "Next Turn",
        null
    ],
    [
        "No Damage",
        null
    ],
    [
        "Nosferatu1",
        "Dark"
    ],
    [
        "Nosferatu2",
        "Dark"
    ],
    [
        "Nosferatu3",
        "Dark"
    ],
    [
        "Poison",
        "Staff"
    ],
    [
        "Promotion1",
        null
    ],
    [
        "Promotion2",
        null
    ],
    [
        "Promotion3",
        null
    ],
    [
        "PromotionCrackle",
        null
    ],
    [
        "PureWater",
        "Staff"
    ],
    [
        "Purge1",
        "Light"
    ],
    [
        "Purge2",
        "Light"
    ],
    [
        "Purge3",
        "Light"
    ],
    [
        "Purge4",
        "Light"
    ],
    [
        "Quintessence",
        null
    ],
    [
        "Rally",
        "Staff"
    ],
    [
        "Recover",
        "Staff"
    ],
    [
        "RefreshDance",
        null
    ],
    [
        "RefreshDanceMap",
        null
    ],
    [
        "RefreshFlute",
        null
    ],
    [
        "RefreshFluteMap",
        null
    ],
    [
        "Restore",
        "Staff"
    ],
    [
        "SageCrit",
        null
    ],
    [
        "SageRune",
        null
    ],
    [
        "Save",
        null
    ],
    [
        "Select 1",
        null
    ],
    [
        "Select 2",
        null
    ],
    [
        "Select 3",
        null
    ],
    [
        "Select 4",
        null
    ],
    [
        "Select 5",
        null
    ],
    [
        "Select 6",
        null
    ],
    [
        "Shadowshot",
        "Monster"
    ],
    [
        "ShadowshotHit",
        "Monster"
    ],
    [
        "ShamanRune",
        null
    ],
    [
        "Sheathe",
        null
    ],
    [
        "Shine",
        "Light"
    ],
    [
        "Silence1",
        "Staff"
    ],
    [
        "Silence2",
        "Staff"
    ],
    [
        "SilenceCrack",
        "Staff"
    ],
    [
        "SkillActivate",
        null
    ],
    [
        "Sleep1",
        "Staff"
    ],
    [
        "Sleep2",
        "Staff"
    ],
    [
        "StageClear",
        null
    ],
    [
        "Start",
        null
    ],
    [
        "Stat Up",
        null
    ],
    [
        "Status_Character",
        null
    ],
    [
        "Status_Page_Change",
        null
    ],
    [
        "Step Back 1",
        null
    ],
    [
        "Stone",
        "Monster"
    ],
    [
        "StoneHit",
        "Monster"
    ],
    [
        "StrategistRune",
        null
    ],
    [
        "Summon 2",
        null
    ],
    [
        "Summon",
        null
    ],
    [
        "Sword Whoosh",
        null
    ],
    [
        "Talk_Boop",
        null
    ],
    [
        "Throw 1",
        null
    ],
    [
        "Throw 2",
        null
    ],
    [
        "Throw 3",
        null
    ],
    [
        "Thunder",
        "Anima"
    ],
    [
        "Torch",
        "Staff"
    ],
    [
        "TradeRight",
        null
    ],
    [
        "TurnwheelIn1",
        null
    ],
    [
        "TurnwheelIn2",
        null
    ],
    [
        "TurnwheelOut",
        null
    ],
    [
        "TurnwheelTurn",
        null
    ],
    [
        "Unlock",
        null
    ],
    [
        "UnlockStaff",
        "Staff"
    ],
    [
        "Unsheathe",
        null
    ],
    [
        "ValkyrieCharge",
        null
    ],
    [
        "VillageDestroyed",
        null
    ],
    [
        "Wall Attack",
        null
    ],
    [
        "Warp",
        "Staff"
    ],
    [
        "WarpEnd",
        "Staff"
    ],
    [
        "Weapon Click",
        null
    ],
    [
        "Weapon Pull",
        null
    ],
    [
        "Weapon Push",
        null
    ],
    [
        "Weapon Shine",
        null
    ],
    [
        "Weapon Swing",
        null
    ],
    [
        "Whistle",
        "Fluf"
    ],
    [
        "Wind",
        "Anima"
    ],
    [
        "WindWave",
        "Anima"
    ],
    [
        "YouCanDoIt",
        null
    ],
    [
        "Gear Spin",
        null
    ],
    [
        "Door Close",
        null
    ],
    [
        "Church Bell",
        null
    ],
    [
        "Final Fantasy Victory Fanfare",
        null
    ],
    [
        "door smash",
        null
    ],
    [
        "shoveling_dirt",
        null
    ],
    [
        "squelch",
        null
    ],
    [
        "distant_explosion",
        null
    ]
]