[
    {
        "nid": "Advance",
        "name": "Advance <red>(0 Mana)</>",
        "desc": "Shoves target and user forward one space. User can act again afterwards.",
        "icon_nid": "{J-Treecko} {Lex Talionis} All Icons",
        "icon_index": [
            0,
            15
        ],
        "components": [
            [
                "attack_after_combat",
                null
            ],
            [
                "no_map_hp_display",
                null
            ],
            [
                "spell",
                null
            ],
            [
                "no_ai",
                null
            ],
            [
                "target_unit",
                null
            ],
            [
                "min_range",
                1
            ],
            [
                "max_range",
                1
            ],
            [
                "status_on_hit",
                "Fleet Footwork_child"
            ],
            [
                "advance",
                1
            ],
            [
                "advance_target_restrict",
                1
            ],
            [
                "cooldown",
                1
            ]
        ]
    }
]