[
    {
        "nid": "AoE2ItemOverride",
        "name": "AoE2ItemOverride",
        "desc": "",
        "icon_nid": "",
        "icon_index": [
            0,
            0
        ],
        "components": [
            [
                "enemy_blast_aoe",
                2
            ]
        ]
    }
]