[
    {
        "nid": "Astral Dagger",
        "name": "Astral Dagger",
        "desc": "Inflicts Freeze and Enfeeble. DEF/RES -5.",
        "icon_nid": "processed_ffta2blades",
        "icon_index": [
            0,
            16
        ],
        "components": [
            [
                "weapon",
                null
            ],
            [
                "target_enemy",
                null
            ],
            [
                "min_range",
                1
            ],
            [
                "max_range",
                2
            ],
            [
                "damage",
                7
            ],
            [
                "hit",
                95
            ],
            [
                "crit",
                0
            ],
            [
                "weight",
                5
            ],
            [
                "level_exp",
                null
            ],
            [
                "weapon_type",
                "Dagger"
            ],
            [
                "weapon_rank",
                "B"
            ],
            [
                "uses",
                30
            ],
            [
                "uses_options",
                {
                    "lose_uses_on_miss": true,
                    "one_loss_per_combat": false
                }
            ],
            [
                "statuses_on_hit",
                [
                    "Frozen",
                    "Enfeebled"
                ]
            ],
            [
                "status_on_equip",
                "AllDefMinus5"
            ]
        ]
    }
]