[
    {
        "nid": "Astral Javelin",
        "name": "Astral Javelin",
        "desc": "Can attack from a distance. Double weapon triangle.",
        "icon_nid": "{2WB} (Icon Blitz 1) Brave Lance",
        "icon_index": [
            0,
            0
        ],
        "components": [
            [
                "weapon",
                null
            ],
            [
                "target_enemy",
                null
            ],
            [
                "min_range",
                1
            ],
            [
                "max_range",
                2
            ],
            [
                "damage",
                11
            ],
            [
                "hit",
                75
            ],
            [
                "crit",
                0
            ],
            [
                "weight",
                12
            ],
            [
                "level_exp",
                null
            ],
            [
                "weapon_type",
                "Lance"
            ],
            [
                "weapon_rank",
                "B"
            ],
            [
                "double_triangle",
                null
            ],
            [
                "uses",
                25
            ],
            [
                "uses_options",
                {
                    "lose_uses_on_miss": true,
                    "one_loss_per_combat": false
                }
            ]
        ]
    }
]