[
    {
        "nid": "Comfort",
        "name": "Comfort",
        "desc": "Restores (User's Magic + 1) HP to all allies within 7 tiles.",
        "icon_nid": "processed_ffta2staves",
        "icon_index": [
            0,
            10
        ],
        "components": [
            [
                "spell",
                null
            ],
            [
                "target_ally",
                null
            ],
            [
                "weapon_type",
                "Staff"
            ],
            [
                "weapon_rank",
                "C"
            ],
            [
                "uses",
                12
            ],
            [
                "uses_options",
                {
                    "lose_uses_on_miss": false,
                    "one_loss_per_combat": false
                }
            ],
            [
                "exp",
                5
            ],
            [
                "value",
                1200
            ],
            [
                "ally_blast_aoe",
                7
            ],
            [
                "magic",
                null
            ],
            [
                "no_ai",
                null
            ],
            [
                "magic_heal",
                1
            ]
        ]
    }
]