[
    {
        "nid": "Concoction",
        "name": "Concoction",
        "desc": "Restores 20 HP.",
        "icon_nid": "Consumable",
        "icon_index": [
            0,
            2
        ],
        "components": [
            [
                "usable",
                null
            ],
            [
                "value",
                800
            ],
            [
                "target_ally",
                null
            ],
            [
                "uses",
                2
            ],
            [
                "usable_in_base",
                null
            ],
            [
                "uses_options",
                {
                    "lose_uses_on_miss": false,
                    "one_loss_per_combat": false
                }
            ],
            [
                "heal",
                20
            ],
            [
                "map_hit_add_blend",
                [
                    96,
                    144,
                    232
                ]
            ],
            [
                "eval_target_restrict",
                "unit.get_hp() != unit.get_max_hp()"
            ]
        ]
    }
]