[
    {
        "nid": "Crane Harpoon",
        "name": "Crane Harpoon",
        "desc": "Warps to target, and initiates combat.",
        "icon_nid": "lord's LT Spritesheet",
        "icon_index": [
            4,
            1
        ],
        "components": []
    }
]