[
    {
        "nid": "Cross Knife",
        "name": "Cross Knife",
        "desc": "Inflicts STR -4, MAG -4 on hit. Effective against monsters.",
        "icon_nid": "Ershkigal Cross Knife",
        "icon_index": [
            0,
            0
        ],
        "components": [
            [
                "weapon",
                null
            ],
            [
                "value",
                1350
            ],
            [
                "target_enemy",
                null
            ],
            [
                "min_range",
                1
            ],
            [
                "max_range",
                2
            ],
            [
                "damage",
                6
            ],
            [
                "hit",
                90
            ],
            [
                "crit",
                0
            ],
            [
                "weight",
                4
            ],
            [
                "uses",
                30
            ],
            [
                "uses_options",
                {
                    "lose_uses_on_miss": false,
                    "one_loss_per_combat": false
                }
            ],
            [
                "level_exp",
                null
            ],
            [
                "weapon_type",
                "Dagger"
            ],
            [
                "weapon_rank",
                "B"
            ],
            [
                "status_on_hit",
                "Cross Knife Debuff"
            ],
            [
                "battle_cast_anim",
                "Arrow"
            ],
            [
                "effective_multiplier",
                3
            ],
            [
                "effective_tag",
                [
                    "Monster"
                ]
            ]
        ]
    }
]