[
    {
        "nid": "Death Mask",
        "name": "Death Mask",
        "desc": "A wicked mask. Grants Skill: Retribution.",
        "icon_nid": "processed_ffta2helms",
        "icon_index": [
            0,
            21
        ],
        "components": [
            [
                "accessory",
                null
            ],
            [
                "status_on_hold",
                "Retribution"
            ]
        ]
    }
]