[
    {
        "nid": "Destiny Plume",
        "name": "Destiny Plume",
        "desc": "BROKEN. DO NOT USE.\nGreat power at a great price.",
        "icon_nid": "LTSkillIconSheet",
        "icon_index": [
            7,
            30
        ],
        "components": [
            [
                "usable",
                null
            ],
            [
                "target_ally",
                null
            ],
            [
                "uses",
                1
            ],
            [
                "uses_options",
                {
                    "lose_uses_on_miss": false,
                    "one_loss_per_combat": false
                }
            ],
            [
                "event_on_use",
                "Global Item_DestinyPlume"
            ]
        ]
    }
]