[
    {
        "nid": "Diplomat",
        "name": "Diplomat <red>(6 Mana)</>",
        "desc": "Target enemy within 2 spaces with <= 50% HP is converted into an <green>Ally</>.\nThey will then be fully healed. Cannot target bosses.",
        "icon_nid": "Skills",
        "icon_index": [
            9,
            0
        ],
        "components": [
            [
                "min_range",
                1
            ],
            [
                "max_range",
                2
            ],
            [
                "spell",
                null
            ],
            [
                "event_on_hit",
                "Global Ability_Diplomat"
            ],
            [
                "mana_cost",
                6
            ],
            [
                "target_enemy",
                null
            ],
            [
                "eval_target_restrict_2",
                "target.get_hp() <= (target.get_max_hp() // 2) and 'Boss' not in target.tags and 'Diplomat_Immune' not in target.tags"
            ]
        ]
    }
]