[
    {
        "nid": "Dive_Unload",
        "name": "Dive",
        "desc": "",
        "icon_nid": "LTSkillIconSheet",
        "icon_index": [
            2,
            32
        ],
        "components": [
            [
                "target_tile",
                null
            ],
            [
                "traversable_tile_target_restrict",
                null
            ],
            [
                "min_range",
                1
            ],
            [
                "max_equation_range",
                "HP_RANGE"
            ],
            [
                "unload_unit",
                null
            ]
        ]
    }
]