[
    {
        "nid": "Eclipse",
        "name": "Eclipse",
        "desc": "Halve's the enemy's current HP",
        "icon_nid": "Dark",
        "icon_index": [
            0,
            3
        ],
        "components": [
            [
                "target_enemy",
                null
            ],
            [
                "level_exp",
                null
            ],
            [
                "hit",
                30
            ],
            [
                "weapon_type",
                "Dark"
            ],
            [
                "weapon_rank",
                "B"
            ],
            [
                "magic",
                null
            ],
            [
                "uses",
                5
            ],
            [
                "uses_options",
                {
                    "lose_uses_on_miss": true,
                    "one_loss_per_combat": false
                }
            ],
            [
                "weight",
                12
            ],
            [
                "wexp",
                8
            ],
            [
                "value",
                4000
            ],
            [
                "min_range",
                3
            ],
            [
                "max_range",
                10
            ],
            [
                "siege_weapon",
                null
            ],
            [
                "no_double",
                null
            ],
            [
                "alternate_damage_formula",
                "ZERO"
            ],
            [
                "eclipse",
                null
            ]
        ]
    }
]