[
    {
        "nid": "Eggiest Bomb",
        "name": "Doomsday",
        "desc": "Consumable. Deals 100 damage to all units except the user. Targets both enemies and allies.",
        "icon_nid": "tactics_ogre",
        "icon_index": [
            9,
            12
        ],
        "components": [
            [
                "value",
                10000
            ],
            [
                "target_tile",
                null
            ],
            [
                "min_range",
                5
            ],
            [
                "max_range",
                10
            ],
            [
                "damage",
                100
            ],
            [
                "hit",
                120
            ],
            [
                "uses",
                10
            ],
            [
                "uses_options",
                {
                    "lose_uses_on_miss": false,
                    "one_loss_per_combat": false
                }
            ],
            [
                "map_hit_add_blend",
                [
                    255,
                    255,
                    255
                ]
            ],
            [
                "spell",
                null
            ],
            [
                "alternate_resist_formula",
                "ZERO"
            ],
            [
                "no_double",
                null
            ],
            [
                "alternate_damage_formula",
                "ZERO"
            ],
            [
                "blast_aoe",
                50
            ],
            [
                "mana_cost_per_use",
                21
            ]
        ]
    }
]