[
    {
        "nid": "Flagellant Flag",
        "name": "Flagellant Flag",
        "desc": "Holder starts battle on half max HP.",
        "icon_nid": "processed_ffta2instruments",
        "icon_index": [
            0,
            10
        ],
        "components": [
            [
                "accessory",
                null
            ]
        ]
    }
]