[
    {
        "nid": "Flourish",
        "name": "Flourish <red>(1 Mana)</>",
        "desc": "Moves user to other side of an adjacent unit.\nUnit can act afterwards. Can only target a given\nunit once per action.",
        "icon_nid": "LTSkillIconSheet",
        "icon_index": [
            4,
            36
        ],
        "components": [
            [
                "no_map_hp_display",
                null
            ],
            [
                "target_unit",
                null
            ],
            [
                "min_range",
                1
            ],
            [
                "max_range",
                2
            ],
            [
                "pivot",
                1
            ],
            [
                "pivot_target_restrict",
                1
            ],
            [
                "attack_after_combat",
                null
            ],
            [
                "mana_cost",
                1
            ],
            [
                "eval_target_restrict_2",
                "not has_skill(target, 'Flourish_Immune')"
            ],
            [
                "status_on_hit",
                "Flourish_Immune"
            ]
        ]
    }
]