[
    {
        "nid": "Fortress Odetta",
        "name": "Fortress Odetta <red>(8 Mana)</>",
        "desc": "Disables Odetta's normal attacks. Enters a state in which Odetta will perform a\nfollow-up attack for allies within 7 spaces, once per each ally's turn.",
        "icon_nid": "lord's LT Spritesheet",
        "icon_index": [
            5,
            1
        ],
        "components": [
            [
                "no_map_hp_display",
                null
            ],
            [
                "target_unit",
                null
            ],
            [
                "min_range",
                0
            ],
            [
                "max_range",
                0
            ],
            [
                "mana_cost",
                8
            ],
            [
                "event_after_combat",
                "Global Ability_OdettaFortress"
            ]
        ]
    }
]