[
    {
        "nid": "Fragarach_Image",
        "name": "<yellow>Illusory Fragarach</>",
        "desc": "An image of the Fragarach, copied by Ayla. Has the power to slay both Gods and Immortals.",
        "icon_nid": "{Beansy} {Swords} All Icons",
        "icon_index": [
            1,
            3
        ],
        "components": [
            [
                "weapon",
                null
            ],
            [
                "target_enemy",
                null
            ],
            [
                "min_range",
                1
            ],
            [
                "max_range",
                1
            ],
            [
                "damage",
                8
            ],
            [
                "hit",
                80
            ],
            [
                "crit",
                0
            ],
            [
                "weight",
                12
            ],
            [
                "level_exp",
                null
            ],
            [
                "weapon_type",
                "Sword"
            ],
            [
                "weapon_rank",
                "E"
            ],
            [
                "prf_unit",
                [
                    "Ennis",
                    "Cormorant",
                    "Ayla"
                ]
            ],
            [
                "uses",
                1
            ],
            [
                "uses_options",
                {
                    "lose_uses_on_miss": false,
                    "one_loss_per_combat": false
                }
            ],
            [
                "effective_multiplier",
                3.0
            ],
            [
                "effective_tag",
                [
                    "Immortal",
                    "Projection"
                ]
            ],
            [
                "wexp",
                0
            ]
        ]
    }
]