[
    {
        "nid": "Freeze",
        "name": "Freeze",
        "desc": "Enemy cannot move.",
        "icon_nid": "processed_ffta2staves",
        "icon_index": [
            0,
            5
        ],
        "components": [
            [
                "spell",
                null
            ],
            [
                "weapon_type",
                "Staff"
            ],
            [
                "weapon_rank",
                "D"
            ],
            [
                "magic",
                null
            ],
            [
                "uses",
                5
            ],
            [
                "uses_options",
                {
                    "lose_uses_on_miss": false,
                    "one_loss_per_combat": false
                }
            ],
            [
                "wexp",
                3
            ],
            [
                "exp",
                25
            ],
            [
                "value",
                1500
            ],
            [
                "min_range",
                1
            ],
            [
                "status_on_hit",
                "Frozen"
            ],
            [
                "max_equation_range",
                "MAGIC_RANGE"
            ],
            [
                "target_enemy",
                null
            ]
        ]
    }
]