[
    {
        "nid": "Full Helm",
        "name": "Full Helm",
        "desc": "A helm so bulky that it\nblocks your vision.\n-7 Skl, +4 Def, +3 Res",
        "icon_nid": "processed_ffta2helms",
        "icon_index": [
            0,
            17
        ],
        "components": [
            [
                "accessory",
                null
            ],
            [
                "status_on_hold",
                "Full Helm"
            ]
        ]
    }
]