[
    {
        "nid": "HawkeyeBow",
        "name": "Hawkeye",
        "desc": "Mikhail's bow. Brave at 2 range.",
        "icon_nid": "processed_ffta2bows",
        "icon_index": [
            0,
            14
        ],
        "components": [
            [
                "weapon",
                null
            ],
            [
                "target_enemy",
                null
            ],
            [
                "min_range",
                2
            ],
            [
                "max_range",
                4
            ],
            [
                "damage",
                5
            ],
            [
                "hit",
                105
            ],
            [
                "crit",
                0
            ],
            [
                "weight",
                5
            ],
            [
                "uses",
                55
            ],
            [
                "uses_options",
                {
                    "lose_uses_on_miss": true,
                    "one_loss_per_combat": false
                }
            ],
            [
                "level_exp",
                null
            ],
            [
                "weapon_type",
                "Bow"
            ],
            [
                "weapon_rank",
                "C"
            ],
            [
                "status_on_equip",
                "HawkeyeBrave"
            ],
            [
                "prf_unit",
                [
                    "MikhailC3",
                    "Mikhail_Xtra"
                ]
            ],
            [
                "effective_multiplier",
                3.0
            ],
            [
                "effective_tag",
                [
                    "Flying"
                ]
            ]
        ]
    }
]