[
    {
        "nid": "Inner Beast",
        "name": "Inner Beast",
        "desc": "",
        "icon_nid": "LTSkillIconSheet",
        "icon_index": [
            0,
            40
        ],
        "components": [
            [
                "spell",
                null
            ],
            [
                "min_range",
                0
            ],
            [
                "max_range",
                0
            ],
            [
                "target_ally",
                null
            ],
            [
                "event_after_combat",
                "Global Ability_Inner_Beast"
            ],
            [
                "attack_after_combat",
                null
            ]
        ]
    }
]