[
    {
        "nid": "Invocation",
        "name": "Invocation <red>(5 Mana)</>",
        "desc": "Fully heals self, and grants +4 to all stats until next Player Phase.\nSeliche separates to target tile.",
        "icon_nid": "Skills",
        "icon_index": [
            1,
            10
        ],
        "components": [
            [
                "spell",
                null
            ],
            [
                "empty_tile_target_restrict",
                null
            ],
            [
                "target_tile",
                null
            ],
            [
                "min_range",
                1
            ],
            [
                "max_range",
                1
            ],
            [
                "event_on_hit",
                "Global Ability_SelicheInvocation"
            ],
            [
                "attack_after_combat",
                null
            ]
        ]
    }
]