[
    {
        "nid": "Killer Bow",
        "name": "Killer Bow",
        "desc": "",
        "icon_nid": "Bow",
        "icon_index": [
            0,
            4
        ],
        "components": [
            [
                "weapon",
                null
            ],
            [
                "target_enemy",
                null
            ],
            [
                "level_exp",
                null
            ],
            [
                "damage",
                9
            ],
            [
                "hit",
                75
            ],
            [
                "weapon_type",
                "Bow"
            ],
            [
                "weapon_rank",
                "C"
            ],
            [
                "uses",
                20
            ],
            [
                "uses_options",
                {
                    "lose_uses_on_miss": true,
                    "one_loss_per_combat": false
                }
            ],
            [
                "weight",
                7
            ],
            [
                "crit",
                30
            ],
            [
                "warning",
                null
            ],
            [
                "value",
                1400
            ],
            [
                "min_range",
                2
            ],
            [
                "max_range",
                2
            ],
            [
                "effective_multiplier",
                3.0
            ],
            [
                "effective_tag",
                [
                    "Flying"
                ]
            ]
        ]
    }
]