[
    {
        "nid": "Knight's Guard",
        "name": "Knight's Guard",
        "desc": "Negates effective bonus against cavalry and armor. Cannot be stolen.",
        "icon_nid": "Boosters",
        "icon_index": [
            0,
            19
        ],
        "components": [
            [
                "value",
                10000
            ],
            [
                "status_on_hold",
                "Knight's Guard"
            ],
            [
                "accessory",
                null
            ],
            [
                "unstealable",
                null
            ]
        ]
    }
]