[
    {
        "nid": "Mana Potion",
        "name": "Mana Potion",
        "desc": "Restores 10 Mana.",
        "icon_nid": "tactics_ogre",
        "icon_index": [
            10,
            9
        ],
        "components": [
            [
                "usable",
                null
            ],
            [
                "value",
                1000
            ],
            [
                "target_ally",
                null
            ],
            [
                "uses",
                2
            ],
            [
                "usable_in_base",
                null
            ],
            [
                "uses_options",
                {
                    "lose_uses_on_miss": false,
                    "one_loss_per_combat": false
                }
            ],
            [
                "map_hit_add_blend",
                [
                    96,
                    144,
                    232
                ]
            ],
            [
                "mana_cost",
                -10
            ],
            [
                "eval_target_restrict_2",
                "unit.get_mana() != unit.get_max_mana()"
            ]
        ]
    }
]