[
    {
        "nid": "Mystic Eye",
        "name": "Mystic Eye",
        "desc": "",
        "icon_nid": "Neutral",
        "icon_index": [
            0,
            14
        ],
        "components": [
            [
                "weapon",
                null
            ],
            [
                "target_enemy",
                null
            ],
            [
                "level_exp",
                null
            ],
            [
                "damage",
                10
            ],
            [
                "hit",
                75
            ],
            [
                "weapon_type",
                "Dark"
            ],
            [
                "magic",
                null
            ],
            [
                "weight",
                9
            ],
            [
                "locked",
                null
            ],
            [
                "wexp",
                2
            ],
            [
                "crit",
                0
            ],
            [
                "min_range",
                1
            ],
            [
                "max_range",
                2
            ],
            [
                "weapon_rank",
                "E"
            ],
            [
                "battle_cast_anim",
                "Flux"
            ]
        ]
    }
]