[
    {
        "nid": "Old Knight Shield",
        "name": "Old Knight Shield",
        "desc": "A reliable, yet unwieldy shield.\nWielder cannot avoid attacks, but\nalso cannot be crit. +4 Def.",
        "icon_nid": "processed_ffta2shields",
        "icon_index": [
            0,
            2
        ],
        "components": [
            [
                "accessory",
                null
            ],
            [
                "status_on_hold",
                "Old Knight Shield"
            ]
        ]
    }
]