[
    {
        "nid": "Persona",
        "name": "Persona <red>(5 Mana)</>",
        "desc": "Changes the user's class. User can act afterwards.",
        "icon_nid": "LTSkillIconSheet",
        "icon_index": [
            1,
            41
        ],
        "components": [
            [
                "no_map_hp_display",
                null
            ],
            [
                "target_ally",
                null
            ],
            [
                "min_range",
                0
            ],
            [
                "max_range",
                0
            ],
            [
                "attack_after_combat",
                null
            ],
            [
                "mana_cost",
                5
            ],
            [
                "event_on_hit",
                "Global Ability_Persona"
            ]
        ]
    }
]