[
    {
        "nid": "Psi_Support_Plus",
        "name": "Psi Support+",
        "desc": "Inflict statuses on enemies or buff allies.\nUnit can use <red>Psychic Ward</>, <red>Telepathy</>, <red>Telepathy</>, <red>Confuse</>, and <red>Levitate</>.",
        "icon_nid": "LTSkillIconSheet",
        "icon_index": [
            5,
            34
        ],
        "components": [
            [
                "multi_item",
                [
                    "Telepathy",
                    "Telepathy_Plus",
                    "Confuse",
                    "Psychic_Ward_Plus",
                    "Levitate_Plus_A",
                    "Levitate_Plus_E"
                ]
            ]
        ]
    }
]