[
    {
        "nid": "Pulse",
        "name": "Pulse",
        "desc": "",
        "icon_nid": "LTSkillIconSheet",
        "icon_index": [
            3,
            8
        ],
        "components": [
            [
                "spell",
                null
            ],
            [
                "target_tile",
                null
            ],
            [
                "min_range",
                0
            ],
            [
                "max_range",
                0
            ],
            [
                "ally_blast_aoe",
                2
            ],
            [
                "magic",
                null
            ],
            [
                "magic_heal",
                5
            ]
        ]
    }
]