[
    {
        "nid": "Purgatory",
        "name": "Purgatory",
        "desc": "Ignores weapon triangle.\nCannot miss.",
        "icon_nid": "{Beansy} AnimaSheet",
        "icon_index": [
            1,
            0
        ],
        "components": [
            [
                "weapon",
                null
            ],
            [
                "target_enemy",
                null
            ],
            [
                "level_exp",
                null
            ],
            [
                "damage",
                20
            ],
            [
                "weapon_type",
                "Anima"
            ],
            [
                "weapon_rank",
                "S"
            ],
            [
                "magic",
                null
            ],
            [
                "weight",
                15
            ],
            [
                "min_range",
                1
            ],
            [
                "max_range",
                3
            ],
            [
                "ignore_weapon_advantage",
                null
            ],
            [
                "battle_cast_anim",
                "AncestralTome"
            ]
        ]
    }
]