[
    {
        "nid": "Razorwind",
        "name": "Razorwind",
        "desc": "A cutting gale with high crit rate.",
        "icon_nid": "Razorwind",
        "icon_index": [
            0,
            0
        ],
        "components": [
            [
                "weapon",
                null
            ],
            [
                "value",
                560
            ],
            [
                "target_enemy",
                null
            ],
            [
                "min_range",
                1
            ],
            [
                "max_range",
                2
            ],
            [
                "damage",
                5
            ],
            [
                "hit",
                90
            ],
            [
                "crit",
                30
            ],
            [
                "weight",
                6
            ],
            [
                "uses",
                40
            ],
            [
                "uses_options",
                {
                    "lose_uses_on_miss": true,
                    "one_loss_per_combat": false
                }
            ],
            [
                "level_exp",
                null
            ],
            [
                "weapon_type",
                "Anima"
            ],
            [
                "weapon_rank",
                "B"
            ],
            [
                "map_hit_add_blend",
                [
                    85,
                    170,
                    127
                ]
            ],
            [
                "magic",
                null
            ],
            [
                "warning",
                null
            ],
            [
                "effective_multiplier",
                3.0000000000000018
            ],
            [
                "effective_tag",
                [
                    "Flying"
                ]
            ]
        ]
    }
]