[
    {
        "nid": "Revert",
        "name": "Revert",
        "desc": "Revert (revert ability for Tenebrae)",
        "icon_nid": "LTSkillIconSheet",
        "icon_index": [
            6,
            42
        ],
        "components": [
            [
                "no_map_hp_display",
                null
            ],
            [
                "event_on_hit",
                "Global Ability_Revert"
            ],
            [
                "usable",
                null
            ],
            [
                "target_ally",
                null
            ],
            [
                "menu_after_combat",
                null
            ],
            [
                "attack_after_combat",
                null
            ]
        ]
    }
]