[
    {
        "nid": "Rewarp1",
        "name": "Warp",
        "desc": "Warps an ally.",
        "icon_nid": "Staff",
        "icon_index": [
            0,
            9
        ],
        "components": [
            [
                "spell",
                null
            ],
            [
                "target_ally",
                null
            ],
            [
                "magic",
                null
            ],
            [
                "min_range",
                0
            ],
            [
                "store_unit",
                null
            ],
            [
                "max_range",
                0
            ]
        ]
    }
]