[
    {
        "nid": "Siegfried Scroll",
        "name": "Siegfried Scroll",
        "desc": "Scroll imbued with divine lightning.\nGrowths - HP +15%, Str +10%,\nMag +10%, Skl -20%, Luck -30%.\nCannot be crit while equipped.",
        "icon_nid": "sieg scroll",
        "icon_index": [
            0,
            0
        ],
        "components": [
            [
                "accessory",
                null
            ],
            [
                "status_on_hold",
                "SiegScrollBuffs"
            ]
        ]
    }
]