[
    {
        "nid": "Soul of Frost",
        "name": "Soul of Frost",
        "desc": "Double magic triangle. Highly accurate.",
        "icon_nid": "tactics_ogre",
        "icon_index": [
            14,
            13
        ],
        "components": [
            [
                "weapon",
                null
            ],
            [
                "magic",
                null
            ],
            [
                "target_enemy",
                null
            ],
            [
                "min_range",
                1
            ],
            [
                "max_range",
                2
            ],
            [
                "damage",
                12
            ],
            [
                "hit",
                135
            ],
            [
                "crit",
                0
            ],
            [
                "weight",
                12
            ],
            [
                "level_exp",
                null
            ],
            [
                "weapon_type",
                "Anima"
            ],
            [
                "weapon_rank",
                "B"
            ],
            [
                "double_triangle",
                null
            ],
            [
                "battle_cast_anim",
                "Aether"
            ],
            [
                "value",
                1500
            ],
            [
                "uses",
                25
            ],
            [
                "uses_options",
                {
                    "lose_uses_on_miss": true,
                    "one_loss_per_combat": false
                }
            ]
        ]
    }
]