[
    {
        "nid": "Soul of Radiance",
        "name": "Soul of Radiance",
        "desc": "Double magic triangle. Grants +5 SPD.",
        "icon_nid": "tactics_ogre",
        "icon_index": [
            15,
            6
        ],
        "components": [
            [
                "weapon",
                null
            ],
            [
                "magic",
                null
            ],
            [
                "target_enemy",
                null
            ],
            [
                "min_range",
                1
            ],
            [
                "max_range",
                2
            ],
            [
                "damage",
                9
            ],
            [
                "hit",
                85
            ],
            [
                "crit",
                0
            ],
            [
                "weight",
                9
            ],
            [
                "level_exp",
                null
            ],
            [
                "weapon_type",
                "Light"
            ],
            [
                "weapon_rank",
                "B"
            ],
            [
                "double_triangle",
                null
            ],
            [
                "battle_cast_anim",
                "Lightning"
            ],
            [
                "status_on_equip",
                "Speed +5"
            ],
            [
                "uses",
                20
            ],
            [
                "uses_options",
                {
                    "lose_uses_on_miss": true,
                    "one_loss_per_combat": false
                }
            ],
            [
                "value",
                1500
            ]
        ]
    }
]