[
    {
        "nid": "Steal_Plus",
        "name": "Steal+",
        "desc": "Steal any unequipped items from enemies.",
        "icon_nid": "Skills",
        "icon_index": [
            7,
            10
        ],
        "components": [
            [
                "spell",
                null
            ],
            [
                "min_range",
                1
            ],
            [
                "max_range",
                1
            ],
            [
                "exp",
                11
            ],
            [
                "target_enemy",
                null
            ],
            [
                "steal_con",
                null
            ]
        ]
    }
]