[
    {
        "nid": "Summon (2)",
        "name": "Scampers <red>(10 Mana)</>",
        "desc": "Summons Scampers.",
        "icon_nid": "Skills",
        "icon_index": [
            9,
            0
        ],
        "components": [
            [
                "no_ai",
                null
            ],
            [
                "min_range",
                1
            ],
            [
                "max_range",
                1
            ],
            [
                "spell",
                null
            ],
            [
                "empty_tile_target_restrict",
                null
            ],
            [
                "event_on_hit",
                "Global Ability_SummonScampers"
            ],
            [
                "mana_cost",
                10
            ],
            [
                "target_specific_tile",
                "[tile for tile in target_system.get_adjacent_positions(game.get_unit('Barra').position) if movement_funcs.check_traversable(game.get_unit('Barra'), tile)]"
            ],
            [
                "attack_after_combat",
                null
            ]
        ]
    }
]