[
    {
        "nid": "Sword Dancer S",
        "name": "Sword Dancer S",
        "desc": "Grant 1 mana to adjacent allies for each stack of <blue>Healing Serenade</>.",
        "icon_nid": "LTSkillIconSheet",
        "icon_index": [
            0,
            3
        ],
        "components": [
            [
                "ally_blast_aoe",
                1
            ],
            [
                "min_range",
                0
            ],
            [
                "max_range",
                0
            ],
            [
                "mana_cost",
                5
            ],
            [
                "spell",
                null
            ],
            [
                "target_ally",
                null
            ],
            [
                "event_on_hit",
                "Global Ability_SwordDancerS"
            ]
        ]
    }
]