[
    {
        "nid": "Sword Dancer R",
        "name": "Sword Dancer R",
        "desc": "Boost the next attack of an ally by 2 dmg for each stack of <blue>Striking Requiem</>.",
        "icon_nid": "LTSkillIconSheet",
        "icon_index": [
            1,
            3
        ],
        "components": [
            [
                "min_range",
                1
            ],
            [
                "max_range",
                1
            ],
            [
                "mana_cost",
                5
            ],
            [
                "target_ally",
                null
            ],
            [
                "spell",
                null
            ],
            [
                "event_on_hit",
                "Global Ability_SwordDancerR"
            ]
        ]
    }
]