[
    {
        "nid": "Temperance",
        "name": "Temperance",
        "desc": "Halves target's stats. Does not work on bosses.",
        "icon_nid": "processed_ffta2instruments",
        "icon_index": [
            0,
            1
        ],
        "components": [
            [
                "spell",
                null
            ],
            [
                "magic",
                null
            ],
            [
                "target_enemy",
                null
            ],
            [
                "min_range",
                1
            ],
            [
                "max_equation_range",
                "MAGIC_RANGE"
            ],
            [
                "weapon_type",
                "Staff"
            ],
            [
                "weapon_rank",
                "E"
            ],
            [
                "status_on_hit",
                "XIV: Temperance Debuff"
            ],
            [
                "locked",
                null
            ],
            [
                "exp",
                11
            ],
            [
                "uses",
                1
            ],
            [
                "uses_options",
                {
                    "lose_uses_on_miss": false,
                    "one_loss_per_combat": false
                }
            ],
            [
                "eval_target_restrict_2",
                "not 'Boss' in target.tags"
            ]
        ]
    }
]