[
    {
        "nid": "Tether",
        "name": "Tether <red>(2 Mana)</>",
        "desc": "Binds this unit to an ally.",
        "icon_nid": "Skills",
        "icon_index": [
            8,
            0
        ],
        "components": [
            [
                "no_map_hp_display",
                null
            ],
            [
                "target_ally",
                null
            ],
            [
                "max_range",
                3
            ],
            [
                "min_range",
                1
            ],
            [
                "status_after_combat_on_hit",
                "Tether_Child"
            ],
            [
                "mana_cost",
                2
            ],
            [
                "event_after_combat",
                "Global Ability_Tether"
            ],
            [
                "eval_target_restrict_2",
                "'Tether_Child' not in [skill.nid for skill in target.skills]"
            ],
            [
                "attack_after_combat",
                null
            ]
        ]
    }
]