[
    {
        "nid": "The Wise",
        "name": "The Wise",
        "desc": "Knocks the target back 5 spaces. Usable against any team.",
        "icon_nid": "Fish",
        "icon_index": [
            0,
            0
        ],
        "components": [
            [
                "target_unit",
                null
            ],
            [
                "shove_flex",
                5
            ],
            [
                "uses",
                10
            ],
            [
                "uses_options",
                {
                    "lose_uses_on_miss": false,
                    "one_loss_per_combat": false
                }
            ],
            [
                "spell",
                null
            ],
            [
                "no_ai",
                null
            ],
            [
                "no_map_hp_display",
                null
            ],
            [
                "min_range",
                1
            ],
            [
                "max_range",
                1
            ],
            [
                "never_use_battle_animation",
                null
            ]
        ]
    }
]