[
    {
        "nid": "The Magician",
        "name": "The Magician",
        "desc": "+15 Hit/Avoid, +4 damage dealt, -4 damage taken.",
        "icon_nid": "processed_ffta2instruments",
        "icon_index": [
            0,
            1
        ],
        "components": [
            [
                "spell",
                null
            ],
            [
                "magic",
                null
            ],
            [
                "target_ally",
                null
            ],
            [
                "min_range",
                1
            ],
            [
                "max_range",
                2
            ],
            [
                "weapon_type",
                "Staff"
            ],
            [
                "weapon_rank",
                "E"
            ],
            [
                "status_on_hit",
                "I: The Magician Buff"
            ],
            [
                "locked",
                null
            ],
            [
                "exp",
                11
            ],
            [
                "uses",
                1
            ],
            [
                "uses_options",
                {
                    "lose_uses_on_miss": false,
                    "one_loss_per_combat": false
                }
            ]
        ]
    }
]