[
    {
        "nid": "Thoron",
        "name": "Thoron",
        "desc": "",
        "icon_nid": "{Beansy} AnimaSheet",
        "icon_index": [
            2,
            2
        ],
        "components": [
            [
                "weapon",
                null
            ],
            [
                "target_enemy",
                null
            ],
            [
                "level_exp",
                null
            ],
            [
                "damage",
                16
            ],
            [
                "hit",
                70
            ],
            [
                "weapon_type",
                "Anima"
            ],
            [
                "weapon_rank",
                "A"
            ],
            [
                "magic",
                null
            ],
            [
                "uses",
                20
            ],
            [
                "uses_options",
                {
                    "lose_uses_on_miss": true,
                    "one_loss_per_combat": false
                }
            ],
            [
                "weight",
                14
            ],
            [
                "crit",
                0
            ],
            [
                "value",
                8250
            ],
            [
                "min_range",
                1
            ],
            [
                "max_range",
                2
            ]
        ]
    }
]