[
    {
        "nid": "ToxicSweat_Scroll",
        "name": "Toxic Sweat Scroll",
        "desc": "Teaches the user Toxic Sweat.\n(Passive: Nearby foes take damage on upkeep and have HIT -30.)",
        "icon_nid": "tactics_ogre",
        "icon_index": [
            12,
            7
        ],
        "components": [
            [
                "usable",
                null
            ],
            [
                "target_ally",
                null
            ],
            [
                "uses",
                1
            ],
            [
                "uses_options",
                {
                    "lose_uses_on_miss": false,
                    "one_loss_per_combat": false
                }
            ],
            [
                "map_hit_add_blend",
                [
                    0,
                    170,
                    0
                ]
            ],
            [
                "status_on_hit",
                "Toxic Sweat"
            ],
            [
                "map_hit_sfx",
                "Battle Cry"
            ],
            [
                "usable_in_base",
                null
            ],
            [
                "item_tags",
                [
                    "NoTrace"
                ]
            ],
            [
                "never_use_battle_animation",
                null
            ]
        ]
    }
]