[
    {
        "nid": "Transform",
        "name": "Transform",
        "desc": "Transform (shapeshift ability for Tenebrae)",
        "icon_nid": "LTSkillIconSheet",
        "icon_index": [
            2,
            46
        ],
        "components": [
            [
                "no_map_hp_display",
                null
            ],
            [
                "event_on_use",
                "Global Ability_Shapeshift"
            ],
            [
                "usable",
                null
            ],
            [
                "target_ally",
                null
            ],
            [
                "menu_after_combat",
                null
            ],
            [
                "attack_after_combat",
                null
            ]
        ]
    }
]