[
    {
        "nid": "Umbra",
        "name": "Umbra",
        "desc": "",
        "icon_nid": "{Beansy} DarkSheet",
        "icon_index": [
            1,
            2
        ],
        "components": [
            [
                "weapon",
                null
            ],
            [
                "target_enemy",
                null
            ],
            [
                "min_range",
                1
            ],
            [
                "max_range",
                2
            ],
            [
                "damage",
                11
            ],
            [
                "hit",
                75
            ],
            [
                "crit",
                0
            ],
            [
                "weight",
                9
            ],
            [
                "level_exp",
                null
            ],
            [
                "weapon_type",
                "Dark"
            ],
            [
                "weapon_rank",
                "C"
            ],
            [
                "map_hit_add_blend",
                [
                    72,
                    0,
                    65
                ]
            ],
            [
                "magic",
                null
            ],
            [
                "value",
                1300
            ],
            [
                "uses",
                35
            ],
            [
                "uses_options",
                {
                    "lose_uses_on_miss": true,
                    "one_loss_per_combat": false
                }
            ]
        ]
    }
]