[
    {
        "nid": "Uppercut",
        "name": "Uppercut <red>(5 Mana)</>",
        "desc": "Attack one enemy. If fatal, increases Farl's CON by 1 permanently.\nCannot double, nor be countered.",
        "icon_nid": "LTSkillIconSheet",
        "icon_index": [
            0,
            42
        ],
        "components": [
            [
                "spell",
                null
            ],
            [
                "value",
                0
            ],
            [
                "target_enemy",
                null
            ],
            [
                "min_range",
                1
            ],
            [
                "max_range",
                1
            ],
            [
                "damage",
                0
            ],
            [
                "hit",
                100
            ],
            [
                "crit",
                0
            ],
            [
                "weight",
                0
            ],
            [
                "level_exp",
                null
            ],
            [
                "mana_cost",
                5
            ],
            [
                "self_status_on_hit",
                "Uppercut_hidden"
            ],
            [
                "alternate_damage_formula",
                "CONSTITUTION"
            ]
        ]
    }
]