[
    {
        "nid": "ValiantOath",
        "name": "Valiant Oath",
        "desc": "The oath of a true paladin,\nallowing the soul that swears\nit to Smite their wicked... allies?",
        "icon_nid": "tactics_ogre",
        "icon_index": [
            11,
            6
        ],
        "components": [
            [
                "usable",
                null
            ],
            [
                "target_ally",
                null
            ],
            [
                "uses",
                1
            ],
            [
                "uses_options",
                {
                    "lose_uses_on_miss": false,
                    "one_loss_per_combat": false
                }
            ],
            [
                "status_on_hit",
                "Smite"
            ],
            [
                "usable_in_base",
                null
            ],
            [
                "item_tags",
                [
                    "NoTrace"
                ]
            ],
            [
                "never_use_battle_animation",
                null
            ]
        ]
    }
]