[
    {
        "nid": "Venin Lance",
        "name": "Venin Lance",
        "desc": "Inflicts <blue>Enfeebled</> on contact.",
        "icon_nid": "processed_ffta2maces",
        "icon_index": [
            0,
            2
        ],
        "components": [
            [
                "weapon",
                null
            ],
            [
                "target_enemy",
                null
            ],
            [
                "level_exp",
                null
            ],
            [
                "damage",
                10
            ],
            [
                "hit",
                80
            ],
            [
                "weapon_type",
                "Lance"
            ],
            [
                "weapon_rank",
                "B"
            ],
            [
                "uses",
                30
            ],
            [
                "uses_options",
                {
                    "lose_uses_on_miss": false,
                    "one_loss_per_combat": false
                }
            ],
            [
                "weight",
                11
            ],
            [
                "crit",
                0
            ],
            [
                "min_range",
                1
            ],
            [
                "max_range",
                1
            ],
            [
                "status_after_combat_on_hit",
                "Enfeebled"
            ]
        ]
    }
]