[
    {
        "nid": "Volt",
        "name": "Volt",
        "desc": "",
        "icon_nid": "processed_ffta2staves",
        "icon_index": [
            0,
            22
        ],
        "components": [
            [
                "value",
                5000
            ],
            [
                "target_enemy",
                null
            ],
            [
                "min_range",
                1
            ],
            [
                "max_equation_range",
                "MAGIC_RANGE"
            ],
            [
                "damage",
                15
            ],
            [
                "hit",
                90
            ],
            [
                "uses",
                20
            ],
            [
                "uses_options",
                {
                    "lose_uses_on_miss": false,
                    "one_loss_per_combat": false
                }
            ],
            [
                "level_exp",
                null
            ],
            [
                "weapon_type",
                "Staff"
            ],
            [
                "weapon_rank",
                "A"
            ],
            [
                "map_hit_add_blend",
                [
                    255,
                    255,
                    0
                ]
            ],
            [
                "magic",
                null
            ],
            [
                "spell",
                null
            ]
        ]
    }
]