[
    {
        "nid": "Zanbato +",
        "name": "Zanbato +",
        "desc": "Effective against horseback units.",
        "icon_nid": "Sword",
        "icon_index": [
            0,
            17
        ],
        "components": [
            [
                "weapon",
                null
            ],
            [
                "target_enemy",
                null
            ],
            [
                "level_exp",
                null
            ],
            [
                "damage",
                8
            ],
            [
                "hit",
                85
            ],
            [
                "weapon_type",
                "Sword"
            ],
            [
                "weapon_rank",
                "D"
            ],
            [
                "uses",
                18
            ],
            [
                "uses_options",
                {
                    "lose_uses_on_miss": false,
                    "one_loss_per_combat": false
                }
            ],
            [
                "weight",
                11
            ],
            [
                "crit",
                0
            ],
            [
                "value",
                1260
            ],
            [
                "min_range",
                1
            ],
            [
                "max_range",
                1
            ],
            [
                "effective_multiplier",
                3
            ],
            [
                "effective_tag",
                [
                    "Horse"
                ]
            ]
        ]
    }
]