[
    {
        "nid": "Accipiter",
        "name": "Accipiter",
        "desc": "Beguiling Tashtali thief. An on-again, off-again member of Cormorant's mercenary company.",
        "variant": "Female",
        "level": 6,
        "klass": "Thief",
        "tags": [],
        "bases": {
            "HP": 22,
            "STR": 6,
            "MAG": 3,
            "SKL": 8,
            "SPD": 13,
            "LCK": 12,
            "DEF": 4,
            "RES": 7,
            "CON": 6,
            "MOV": 6
        },
        "growths": {
            "HP": 60,
            "STR": 35,
            "MAG": 35,
            "SKL": 50,
            "SPD": 65,
            "LCK": 60,
            "DEF": 15,
            "RES": 20,
            "CON": 0,
            "MOV": 0
        },
        "stat_cap_modifiers": {},
        "starting_items": [
            [
                "Iron Dagger",
                false
            ],
            [
                "L\u00faknife",
                false
            ],
            [
                "Mana Potion",
                false
            ]
        ],
        "learned_skills": [
            [
                1,
                "Phasewalker"
            ],
            [
                1,
                "Slippery"
            ],
            [
                1,
                "ManaGain"
            ],
            [
                1,
                "Flurry of Blades"
            ]
        ],
        "unit_notes": [],
        "wexp_gain": {
            "Sword": [
                false,
                0,
                251
            ],
            "Lance": [
                false,
                0,
                251
            ],
            "Axe": [
                false,
                0,
                251
            ],
            "Bow": [
                false,
                0,
                251
            ],
            "Staff": [
                true,
                71,
                251
            ],
            "Light": [
                false,
                0,
                251
            ],
            "Anima": [
                false,
                0,
                251
            ],
            "Dark": [
                false,
                0,
                251
            ],
            "Default": [
                false,
                0,
                251
            ],
            "Dagger": [
                true,
                71,
                251
            ]
        },
        "alternate_classes": [],
        "portrait_nid": "Can Dy",
        "affinity": "Wind",
        "fields": [
            [
                "PromotedClass",
                "Rogue"
            ],
            [
                "Blessed",
                "False"
            ]
        ]
    }
]