[
    {
        "nid": "AxeBert",
        "name": "AxeBert",
        "desc": "Clone of Osbert",
        "variant": "",
        "level": 1,
        "klass": "Clone(Axe)",
        "tags": [
            "Immortal"
        ],
        "bases": {
            "HP": 15,
            "STR": 9,
            "MAG": 4,
            "SKL": 7,
            "SPD": 7,
            "LCK": 8,
            "DEF": 6,
            "RES": 5,
            "CON": 8,
            "MOV": 5
        },
        "growths": {
            "HP": 0,
            "STR": 0,
            "MAG": 0,
            "SKL": 0,
            "SPD": 0,
            "LCK": 0,
            "DEF": 0,
            "RES": 0,
            "CON": 0,
            "MOV": 0
        },
        "stat_cap_modifiers": {},
        "starting_items": [
            [
                "Clone Axe",
                false
            ]
        ],
        "learned_skills": [
            [
                1,
                "Mark"
            ],
            [
                1,
                "Clone Link"
            ]
        ],
        "unit_notes": [],
        "wexp_gain": {
            "Sword": [
                true,
                1,
                251
            ],
            "Lance": [
                false,
                0,
                251
            ],
            "Axe": [
                true,
                1,
                251
            ],
            "Bow": [
                false,
                0,
                251
            ],
            "Staff": [
                false,
                0,
                251
            ],
            "Light": [
                false,
                0,
                251
            ],
            "Anima": [
                false,
                0,
                251
            ],
            "Dark": [
                false,
                0,
                251
            ],
            "Default": [
                false,
                0,
                251
            ],
            "Dagger": [
                false,
                0,
                251
            ]
        },
        "alternate_classes": [
            "Clone(Axe1)"
        ],
        "portrait_nid": "L Telephone(Bow)",
        "affinity": "None",
        "fields": []
    }
]