[
    {
        "nid": "Ayla",
        "name": "Ayla",
        "desc": "An high ranking cultist. Doesn't believe, but uses her position for her own gain.",
        "variant": "Female",
        "level": 9,
        "klass": "Mage",
        "tags": [
            "Boss"
        ],
        "bases": {
            "HP": 26,
            "STR": 0,
            "MAG": 14,
            "SKL": 13,
            "SPD": 6,
            "LCK": 4,
            "DEF": 6,
            "CON": 5,
            "MOV": 5,
            "RES": 9
        },
        "growths": {
            "HP": 60,
            "STR": 2,
            "MAG": 60,
            "SKL": 50,
            "SPD": 35,
            "LCK": 50,
            "DEF": 30,
            "CON": 0,
            "MOV": 0,
            "RES": 50
        },
        "stat_cap_modifiers": {},
        "starting_items": [
            [
                "Thunder",
                false
            ],
            [
                "Body Ring",
                true
            ],
            [
                "Gods_Eye",
                false
            ]
        ],
        "learned_skills": [
            [
                1,
                "Mana Beloved_E"
            ]
        ],
        "unit_notes": [],
        "wexp_gain": {
            "Sword": [
                false,
                0,
                251
            ],
            "Lance": [
                false,
                0,
                251
            ],
            "Axe": [
                false,
                0,
                251
            ],
            "Bow": [
                false,
                0,
                251
            ],
            "Staff": [
                false,
                0,
                251
            ],
            "Light": [
                false,
                0,
                251
            ],
            "Anima": [
                true,
                71,
                251
            ],
            "Dark": [
                false,
                0,
                251
            ],
            "Default": [
                false,
                0,
                251
            ],
            "Dagger": [
                false,
                0,
                251
            ]
        },
        "alternate_classes": [],
        "portrait_nid": "AylaRW",
        "affinity": "Fire",
        "fields": []
    }
]