[
    {
        "nid": "Balhkoin",
        "name": "Balhkoin",
        "desc": "Thief, mercenary, dungeon-crawler: she's\nseen it all, and lived to pawn off the loot.",
        "variant": "Female",
        "level": 1,
        "klass": "Assassin",
        "tags": [],
        "bases": {
            "HP": 26,
            "STR": 7,
            "MAG": 2,
            "SKL": 12,
            "SPD": 17,
            "LCK": 8,
            "DEF": 7,
            "RES": 4,
            "CON": 9,
            "MOV": 6
        },
        "growths": {
            "HP": 40,
            "STR": 15,
            "MAG": 10,
            "SKL": 50,
            "SPD": 60,
            "LCK": 60,
            "DEF": 5,
            "RES": 20,
            "CON": 0,
            "MOV": 0
        },
        "stat_cap_modifiers": {},
        "starting_items": [
            [
                "Poison Sword",
                false
            ],
            [
                "Murder Knife",
                false
            ]
        ],
        "learned_skills": [
            [
                1,
                "ManaGain"
            ],
            [
                1,
                "Locktouch"
            ],
            [
                1,
                "Steal"
            ],
            [
                1,
                "Voidwarp"
            ],
            [
                1,
                "DuelistsBlow"
            ],
            [
                1,
                "Swap"
            ]
        ],
        "unit_notes": [],
        "wexp_gain": {
            "Sword": [
                false,
                31,
                251
            ],
            "Lance": [
                false,
                0,
                251
            ],
            "Axe": [
                false,
                0,
                251
            ],
            "Bow": [
                false,
                0,
                251
            ],
            "Dagger": [
                false,
                121,
                251
            ],
            "Staff": [
                false,
                0,
                251
            ],
            "Light": [
                false,
                0,
                251
            ],
            "Anima": [
                false,
                0,
                251
            ],
            "Dark": [
                false,
                0,
                251
            ],
            "Default": [
                false,
                0,
                251
            ]
        },
        "alternate_classes": [],
        "portrait_nid": "Balhkoin Sterling",
        "affinity": "Earth",
        "fields": []
    }
]