[
    {
        "nid": "Brandon",
        "name": "Brandon",
        "desc": "A blind prisoner of the Fenians. Fights with rage.",
        "variant": "",
        "level": 1,
        "klass": "Berserker",
        "tags": [],
        "bases": {
            "HP": 45,
            "STR": 30,
            "MAG": 2,
            "SKL": 9,
            "SPD": 10,
            "LCK": 12,
            "DEF": 9,
            "RES": 4,
            "CON": 13,
            "MOV": 6
        },
        "growths": {
            "HP": 50,
            "STR": 500,
            "MAG": 5,
            "SKL": 40,
            "SPD": 30,
            "LCK": 40,
            "DEF": 45,
            "RES": 10,
            "CON": 0,
            "MOV": 0
        },
        "stat_cap_modifiers": {},
        "starting_items": [
            [
                "Killer Axe",
                false
            ],
            [
                "Swordslayer",
                false
            ],
            [
                "Etain Scroll",
                false
            ]
        ],
        "learned_skills": [
            [
                1,
                "ManaGain"
            ],
            [
                1,
                "BlindFighter"
            ]
        ],
        "unit_notes": [],
        "wexp_gain": {
            "Sword": [
                false,
                0,
                251
            ],
            "Lance": [
                false,
                0,
                251
            ],
            "Axe": [
                true,
                181,
                251
            ],
            "Bow": [
                false,
                0,
                251
            ],
            "Dagger": [
                false,
                0,
                251
            ],
            "Staff": [
                false,
                0,
                251
            ],
            "Light": [
                false,
                0,
                251
            ],
            "Anima": [
                false,
                0,
                251
            ],
            "Dark": [
                false,
                0,
                251
            ],
            "Default": [
                false,
                0,
                251
            ]
        },
        "alternate_classes": [],
        "portrait_nid": "Brandon New",
        "affinity": "Earth",
        "fields": [
            [
                "Blessed",
                "False"
            ]
        ]
    }
]