[
    {
        "nid": "Bronach_C16",
        "name": "Bronach",
        "desc": "Chieftess of Ratsbridge Village. Completely\nconsumed with vengeful rage for Ennis.",
        "variant": "Female",
        "level": 7,
        "klass": "Warrior",
        "tags": [
            "Immortal"
        ],
        "bases": {
            "HP": 40,
            "STR": 18,
            "MAG": 0,
            "SKL": 14,
            "SPD": 17,
            "LCK": 12,
            "DEF": 12,
            "RES": 2,
            "CON": 20,
            "MOV": 6
        },
        "growths": {
            "HP": 80,
            "STR": 45,
            "MAG": 0,
            "SKL": 25,
            "SPD": 20,
            "LCK": 15,
            "DEF": 16,
            "RES": 17,
            "CON": 0,
            "MOV": 0
        },
        "stat_cap_modifiers": {},
        "starting_items": [
            [
                "Silver Axe",
                false
            ],
            [
                "Brave Bow",
                true
            ]
        ],
        "learned_skills": [
            [
                1,
                "Defiance"
            ],
            [
                1,
                "Immortal Strength"
            ],
            [
                1,
                "Keen Intuition"
            ]
        ],
        "unit_notes": [],
        "wexp_gain": {
            "Sword": [
                false,
                0,
                251
            ],
            "Lance": [
                false,
                0,
                251
            ],
            "Axe": [
                true,
                181,
                251
            ],
            "Bow": [
                true,
                181,
                251
            ],
            "Dagger": [
                false,
                0,
                251
            ],
            "Staff": [
                false,
                0,
                251
            ],
            "Light": [
                false,
                0,
                251
            ],
            "Anima": [
                false,
                0,
                251
            ],
            "Dark": [
                false,
                0,
                251
            ],
            "Default": [
                false,
                0,
                251
            ]
        },
        "alternate_classes": [],
        "portrait_nid": "Bronach",
        "affinity": "Dark",
        "fields": []
    }
]