[
    {
        "nid": "Dreedur",
        "name": "Dreedur",
        "desc": "A mysterious cultist who has attained great power.",
        "variant": "",
        "level": 20,
        "klass": "Druid",
        "tags": [
            "Boss"
        ],
        "bases": {
            "HP": 60,
            "STR": 12,
            "MAG": 24,
            "SKL": 40,
            "SPD": 18,
            "LCK": 0,
            "DEF": 14,
            "RES": 18,
            "CON": 8,
            "MOV": 6
        },
        "growths": {
            "HP": 50,
            "STR": 0,
            "MAG": 50,
            "SKL": 32,
            "SPD": 30,
            "LCK": 20,
            "DEF": 10,
            "RES": 40,
            "CON": 0,
            "MOV": 0
        },
        "stat_cap_modifiers": {},
        "starting_items": [
            [
                "Gleipnir",
                false
            ]
        ],
        "learned_skills": [
            [
                1,
                "Keen Intuition"
            ]
        ],
        "unit_notes": [],
        "wexp_gain": {
            "Sword": [
                false,
                0,
                251
            ],
            "Lance": [
                false,
                0,
                251
            ],
            "Axe": [
                false,
                0,
                251
            ],
            "Bow": [
                false,
                0,
                251
            ],
            "Dagger": [
                false,
                0,
                251
            ],
            "Staff": [
                false,
                0,
                251
            ],
            "Light": [
                false,
                0,
                251
            ],
            "Anima": [
                false,
                0,
                251
            ],
            "Dark": [
                false,
                251,
                251
            ],
            "Default": [
                false,
                0,
                251
            ]
        },
        "alternate_classes": [],
        "portrait_nid": "Novala",
        "affinity": "None",
        "fields": []
    }
]