[
    {
        "nid": "Ennis",
        "name": "Ennis",
        "desc": "The only heiress of House Connachta.",
        "variant": "",
        "level": 1,
        "klass": "Heiress",
        "tags": [
            "Lord",
            "Convoy",
            "AdjConvoy"
        ],
        "bases": {
            "HP": 16,
            "STR": 5,
            "MAG": 5,
            "SKL": 9,
            "SPD": 9,
            "LCK": 9,
            "DEF": 2,
            "CON": 5,
            "MOV": 5,
            "RES": 3
        },
        "growths": {
            "HP": 70,
            "STR": 45,
            "MAG": 45,
            "SKL": 50,
            "SPD": 50,
            "LCK": 50,
            "DEF": 25,
            "CON": 0,
            "MOV": 0,
            "RES": 40
        },
        "stat_cap_modifiers": {},
        "starting_items": [
            [
                "Vulnerary",
                false
            ],
            [
                "Rapier",
                false
            ],
            [
                "Fire",
                false
            ],
            [
                "Chest Key",
                false
            ]
        ],
        "learned_skills": [
            [
                1,
                "ManaGain"
            ],
            [
                1,
                "Lock Time"
            ]
        ],
        "unit_notes": [],
        "wexp_gain": {
            "Sword": [
                true,
                1,
                251
            ],
            "Lance": [
                false,
                0,
                251
            ],
            "Axe": [
                false,
                0,
                251
            ],
            "Bow": [
                false,
                0,
                251
            ],
            "Staff": [
                false,
                0,
                251
            ],
            "Light": [
                true,
                31,
                251
            ],
            "Anima": [
                true,
                1,
                251
            ],
            "Dark": [
                true,
                31,
                251
            ],
            "Default": [
                false,
                0,
                251
            ],
            "Dagger": [
                false,
                0,
                251
            ]
        },
        "alternate_classes": [],
        "portrait_nid": "Ennis",
        "affinity": "Dark",
        "fields": [
            [
                "PromotedClass",
                "Lady"
            ],
            [
                "Blessed",
                "True"
            ]
        ]
    }
]