[
    {
        "nid": "Enya",
        "name": "Enya",
        "desc": "A survivor and a witness.",
        "variant": "Female",
        "level": 1,
        "klass": "Thief",
        "tags": [],
        "bases": {
            "HP": 17,
            "STR": 4,
            "MAG": 6,
            "SKL": 8,
            "SPD": 14,
            "LCK": 7,
            "DEF": 2,
            "RES": 8,
            "CON": 6,
            "MOV": 5
        },
        "growths": {
            "HP": 80,
            "STR": 70,
            "MAG": 70,
            "SKL": 100,
            "SPD": 60,
            "LCK": 60,
            "DEF": 20,
            "RES": 40,
            "CON": 0,
            "MOV": 0
        },
        "stat_cap_modifiers": {},
        "starting_items": [
            [
                "Iron Dagger",
                false
            ],
            [
                "Herb",
                false
            ]
        ],
        "learned_skills": [
            [
                1,
                "Locktouch"
            ],
            [
                1,
                "Steal"
            ],
            [
                1,
                "TrueLuna"
            ],
            [
                1,
                "Backdash"
            ]
        ],
        "unit_notes": [],
        "wexp_gain": {
            "Sword": [
                false,
                0,
                251
            ],
            "Lance": [
                false,
                0,
                251
            ],
            "Axe": [
                false,
                0,
                251
            ],
            "Bow": [
                false,
                0,
                251
            ],
            "Dagger": [
                false,
                71,
                251
            ],
            "Staff": [
                false,
                0,
                251
            ],
            "Light": [
                false,
                0,
                251
            ],
            "Anima": [
                false,
                0,
                251
            ],
            "Dark": [
                false,
                0,
                251
            ],
            "Default": [
                false,
                0,
                251
            ]
        },
        "alternate_classes": [],
        "portrait_nid": "Enya",
        "affinity": "Water",
        "fields": []
    }
]