[
    {
        "nid": "False_Suzerain",
        "name": "???",
        "desc": "A mysterious entity that is difficult to identify.",
        "variant": "",
        "level": 20,
        "klass": "CraftedGod",
        "tags": [
            "Boss",
            "Projection"
        ],
        "bases": {
            "HP": 75,
            "STR": 15,
            "MAG": 18,
            "SKL": 13,
            "SPD": 15,
            "LCK": 20,
            "DEF": 14,
            "RES": 19,
            "CON": 15,
            "MOV": 0
        },
        "growths": {
            "HP": 0,
            "STR": 0,
            "MAG": 0,
            "SKL": 0,
            "SPD": 0,
            "LCK": 0,
            "DEF": 0,
            "RES": 0,
            "CON": 0,
            "MOV": 0
        },
        "stat_cap_modifiers": {},
        "starting_items": [
            [
                "Annihilation",
                false
            ],
            [
                "Purgatory",
                false
            ]
        ],
        "learned_skills": [
            [
                1,
                "Godly Aegis"
            ],
            [
                1,
                "One Above(False)"
            ],
            [
                1,
                "HP_Double"
            ]
        ],
        "unit_notes": [],
        "wexp_gain": {
            "Sword": [
                false,
                0,
                251
            ],
            "Lance": [
                false,
                0,
                251
            ],
            "Axe": [
                false,
                0,
                251
            ],
            "Bow": [
                false,
                0,
                251
            ],
            "Dagger": [
                false,
                0,
                251
            ],
            "Staff": [
                true,
                251,
                251
            ],
            "Light": [
                true,
                251,
                251
            ],
            "Anima": [
                true,
                251,
                251
            ],
            "Dark": [
                true,
                251,
                251
            ],
            "Default": [
                false,
                0,
                251
            ]
        },
        "alternate_classes": [],
        "portrait_nid": "Suzerain",
        "affinity": "None",
        "fields": []
    }
]