[
    {
        "nid": "Finch",
        "name": "Ashton",
        "desc": "Old time Fenian Captain\ntrying to avenge his family.",
        "variant": "",
        "level": 8,
        "klass": "Sniper",
        "tags": [
            "Boss"
        ],
        "bases": {
            "HP": 46,
            "STR": 15,
            "MAG": 10,
            "SKL": 18,
            "SPD": 14,
            "LCK": 9,
            "DEF": 12,
            "RES": 14,
            "CON": 10,
            "MOV": 5
        },
        "growths": {
            "HP": 0,
            "STR": 0,
            "MAG": 0,
            "SKL": 0,
            "SPD": 0,
            "LCK": 0,
            "DEF": 0,
            "RES": 0,
            "CON": 0,
            "MOV": 0
        },
        "stat_cap_modifiers": {},
        "starting_items": [
            [
                "Venin Bow",
                false
            ],
            [
                "Dispeller",
                false
            ]
        ],
        "learned_skills": [
            [
                1,
                "Close Counter"
            ]
        ],
        "unit_notes": [],
        "wexp_gain": {
            "Sword": [
                false,
                0,
                251
            ],
            "Lance": [
                false,
                0,
                251
            ],
            "Axe": [
                false,
                0,
                251
            ],
            "Bow": [
                true,
                121,
                251
            ],
            "Dagger": [
                false,
                0,
                251
            ],
            "Staff": [
                false,
                0,
                251
            ],
            "Light": [
                false,
                0,
                251
            ],
            "Anima": [
                false,
                0,
                251
            ],
            "Dark": [
                false,
                0,
                251
            ],
            "Default": [
                false,
                0,
                251
            ]
        },
        "alternate_classes": [],
        "portrait_nid": "Ashton",
        "affinity": "Wind",
        "fields": []
    }
]