[
    {
        "nid": "GenericRed",
        "name": "Fenian Soldier",
        "desc": "A Fenian soldier.",
        "variant": null,
        "level": 8,
        "klass": "Soldier",
        "tags": [],
        "bases": {
            "HP": 26,
            "STR": 4,
            "MAG": 0,
            "SKL": 1,
            "SPD": 1,
            "LCK": 0,
            "DEF": 0,
            "RES": 0,
            "CON": 6,
            "MOV": 5
        },
        "growths": {
            "HP": 80,
            "STR": 50,
            "MAG": 0,
            "SKL": 30,
            "SPD": 20,
            "LCK": 25,
            "DEF": 12,
            "RES": 15,
            "CON": 0,
            "MOV": 0
        },
        "stat_cap_modifiers": {
            "HP": 0,
            "STR": 0,
            "MAG": 0,
            "SKL": 0,
            "SPD": 0,
            "LCK": 0,
            "DEF": 0,
            "RES": 0,
            "CON": 0,
            "MOV": 0
        },
        "starting_items": [],
        "learned_skills": [],
        "unit_notes": [],
        "wexp_gain": {
            "Lance": [
                false,
                1,
                null
            ]
        },
        "alternate_classes": [],
        "portrait_nid": "Fenian Soldier",
        "affinity": "None",
        "fields": []
    }
]