[
    {
        "nid": "Jarze",
        "name": "Jarze",
        "desc": "Dragon Immortal. Consuming the heart of a dragon gave him immense power. A wound keeps him from maintaining full strength.",
        "variant": "",
        "level": 17,
        "klass": "Soldier",
        "tags": [
            "Immortal"
        ],
        "bases": {
            "HP": 99,
            "STR": 10,
            "MAG": 0,
            "SKL": 9,
            "SPD": 6,
            "LCK": 11,
            "DEF": 1,
            "RES": 0,
            "CON": 13,
            "MOV": 5
        },
        "growths": {
            "HP": 0,
            "STR": 40,
            "MAG": 5,
            "SKL": 60,
            "SPD": 45,
            "LCK": 35,
            "DEF": 10,
            "RES": 10,
            "CON": 0,
            "MOV": 0
        },
        "stat_cap_modifiers": {},
        "starting_items": [
            [
                "Killer Lance",
                false
            ],
            [
                "Slim Lance",
                false
            ],
            [
                "Dragonspear",
                false
            ]
        ],
        "learned_skills": [
            [
                1,
                "ManaGain"
            ],
            [
                1,
                "Dragonheart"
            ],
            [
                1,
                "DragonheartMax"
            ],
            [
                1,
                "Lancet"
            ],
            [
                1,
                "Immortal"
            ]
        ],
        "unit_notes": [],
        "wexp_gain": {
            "Sword": [
                false,
                0,
                251
            ],
            "Lance": [
                true,
                121,
                251
            ],
            "Axe": [
                false,
                0,
                251
            ],
            "Bow": [
                false,
                0,
                251
            ],
            "Dagger": [
                false,
                0,
                251
            ],
            "Staff": [
                false,
                0,
                251
            ],
            "Light": [
                false,
                0,
                251
            ],
            "Anima": [
                false,
                0,
                251
            ],
            "Dark": [
                false,
                0,
                251
            ],
            "Default": [
                false,
                0,
                251
            ]
        },
        "alternate_classes": [],
        "portrait_nid": "Jarze",
        "affinity": "Thunder",
        "fields": [
            [
                "PromotedClass",
                "Dragoon"
            ],
            [
                "Blessed",
                "False"
            ]
        ]
    }
]