[
    {
        "nid": "KalashDemo",
        "name": "Kalash",
        "desc": "The employer's agent, assisting Feodor's\nmercenaries in their grim work. Scheming.",
        "variant": "",
        "level": 10,
        "klass": "Shaman",
        "tags": [],
        "bases": {
            "HP": 28,
            "STR": 1,
            "MAG": 12,
            "SKL": 8,
            "SPD": 7,
            "LCK": 6,
            "DEF": 9,
            "RES": 8,
            "CON": 7,
            "MOV": 5
        },
        "growths": {
            "HP": 50,
            "STR": 0,
            "MAG": 50,
            "SKL": 32,
            "SPD": 30,
            "LCK": 20,
            "DEF": 10,
            "RES": 40,
            "CON": 0,
            "MOV": 0
        },
        "stat_cap_modifiers": {},
        "starting_items": [
            [
                "Flux",
                false
            ],
            [
                "Wither",
                false
            ],
            [
                "Concoction",
                false
            ]
        ],
        "learned_skills": [
            [
                1,
                "Heartseeker"
            ],
            [
                1,
                "ManaGain"
            ],
            [
                1,
                "DrawBack"
            ]
        ],
        "unit_notes": [],
        "wexp_gain": {
            "Sword": [
                false,
                0,
                251
            ],
            "Lance": [
                false,
                0,
                251
            ],
            "Axe": [
                false,
                0,
                251
            ],
            "Bow": [
                false,
                0,
                251
            ],
            "Staff": [
                false,
                0,
                251
            ],
            "Light": [
                false,
                0,
                251
            ],
            "Anima": [
                false,
                0,
                251
            ],
            "Dark": [
                true,
                71,
                251
            ],
            "Default": [
                false,
                0,
                251
            ],
            "Dagger": [
                false,
                0,
                251
            ]
        },
        "alternate_classes": [],
        "portrait_nid": "Kalash",
        "affinity": "Dark",
        "fields": []
    }
]