[
    {
        "nid": "Moore",
        "name": "Moore",
        "desc": "Leader of the Belrann Pirates.",
        "variant": "",
        "level": 5,
        "klass": "Pirate",
        "tags": [
            "Boss"
        ],
        "bases": {
            "HP": 40,
            "STR": 8,
            "MAG": 4,
            "SKL": 5,
            "SPD": 8,
            "LCK": 8,
            "DEF": 7,
            "RES": 6,
            "CON": 14,
            "MOV": 5
        },
        "growths": {
            "HP": 0,
            "STR": 0,
            "MAG": 0,
            "SKL": 0,
            "SPD": 0,
            "LCK": 0,
            "DEF": 0,
            "RES": 0,
            "CON": 0,
            "MOV": 0
        },
        "stat_cap_modifiers": {},
        "starting_items": [
            [
                "Steel Axe",
                false
            ],
            [
                "Hand Axe",
                false
            ],
            [
                "BullyGlove",
                true
            ]
        ],
        "learned_skills": [],
        "unit_notes": [],
        "wexp_gain": {
            "Sword": [
                false,
                0,
                251
            ],
            "Lance": [
                false,
                0,
                251
            ],
            "Axe": [
                true,
                100,
                251
            ],
            "Bow": [
                false,
                0,
                251
            ],
            "Staff": [
                false,
                0,
                251
            ],
            "Light": [
                false,
                0,
                251
            ],
            "Anima": [
                false,
                0,
                251
            ],
            "Dark": [
                false,
                0,
                251
            ],
            "Default": [
                false,
                0,
                251
            ],
            "Dagger": [
                false,
                0,
                251
            ]
        },
        "alternate_classes": [],
        "portrait_nid": "Bandit 1",
        "affinity": "None",
        "fields": []
    }
]