[
    {
        "nid": "Mordeau_Ch14",
        "name": "Mordeau",
        "desc": "Arbiter of the Priela Cult.",
        "variant": "",
        "level": 10,
        "klass": "Necromancer",
        "tags": [
            "Boss"
        ],
        "bases": {
            "HP": 66,
            "STR": 18,
            "MAG": 17,
            "SKL": 15,
            "SPD": 16,
            "LCK": 1,
            "DEF": 15,
            "RES": 15,
            "CON": 11,
            "MOV": 6
        },
        "growths": {
            "HP": 0,
            "STR": 0,
            "MAG": 0,
            "SKL": 0,
            "SPD": 0,
            "LCK": 0,
            "DEF": 0,
            "RES": 0,
            "CON": 0,
            "MOV": 0
        },
        "stat_cap_modifiers": {},
        "starting_items": [
            [
                "Naglfar",
                false
            ],
            [
                "Elixir",
                true
            ],
            [
                "Flux",
                false
            ]
        ],
        "learned_skills": [
            [
                1,
                "Icicle End"
            ],
            [
                1,
                "Inferno End"
            ],
            [
                1,
                "Inferno End_2"
            ]
        ],
        "unit_notes": [],
        "wexp_gain": {
            "Sword": [
                false,
                0,
                251
            ],
            "Lance": [
                false,
                0,
                251
            ],
            "Axe": [
                false,
                0,
                251
            ],
            "Bow": [
                false,
                0,
                251
            ],
            "Dagger": [
                false,
                0,
                251
            ],
            "Staff": [
                true,
                251,
                251
            ],
            "Light": [
                false,
                0,
                251
            ],
            "Anima": [
                false,
                0,
                251
            ],
            "Dark": [
                true,
                251,
                251
            ],
            "Default": [
                false,
                0,
                251
            ]
        },
        "alternate_classes": [],
        "portrait_nid": "Mordeau",
        "affinity": "Ice",
        "fields": []
    }
]