[
    {
        "nid": "Pipit_C13",
        "name": "Pipit",
        "desc": "Pitta's younger sister. A prior incident led to her being taken by the Fenians.",
        "variant": "Female",
        "level": 1,
        "klass": "Wyvern Knight",
        "tags": [
            "Boss"
        ],
        "bases": {
            "HP": 43,
            "STR": 16,
            "MAG": 9,
            "SKL": 13,
            "SPD": 17,
            "LCK": 9,
            "DEF": 8,
            "RES": 5,
            "CON": 8,
            "MOV": 8
        },
        "growths": {
            "HP": 0,
            "STR": 0,
            "MAG": 0,
            "SKL": 0,
            "SPD": 0,
            "LCK": 0,
            "DEF": 0,
            "RES": 0,
            "CON": 0,
            "MOV": 0
        },
        "stat_cap_modifiers": {},
        "starting_items": [
            [
                "Spear",
                false
            ],
            [
                "Firesweep L.",
                false
            ],
            [
                "Fili Shield",
                false
            ]
        ],
        "learned_skills": [
            [
                1,
                "Death's Embrace"
            ]
        ],
        "unit_notes": [],
        "wexp_gain": {
            "Sword": [
                false,
                0,
                251
            ],
            "Lance": [
                true,
                121,
                251
            ],
            "Axe": [
                false,
                0,
                251
            ],
            "Bow": [
                false,
                0,
                251
            ],
            "Dagger": [
                false,
                0,
                251
            ],
            "Staff": [
                false,
                0,
                251
            ],
            "Light": [
                false,
                0,
                251
            ],
            "Anima": [
                false,
                0,
                251
            ],
            "Dark": [
                false,
                0,
                251
            ],
            "Default": [
                false,
                0,
                251
            ]
        },
        "alternate_classes": [],
        "portrait_nid": "PipitEvilRecolor",
        "affinity": "Fire",
        "fields": []
    }
]