[
    {
        "nid": "Pityria_Xtra",
        "name": "Pityria",
        "desc": "A former member of Cormorant's mercenaries, and sister to Pitta and Pipit.",
        "variant": "Female",
        "level": 20,
        "klass": "Wyvern Lord",
        "tags": [],
        "bases": {
            "HP": 49,
            "STR": 25,
            "MAG": 3,
            "SKL": 18,
            "SPD": 21,
            "LCK": 17,
            "DEF": 22,
            "RES": 13,
            "CON": 11,
            "MOV": 8
        },
        "growths": {
            "HP": 45,
            "STR": 35,
            "MAG": 5,
            "SKL": 45,
            "SPD": 55,
            "LCK": 77,
            "DEF": 25,
            "RES": 20,
            "CON": 0,
            "MOV": 0
        },
        "stat_cap_modifiers": {},
        "starting_items": [
            [
                "Venin Lance",
                false
            ],
            [
                "Tomahawk",
                false
            ],
            [
                "MasterAxe",
                false
            ],
            [
                "Frosty Bomb",
                false
            ],
            [
                "Royal Banner",
                false
            ]
        ],
        "learned_skills": [
            [
                1,
                "Assemble!"
            ],
            [
                1,
                "Assurety"
            ],
            [
                1,
                "Sol"
            ],
            [
                1,
                "ManaGain"
            ]
        ],
        "unit_notes": [],
        "wexp_gain": {
            "Sword": [
                true,
                0,
                251
            ],
            "Lance": [
                true,
                181,
                251
            ],
            "Axe": [
                false,
                251,
                251
            ],
            "Bow": [
                false,
                0,
                251
            ],
            "Dagger": [
                false,
                0,
                251
            ],
            "Staff": [
                false,
                0,
                251
            ],
            "Light": [
                false,
                0,
                251
            ],
            "Anima": [
                false,
                0,
                251
            ],
            "Dark": [
                false,
                0,
                251
            ],
            "Default": [
                false,
                0,
                251
            ]
        },
        "alternate_classes": [],
        "portrait_nid": "Pityria",
        "affinity": "Anima",
        "fields": []
    }
]