[
    {
        "nid": "Ysbryd_Ch17",
        "name": "Aislinn",
        "desc": "Heir of the Killough clan.\nFights despite her father's wishes. ",
        "variant": "",
        "level": 16,
        "klass": "Valkyrie",
        "tags": [
            "Boss"
        ],
        "bases": {
            "HP": 39,
            "STR": 0,
            "MAG": 17,
            "SKL": 12,
            "SPD": 15,
            "LCK": 13,
            "DEF": 8,
            "RES": 25,
            "CON": 10,
            "MOV": 7
        },
        "growths": {
            "HP": 45,
            "STR": 0,
            "MAG": 35,
            "SKL": 25,
            "SPD": 45,
            "LCK": 40,
            "DEF": 10,
            "RES": 40,
            "CON": 0,
            "MOV": 0
        },
        "stat_cap_modifiers": {},
        "starting_items": [
            [
                "Aura",
                false
            ],
            [
                "Kcirtap",
                true
            ]
        ],
        "learned_skills": [
            [
                1,
                "Assurety"
            ],
            [
                1,
                "Canto"
            ],
            [
                1,
                "Mana Beloved_E"
            ],
            [
                1,
                "GodsRetina"
            ]
        ],
        "unit_notes": [],
        "wexp_gain": {
            "Sword": [
                false,
                0,
                251
            ],
            "Lance": [
                false,
                0,
                251
            ],
            "Axe": [
                false,
                0,
                251
            ],
            "Bow": [
                false,
                0,
                251
            ],
            "Dagger": [
                false,
                0,
                251
            ],
            "Staff": [
                true,
                251,
                251
            ],
            "Light": [
                true,
                181,
                251
            ],
            "Anima": [
                false,
                0,
                251
            ],
            "Dark": [
                false,
                0,
                251
            ],
            "Default": [
                false,
                0,
                251
            ]
        },
        "alternate_classes": [],
        "portrait_nid": "fe2d284cc08be9715f3084ec67e6dd0d1b44c5b4",
        "affinity": "Light",
        "fields": []
    }
]