[
    {
        "nid": "All_Become_One",
        "name": "All Become One",
        "desc": "Rejoin with another Ibormeith,\nsending inventory to supply and\ngranting target 5 mana.",
        "icon_nid": "LTSkillIconSheet",
        "icon_index": [
            1,
            43
        ],
        "components": [
            [
                "class_skill",
                null
            ],
            [
                "ability",
                "All_Become_One"
            ],
            [
                "condition",
                "not 'Dispeller_Child' in [skill.nid for skill in unit.skills]"
            ]
        ]
    }
]