[
    {
        "nid": "Antiego Aura_14",
        "name": "Antiego Aura",
        "desc": "Cannot target self.\nDamage dealt halved at 1 range.\nAura widens periodically.",
        "icon_nid": "LTSkillIconSheet",
        "icon_index": [
            5,
            5
        ],
        "components": [
            [
                "class_skill",
                null
            ],
            [
                "aura",
                "Antiego Aura_Child"
            ],
            [
                "aura_range",
                14
            ],
            [
                "aura_target",
                "unit"
            ],
            [
                "item_override",
                "Minimum Range 1 Override"
            ],
            [
                "dynamic_damage_multiplier",
                "0.5 if utils.calculate_distance(unit.position, unit2.position) == 1 else 1"
            ]
        ]
    }
]