[
    {
        "nid": "Assemble!",
        "name": "Assemble! <red>(5 Mana)</>",
        "desc": "Bring an ally 3 spaces\naway adjacent to the user.",
        "icon_nid": "{J-Treecko} {Lex Talionis} All Icons",
        "icon_index": [
            4,
            17
        ],
        "components": [
            [
                "class_skill",
                null
            ],
            [
                "ability",
                "Assemble!"
            ],
            [
                "condition",
                "not 'Dispeller_Child' in [skill.nid for skill in unit.skills]"
            ],
            [
                "check_mana",
                5
            ]
        ]
    }
]