[
    {
        "nid": "Astral Greataxe",
        "name": "Astral Greataxe",
        "desc": "While at triangle advantage, +30 CRT.",
        "icon_nid": "tactics_ogre",
        "icon_index": [
            2,
            3
        ],
        "components": [
            [
                "hidden",
                null
            ],
            [
                "combat_condition",
                "combat_calcs.compute_advantage(unit, target, unit.get_weapon(), target.get_weapon(), True)"
            ],
            [
                "crit",
                30
            ]
        ]
    }
]