[
    {
        "nid": "Astral Projection",
        "name": "Astral Projection",
        "desc": "A being molded from the essence of the universe.\nUnit suffers -1 MOV, but can pass through enemy units.\nVulnerable to godslaying.",
        "icon_nid": "LTSkillIconSheet",
        "icon_index": [
            3,
            29
        ],
        "components": [
            [
                "class_skill",
                null
            ],
            [
                "pass",
                null
            ],
            [
                "stat_change",
                [
                    [
                        "MOV",
                        -1
                    ]
                ]
            ],
            [
                "has_tags",
                [
                    "Projection"
                ]
            ]
        ]
    }
]