[
    {
        "nid": "Battle Roar",
        "name": "Battle Roar",
        "desc": "Grants +3 Attack, +10 Hit\nwhen a ball is thrown to a player unit.\nStacks infinitely.",
        "icon_nid": "Skills",
        "icon_index": [
            3,
            5
        ],
        "components": [
            [
                "class_skill",
                null
            ]
        ]
    }
]