[
    {
        "nid": "Blast",
        "name": "Blast",
        "desc": "After using Soulswap+, attack all foes within 2 spaces.\n10 MT, 85 HT, Magic Damage.",
        "icon_nid": "LTSkillIconSheet",
        "icon_index": [
            0,
            0
        ],
        "components": [
            [
                "class_skill",
                null
            ]
        ]
    }
]