[
    {
        "nid": "Blink",
        "name": "Blink <blue>(2 Stacks)</>",
        "desc": "Teleport next to any unit within 5 spaces.\nCan act, but not move, after using.",
        "icon_nid": "LTSkillIconSheet",
        "icon_index": [
            6,
            5
        ],
        "components": [
            [
                "ability",
                "Blink"
            ],
            [
                "class_skill",
                null
            ],
            [
                "condition",
                "not 'Dispeller_Child' in [skill.nid for skill in unit.skills] and len([skill for skill in unit.skills if skill.nid == 'Blades Readied']) >= 2"
            ]
        ]
    }
]