[
    {
        "nid": "Bodyguard",
        "name": "Bodyguard <red>8 Mana</>",
        "desc": "Blocks the next attack against an ally unit.",
        "icon_nid": "LTSkillIconSheet",
        "icon_index": [
            5,
            11
        ],
        "components": [
            [
                "class_skill",
                null
            ],
            [
                "ability",
                "Bodyguard"
            ],
            [
                "condition",
                "not 'Dispeller_Child' in [skill.nid for skill in unit.skills]"
            ],
            [
                "check_mana",
                8
            ]
        ]
    }
]