[
    {
        "nid": "Boom",
        "name": "Immortal Fire <red>(Death)</>",
        "desc": "Kills the opponent and puts any opponent within 3 tiles to 1 HP. Requires a fire tome. Kills the user.",
        "icon_nid": "Skills",
        "icon_index": [
            8,
            10
        ],
        "components": [
            [
                "class_skill",
                null
            ],
            [
                "combat_art",
                "Boom_Child"
            ],
            [
                "cost_mana",
                5
            ],
            [
                "allowed_weapons",
                "item.nid == 'Fire'"
            ],
            [
                "condition",
                "not 'Dispeller_Child' in [skill.nid for skill in unit.skills]"
            ]
        ]
    }
]