[
    {
        "nid": "BoonGiver",
        "name": "Boon Giver",
        "desc": "Grants a boon to an ally.",
        "icon_nid": "LTSkillIconSheet",
        "icon_index": [
            2,
            5
        ],
        "components": [
            [
                "class_skill",
                null
            ],
            [
                "ability",
                "BoonGrant"
            ]
        ]
    }
]