[
    {
        "nid": "Clone Link",
        "name": "Clone Link",
        "desc": "On level up, Osbert is given 50 exp.",
        "icon_nid": "LTSkillIconSheet",
        "icon_index": [
            2,
            48
        ],
        "components": [
            [
                "class_skill",
                null
            ]
        ]
    }
]