[
    {
        "nid": "Cloneswap",
        "name": "Cloneswap <red>(5 Mana)</>",
        "desc": "Swap places with Osbert or one of his clones.",
        "icon_nid": "LTSkillIconSheet",
        "icon_index": [
            3,
            7
        ],
        "components": [
            [
                "class_skill",
                null
            ],
            [
                "ability",
                "Cloneswap"
            ],
            [
                "condition",
                "game.get_unit('LanceBert').position or game.get_unit('Swordbert').position or game.get_unit('AxeBert').position and not 'Dispeller_Child' in [skill.nid for skill in unit.skills]"
            ],
            [
                "check_mana",
                5
            ]
        ]
    }
]