[
    {
        "nid": "Crane's Way_child",
        "name": "Crane Way",
        "desc": "While the vanguard attacks in pair up guard, Crane will separate and warp next to target, initiating an attack.",
        "icon_nid": "lord's LT Spritesheet",
        "icon_index": [
            3,
            0
        ],
        "components": [
            [
                "ignore_rescue_penalty",
                null
            ],
            [
                "event_after_combat",
                "Global Ability_CraneWay"
            ],
            [
                "lost_on_end_chapter",
                null
            ]
        ]
    }
]