[
    {
        "nid": "Crater",
        "name": "Crater",
        "desc": "",
        "icon_nid": "Skills",
        "icon_index": [
            0,
            0
        ],
        "components": [
            [
                "hidden",
                null
            ],
            [
                "avoid",
                10
            ],
            [
                "is_terrain",
                null
            ]
        ]
    }
]