[
    {
        "nid": "Crit +30",
        "name": "Crit +30",
        "desc": "Grants +30 Critical.",
        "icon_nid": "Skills",
        "icon_index": [
            2,
            3
        ],
        "components": [
            [
                "crit",
                30
            ],
            [
                "hidden",
                null
            ]
        ]
    }
]