[
    {
        "nid": "CursedAura",
        "name": "Cursed Aura",
        "desc": "Enemies in range will be afflicted with <red>Cursed</>, preventing them from attacking beyond range 1.",
        "icon_nid": "lord's LT Spritesheet",
        "icon_index": [
            1,
            0
        ],
        "components": [
            [
                "aura",
                "Cursed"
            ],
            [
                "aura_range",
                3
            ],
            [
                "aura_target",
                "enemy"
            ],
            [
                "class_skill",
                null
            ]
        ]
    }
]