[
    {
        "nid": "Darkthorn",
        "name": "Darkthorn",
        "desc": "Aura - Grants +2 might to allies. Range 2.",
        "icon_nid": "Skills",
        "icon_index": [
            10,
            5
        ],
        "components": [
            [
                "class_skill",
                null
            ],
            [
                "aura",
                "Darkthorn_child"
            ],
            [
                "aura_range",
                2
            ],
            [
                "aura_target",
                "ally"
            ]
        ]
    }
]