[
    {
        "nid": "Defender",
        "name": "Conviction",
        "desc": "-4 damage taken when defending.",
        "icon_nid": "processed_ffta2swords",
        "icon_index": [
            0,
            3
        ],
        "components": [
            [
                "combat_condition",
                "mode != 'attack'"
            ],
            [
                "resist",
                4
            ]
        ]
    }
]