[
    {
        "nid": "Detonation",
        "name": "Detonation <red>(5 Mana)</>",
        "desc": "Attacks all enemies within 2 spaces.\nAttacks with user's SKL / 2, targets RES.\nUses Seliche's mana, and separates from her.",
        "icon_nid": "LTSkillIconSheet",
        "icon_index": [
            6,
            8
        ],
        "components": [
            [
                "class_skill",
                null
            ],
            [
                "condition",
                "not 'Dispeller_Child' in [skill.nid for skill in unit.skills] and game.get_unit('Seliche').get_mana() >= 5 and unit.traveler"
            ],
            [
                "lost_on_end_chapter",
                null
            ],
            [
                "ability",
                "Detonation"
            ]
        ]
    }
]