[
    {
        "nid": "Dhampir",
        "name": "Dhampir <red>(5 Mana)</>",
        "desc": "Drain HP equal to damage dealt.",
        "icon_nid": "LTSkillIconSheet",
        "icon_index": [
            3,
            40
        ],
        "components": [
            [
                "cost_mana",
                5
            ],
            [
                "class_skill",
                null
            ],
            [
                "combat_art",
                "Dhampir_Proc"
            ],
            [
                "condition",
                "not 'Dispeller_Child' in [skill.nid for skill in unit.skills]"
            ],
            [
                "allowed_weapons",
                "item_system.is_weapon(unit, item)"
            ]
        ]
    }
]