[
    {
        "nid": "Dispeller Aura_5",
        "name": "Dispeller Aura",
        "desc": "Disables mana skills.\nHalves MAG.\nAura widens periodically.",
        "icon_nid": "LTSkillIconSheet",
        "icon_index": [
            6,
            5
        ],
        "components": [
            [
                "class_skill",
                null
            ],
            [
                "aura",
                "Dispeller_Child"
            ],
            [
                "aura_range",
                5
            ],
            [
                "aura_target",
                "unit"
            ],
            [
                "stat_multiplier",
                [
                    [
                        "MAG",
                        0.5
                    ]
                ]
            ]
        ]
    }
]