[
    {
        "nid": "Displaced",
        "name": "Displaced",
        "desc": "Unit has been knocked over. Cannot counterattack.",
        "icon_nid": "lord's LT Spritesheet",
        "icon_index": [
            6,
            1
        ],
        "components": [
            [
                "negative",
                null
            ],
            [
                "cannot_use_items",
                null
            ],
            [
                "hidden_if_inactive",
                null
            ],
            [
                "condition",
                "unit.team == 'enemy' and not 'Displaced_immune' in [skill.nid for skill in unit.skills]"
            ],
            [
                "unit_flickering_tint",
                [
                    255,
                    255,
                    0
                ]
            ],
            [
                "lost_on_endstep",
                null
            ]
        ]
    }
]