[
    {
        "nid": "Divine_Clairvoyance",
        "name": "Divine Clairvoyance",
        "desc": "User is blessed with +1 attack range.\nUser and Allied units receive +5 DEF/RES when initiating.",
        "icon_nid": "LTSkillIconSheet",
        "icon_index": [
            0,
            9
        ],
        "components": [
            [
                "modify_maximum_range",
                1
            ],
            [
                "class_skill",
                null
            ],
            [
                "aura",
                "Divine_Clairvoyance_child"
            ],
            [
                "aura_range",
                99
            ],
            [
                "aura_target",
                "ally"
            ]
        ]
    }
]