[
    {
        "nid": "Divine_Form_child",
        "name": "Divine Form",
        "desc": "Allies restore 30% HP/turn.",
        "icon_nid": "LTSkillIconSheet",
        "icon_index": [
            5,
            10
        ],
        "components": [
            [
                "regeneration",
                0.30000000000000004
            ]
        ]
    }
]