[
    {
        "nid": "Dragonheart40",
        "name": "Dragonheart40",
        "desc": "When Unit HP above 40, then +4 all stats.",
        "icon_nid": "LTSkillIconSheet",
        "icon_index": [
            4,
            46
        ],
        "components": [
            [
                "condition",
                "unit.get_hp()>=40 and unit.get_hp()<60"
            ],
            [
                "stat_change",
                [
                    [
                        "STR",
                        4
                    ],
                    [
                        "MAG",
                        4
                    ],
                    [
                        "SKL",
                        4
                    ],
                    [
                        "SPD",
                        4
                    ]
                ]
            ],
            [
                "hidden",
                null
            ]
        ]
    }
]