[
    {
        "nid": "Embiggen",
        "name": "Embiggen",
        "desc": "CON +1 per stack.",
        "icon_nid": "{J-Treecko} {Lex Talionis} All Icons",
        "icon_index": [
            4,
            8
        ],
        "components": [
            [
                "class_skill",
                null
            ],
            [
                "stat_change",
                [
                    [
                        "CON",
                        1
                    ]
                ]
            ],
            [
                "stack",
                999
            ]
        ]
    }
]