[
    {
        "nid": "Enervated_1",
        "name": "Enervated",
        "desc": "Inflicts -1 to all stats. Recovers by 1/turn.",
        "icon_nid": "LTSkillIconSheet",
        "icon_index": [
            0,
            34
        ],
        "components": [
            [
                "negative",
                null
            ],
            [
                "stat_change",
                [
                    [
                        "STR",
                        -1
                    ],
                    [
                        "MAG",
                        -1
                    ],
                    [
                        "SKL",
                        -1
                    ],
                    [
                        "SPD",
                        -1
                    ],
                    [
                        "LCK",
                        -1
                    ],
                    [
                        "DEF",
                        -1
                    ],
                    [
                        "RES",
                        -1
                    ]
                ]
            ],
            [
                "combined_time",
                1
            ]
        ]
    }
]