[
    {
        "nid": "Enervated_Move_3",
        "name": "Sluggish",
        "desc": "Inflicts -3 MOV. Recovers by 1/turn.",
        "icon_nid": "LTSkillIconSheet",
        "icon_index": [
            0,
            34
        ],
        "components": [
            [
                "negative",
                null
            ],
            [
                "stat_change",
                [
                    [
                        "MOV",
                        -3
                    ]
                ]
            ],
            [
                "combined_time",
                3
            ],
            [
                "upkeep_stat_change",
                [
                    [
                        "MOV",
                        1
                    ]
                ]
            ]
        ]
    }
]