[
    {
        "nid": "Eternal_Blaze",
        "name": "Eternal Blaze <red>(6 Mana)</>",
        "desc": "Kills an ally, and deals damage equal to their Max HP in AoE 1.",
        "icon_nid": "LTSkillIconSheet",
        "icon_index": [
            0,
            35
        ],
        "components": [
            [
                "class_skill",
                null
            ],
            [
                "ability",
                "Eternal_Blaze"
            ],
            [
                "condition",
                "not 'Dispeller_Child' in [skill.nid for skill in unit.skills]"
            ]
        ]
    }
]