[
    {
        "nid": "Ethered",
        "name": "Ethered",
        "desc": "Unit has ten extra maximum mana for the remainder of map.",
        "icon_nid": "processed_ffta2consumables",
        "icon_index": [
            0,
            12
        ],
        "components": [
            [
                "has_tags",
                [
                    "Ethered"
                ]
            ],
            [
                "lost_on_end_chapter",
                null
            ]
        ]
    }
]