[
    {
        "nid": "Falcon Kick",
        "name": "Falcon Kick",
        "desc": "Teleport to a tile in the same row or column 2-5 tiles away. Deal 20 damage to enemies in the way.",
        "icon_nid": "Skills",
        "icon_index": [
            3,
            5
        ],
        "components": [
            [
                "condition",
                "max(0, utils.calculate_distance(unit.position, unit.previous_position)) >= 6"
            ],
            [
                "hidden",
                null
            ],
            [
                "ability",
                "Falcon Kick"
            ]
        ]
    }
]