[
    {
        "nid": "Falcon Punch Galeforce",
        "name": "Falcon Punch",
        "desc": "Unit can move again after kill.",
        "icon_nid": "Skills",
        "icon_index": [
            2,
            9
        ],
        "components": [
            [
                "hidden",
                null
            ],
            [
                "end_time",
                1
            ]
        ]
    }
]