[
    {
        "nid": "Finale",
        "name": "Finale",
        "desc": "At the start of her turn, Finola will gain a stack of <red>Healing Serenade</>,\n<red>Enervating Waltz</>, and <red>Striking Requiem</>. \nMax 8 for each.",
        "icon_nid": "LTSkillIconSheet",
        "icon_index": [
            2,
            11
        ],
        "components": [
            [
                "class_skill",
                null
            ],
            [
                "lost_on_end_chapter",
                null
            ],
            [
                "unit_flickering_tint",
                [
                    255,
                    255,
                    127
                ]
            ],
            [
                "upkeep_animation",
                "StatUpSpark"
            ]
        ]
    }
]