[
    {
        "nid": "Final_Boss_Theme",
        "name": "Final Boss Theme",
        "desc": "",
        "icon_nid": "{J-Treecko} {Lex Talionis} All Icons",
        "icon_index": [
            0,
            0
        ],
        "components": [
            [
                "item_override",
                "Final_Boss_Theme"
            ],
            [
                "hidden",
                null
            ]
        ]
    }
]