[
    {
        "nid": "Fleet Footwork",
        "name": "Fleet Footwork",
        "desc": "If unit is moved as the result of an ally's skill, +5 damage, + 10 hit, + 10 crit until end of player phase.",
        "icon_nid": "LTSkillIconSheet",
        "icon_index": [
            6,
            29
        ],
        "components": [
            [
                "class_skill",
                null
            ]
        ]
    }
]