[
    {
        "nid": "Freezing",
        "name": "Freezing",
        "desc": "Unit is afflicted with all stats -2. Every turn, if in range of Mordeau, grants another stack.\nIf this status reaches 3 stacks, unit becomes <red>Frozen</> and is unable to move for 1 turn.",
        "icon_nid": "Skills",
        "icon_index": [
            2,
            10
        ],
        "components": [
            [
                "stack",
                999
            ],
            [
                "stat_change",
                [
                    [
                        "STR",
                        -2
                    ],
                    [
                        "MAG",
                        -2
                    ],
                    [
                        "SKL",
                        -2
                    ],
                    [
                        "SPD",
                        -2
                    ],
                    [
                        "LCK",
                        -2
                    ],
                    [
                        "DEF",
                        -2
                    ],
                    [
                        "RES",
                        -2
                    ],
                    [
                        "MOV",
                        -2
                    ]
                ]
            ],
            [
                "upkeep_event",
                "Global Ability_Freezing"
            ],
            [
                "unit_anim",
                "MapFrostbite"
            ],
            [
                "negative",
                null
            ]
        ]
    }
]