[
    {
        "nid": "Frozen_End",
        "name": "Frozen End",
        "desc": "Unit can take another turn\nafter using a Freeze staff.",
        "icon_nid": "LTSkillIconSheet",
        "icon_index": [
            0,
            50
        ],
        "components": [
            [
                "class_skill",
                null
            ],
            [
                "gain_skill_after_combat",
                "WillRefresh"
            ],
            [
                "condition",
                "item.nid == 'Freeze'"
            ]
        ]
    }
]