[
    {
        "nid": "God's Voice",
        "name": "God's Voice",
        "desc": "not implemented yet lmaoooo",
        "icon_nid": "LTSkillIconSheet",
        "icon_index": [
            3,
            5
        ],
        "components": [
            [
                "class_skill",
                null
            ]
        ]
    }
]