[
    {
        "nid": "God's Eye",
        "name": "God's Eye",
        "desc": "Increases max range for every mana point. Upon kill, lose 5 mana.",
        "icon_nid": "Neutral",
        "icon_index": [
            0,
            15
        ],
        "components": [
            [
                "eval_range",
                "unit.get_mana()"
            ],
            [
                "mana_on_kill",
                -5
            ],
            [
                "class_skill",
                null
            ]
        ]
    }
]