[
    {
        "nid": "Godly Projection",
        "name": "Godly Projection",
        "desc": "Unit has been manifested by a god.\nVulnerable to godslaying.",
        "icon_nid": "LTSkillIconSheet",
        "icon_index": [
            3,
            29
        ],
        "components": [
            [
                "class_skill",
                null
            ],
            [
                "has_tags",
                [
                    "Projection"
                ]
            ]
        ]
    }
]