[
    {
        "nid": "Gods_Deviant_Image",
        "name": "Deviant Image",
        "desc": "This unit is an <red>Immortal.</> Grants access to the <red>Trace</> ability <red>(1 mana)</>.",
        "icon_nid": "LTSkillIconSheet",
        "icon_index": [
            3,
            48
        ],
        "components": [
            [
                "class_skill",
                null
            ],
            [
                "has_tags",
                [
                    "Immortal"
                ]
            ],
            [
                "ability",
                "Trace"
            ]
        ]
    }
]