[
    {
        "nid": "Grounded",
        "name": "Grounded",
        "desc": "",
        "icon_nid": "",
        "icon_index": [
            0,
            0
        ],
        "components": [
            [
                "grounded",
                null
            ],
            [
                "hidden",
                null
            ]
        ]
    }
]