[
    {
        "nid": "Haymaker",
        "name": "Haymaker",
        "desc": "Both unit and foe deal double damage.",
        "icon_nid": "Skills",
        "icon_index": [
            10,
            4
        ],
        "components": [
            [
                "allowed_weapons",
                "item_system.is_weapon(unit, item)"
            ],
            [
                "condition",
                "max(0, utils.calculate_distance(unit.position, unit.previous_position)) == 2"
            ],
            [
                "combat_art",
                "Haymaker_art"
            ],
            [
                "hidden",
                null
            ]
        ]
    }
]