[
    {
        "nid": "Hemorrhage_aura_child",
        "name": "Hemorrhage",
        "desc": "Takes 9 damage at start of turn.",
        "icon_nid": "lord's LT Spritesheet",
        "icon_index": [
            0,
            0
        ],
        "components": [
            [
                "endstep_damage",
                9
            ],
            [
                "negative",
                null
            ],
            [
                "unit_flickering_tint",
                [
                    170,
                    90,
                    170
                ]
            ]
        ]
    }
]