[
    {
        "nid": "Hit and Run",
        "name": "Hit and Run <red>(6 Mana)</>",
        "desc": "+2 Mt, +20 Hit, +20 Avoid. After combat,\ncan spend all remaining movement.",
        "icon_nid": "Hit and Run",
        "icon_index": [
            0,
            0
        ],
        "components": [
            [
                "class_skill",
                null
            ],
            [
                "condition",
                "not 'Dispeller_Child' in [skill.nid for skill in unit.skills]"
            ],
            [
                "combat_art",
                "Hit and Run_Proc"
            ],
            [
                "cost_mana",
                6
            ],
            [
                "allowed_weapons",
                "item_system.is_weapon(unit, item)"
            ]
        ]
    }
]