[
    {
        "nid": "IgnoreRes",
        "name": "IgnoreRes",
        "desc": "Divine is wisdom, earthly, conceit. Let not hubris bring defeat.",
        "icon_nid": "processed_ffta2instruments",
        "icon_index": [
            0,
            13
        ],
        "components": [
            [
                "dynamic_damage",
                "unit2.get_stat('RES')"
            ],
            [
                "hidden",
                null
            ]
        ]
    }
]