[
    {
        "nid": "Inferno End",
        "name": "Inferno End",
        "desc": "During combat, if enemy has <red>Freezing</>, unit follow-up attacks with <red>Inferno</> (7 DMG, 7 Self-Heal). If the enemy has <red>Frozen</> instead, guarantees the next attack will be critical.",
        "icon_nid": "lord's LT Spritesheet",
        "icon_index": [
            5,
            0
        ],
        "components": [
            [
                "class_skill",
                null
            ],
            [
                "crit",
                200
            ],
            [
                "combat_condition",
                "'Frozen' in [skill.nid for skill in target.skills]"
            ]
        ]
    }
]