[
    {
        "nid": "Instructive_Child",
        "name": "Instructed",
        "desc": "+20 hit/crit due to being within\nthe range of Instructive.",
        "icon_nid": "LTSkillIconSheet",
        "icon_index": [
            2,
            23
        ],
        "components": [
            [
                "hit",
                20
            ],
            [
                "crit",
                20
            ]
        ]
    }
]