[
    {
        "nid": "Iron Boots",
        "name": "Iron Boots",
        "desc": "-1 MOV, +5 Def",
        "icon_nid": "processed_ffta2accessories",
        "icon_index": [
            0,
            8
        ],
        "components": [
            [
                "stat_change",
                [
                    [
                        "DEF",
                        5
                    ],
                    [
                        "MOV",
                        -1
                    ]
                ]
            ]
        ]
    }
]