[
    {
        "nid": "Iron Dagger Debuff",
        "name": "Iron Dagger Debuff",
        "desc": "MAG -2, DEF -1, RES -1",
        "icon_nid": "Ershkigal Iron Dagger (1)",
        "icon_index": [
            0,
            0
        ],
        "components": [
            [
                "negative",
                null
            ],
            [
                "stat_change",
                [
                    [
                        "MAG",
                        -2
                    ],
                    [
                        "DEF",
                        -1
                    ],
                    [
                        "RES",
                        -1
                    ]
                ]
            ],
            [
                "upkeep_stat_change",
                []
            ],
            [
                "time",
                2
            ]
        ]
    }
]