[
    {
        "nid": "Knightkneeler_mod",
        "name": "Knightkneeler",
        "desc": "",
        "icon_nid": "{J-Treecko} {Lex Talionis} All Icons",
        "icon_index": [
            3,
            4
        ],
        "components": [
            [
                "item_override",
                "HorseEffectiveOverride"
            ],
            [
                "dynamic_damage",
                "10 if 'Horse' in target.tags else 0"
            ]
        ]
    }
]