[
    {
        "nid": "Levitating",
        "name": "Levitating",
        "desc": "Unit gains flight, +20 AVO.",
        "icon_nid": "tactics_ogre",
        "icon_index": [
            13,
            15
        ],
        "components": [
            [
                "movement_type",
                "Fliers"
            ],
            [
                "has_tags",
                [
                    "Flying"
                ]
            ],
            [
                "negate_tags",
                [
                    "Flying"
                ]
            ],
            [
                "avoid",
                20
            ],
            [
                "end_time",
                2
            ],
            [
                "lost_on_end_chapter",
                null
            ]
        ]
    }
]