[
    {
        "nid": "MobPivot",
        "name": "Pivot++",
        "desc": "Moves user to other side of a selected unit in 3 tiles.\nUnit can act afterwards.",
        "icon_nid": "LTSkillIconSheet",
        "icon_index": [
            4,
            36
        ],
        "components": [
            [
                "ability",
                "MobPivot"
            ],
            [
                "hidden_if_inactive",
                null
            ],
            [
                "condition",
                "not 'Dispeller_Child' in [skill.nid for skill in unit.skills]"
            ]
        ]
    }
]