[
    {
        "nid": "Negative_child",
        "name": "Negative",
        "desc": "Aura that debuffs enemies (inflicts -2 to all stats). Range 2.",
        "icon_nid": "LTSkillIconSheet",
        "icon_index": [
            0,
            2
        ],
        "components": [
            [
                "negative",
                null
            ],
            [
                "stat_change",
                [
                    [
                        "STR",
                        -2
                    ],
                    [
                        "MAG",
                        -2
                    ],
                    [
                        "SKL",
                        -2
                    ],
                    [
                        "SPD",
                        -2
                    ],
                    [
                        "LCK",
                        -2
                    ],
                    [
                        "DEF",
                        -2
                    ],
                    [
                        "RES",
                        -2
                    ]
                ]
            ]
        ]
    }
]