[
    {
        "nid": "NoAvoid",
        "name": "NoAvoid",
        "desc": "",
        "icon_nid": "Skills",
        "icon_index": [
            0,
            0
        ],
        "components": [
            [
                "hidden",
                null
            ],
            [
                "avoid",
                -1000
            ]
        ]
    }
]