[
    {
        "nid": "One Above(False)",
        "name": "One Above (False)",
        "desc": "Unit has vantage and\ncannot be countered.",
        "icon_nid": "LTSkillIconSheet",
        "icon_index": [
            6,
            47
        ],
        "components": [
            [
                "class_skill",
                null
            ],
            [
                "item_override",
                "Uncounterable Override"
            ],
            [
                "vantage",
                null
            ]
        ]
    }
]