[
    {
        "nid": "Organization",
        "name": "Organization",
        "desc": "Unit can access the convoy.",
        "icon_nid": "Skills",
        "icon_index": [
            7,
            10
        ],
        "components": [
            [
                "class_skill",
                null
            ],
            [
                "has_tags",
                [
                    "Convoy",
                    "AdjConvoy"
                ]
            ]
        ]
    }
]