[
    {
        "nid": "Overshock",
        "name": "Overshock",
        "desc": "Passive. When Sadhbh has 20 mana,\nautomatically crit and lose all mana.",
        "icon_nid": "{J-Treecko} {Lex Talionis} All Icons",
        "icon_index": [
            9,
            10
        ],
        "components": [
            [
                "class_skill",
                null
            ],
            [
                "check_mana",
                19
            ],
            [
                "crit",
                500
            ],
            [
                "mana_on_hit",
                -20
            ],
            [
                "combat_condition",
                "item_system.is_weapon(unit, item)"
            ]
        ]
    }
]