[
    {
        "nid": "Phasewalker",
        "name": "Phasewalker <red>(6 Mana)</>",
        "desc": "Use on an adjacent wall, fence, mountain or cliff tile to move through in a straight line.\nWill fail if used on other tile types. Can act after use.",
        "icon_nid": "LTSkillIconSheet",
        "icon_index": [
            3,
            29
        ],
        "components": [
            [
                "class_skill",
                null
            ],
            [
                "ability",
                "Phasewalker"
            ],
            [
                "condition",
                "not 'Dispeller_Child' in [skill.nid for skill in unit.skills]"
            ],
            [
                "cost_mana",
                6
            ]
        ]
    }
]