[
    {
        "nid": "Possibility",
        "name": "Possibility",
        "desc": "A timeline that could've been.\nAn attacking kill grants the\ncreator 2 mana and Plausibility.",
        "icon_nid": "LTSkillIconSheet",
        "icon_index": [
            4,
            44
        ],
        "components": [
            [
                "time",
                1
            ],
            [
                "event_on_remove",
                "Global Ability_Timeline_Remove"
            ],
            [
                "event_after_initiated_combat",
                "Global Ability_Timeline_Kill"
            ],
            [
                "item_override",
                "Locked Override"
            ],
            [
                "cannot_trade",
                null
            ],
            [
                "unit_flickering_tint",
                [
                    203,
                    33,
                    33
                ]
            ]
        ]
    }
]