[
    {
        "nid": "QuickBurn_Helper",
        "name": "Quick Burn Helper",
        "desc": "+2 MOV for the first 3 turns.\n+1 DAMAGE for every tile moved.",
        "icon_nid": "Skills",
        "icon_index": [
            10,
            10
        ],
        "components": [
            [
                "dynamic_damage",
                "max(0, utils.calculate_distance(unit.position, unit.previous_position))"
            ],
            [
                "hidden",
                null
            ]
        ]
    }
]