[
    {
        "nid": "RagingBullBoon",
        "name": "Raging Bull",
        "desc": "At the end of this unit's turn all adjacent enemies are stunned for one turn. All damage is multiplied by 1.5x.",
        "icon_nid": "LTSkillIconSheet",
        "icon_index": [
            5,
            42
        ],
        "components": [
            [
                "class_skill",
                null
            ],
            [
                "damage_multiplier",
                1.5
            ]
        ]
    }
]