[
    {
        "nid": "Rally Mana",
        "name": "Rally Mana <red>(7 Mana)</>",
        "desc": "Units within two tiles will gain +5 Mana at the start of their next turn.",
        "icon_nid": "{J-Treecko} {Lex Talionis} All Icons",
        "icon_index": [
            11,
            13
        ],
        "components": [
            [
                "class_skill",
                null
            ],
            [
                "cost_mana",
                7
            ],
            [
                "condition",
                "not 'Dispeller_Child' in [skill.nid for skill in unit.skills] and any(utils.calculate_distance(game.get_unit(\"Remri\").position, unit.position) < 3 and unit.nid != \"Remri\" for unit in game.get_player_units())"
            ],
            [
                "ability",
                "ManaRally"
            ]
        ]
    }
]