[
    {
        "nid": "Reckless Crash",
        "name": "Reckless Crash <red>(6 Mana)</>",
        "desc": "Increase STR/MAG but loses DEF/RES by 2 * (distance from original position).",
        "icon_nid": "{J-Treecko} {Lex Talionis} All Icons",
        "icon_index": [
            3,
            6
        ],
        "components": [
            [
                "combat_art",
                "Reckless Crash_mod"
            ],
            [
                "cost_mana",
                6
            ],
            [
                "class_skill",
                null
            ],
            [
                "condition",
                "not 'Dispeller_Child' in [skill.nid for skill in unit.skills]"
            ],
            [
                "allowed_weapons",
                "item_system.is_weapon(unit, item)"
            ]
        ]
    }
]