[
    {
        "nid": "ReopenedThread",
        "name": "Reopened Thread",
        "desc": "In 2 turns, replaces a Player unit with an undeployed unit.",
        "icon_nid": "LTSkillIconSheet",
        "icon_index": [
            5,
            7
        ],
        "components": [
            [
                "class_skill",
                null
            ]
        ]
    }
]