[
    {
        "nid": "Resist_Damage",
        "name": "Resist Damage",
        "desc": "",
        "icon_nid": "LTSkillIconSheet",
        "icon_index": [
            7,
            50
        ],
        "components": [
            [
                "hidden",
                null
            ],
            [
                "lost_on_end_combat",
                [
                    [
                        "LostOnSelf (T/F)",
                        "T",
                        "Lost after self combat (e.g. vulnerary)"
                    ],
                    [
                        "LostOnAlly (T/F)",
                        "T",
                        "Lost after combat with an ally"
                    ],
                    [
                        "LostOnEnemy (T/F)",
                        "T",
                        "Lost after combat with an enemy"
                    ],
                    [
                        "LostOnSplash (T/F)",
                        "T",
                        "Lost after combat if using an AOE item"
                    ]
                ]
            ],
            [
                "lost_on_end_chapter",
                null
            ],
            [
                "ignore_damage",
                null
            ]
        ]
    }
]