[
    {
        "nid": "RoomtoGrow",
        "name": "Room to Grow",
        "desc": "This unit has a 5% chance to level the MOV stat.\n+3 HIT, +2 CRIT per tile moved.",
        "icon_nid": "Skills",
        "icon_index": [
            10,
            10
        ],
        "components": [
            [
                "growth_change",
                [
                    [
                        "MOV",
                        5
                    ]
                ]
            ],
            [
                "class_skill",
                null
            ],
            [
                "dynamic_crit_accuracy",
                "max(0, utils.calculate_distance(unit.position, unit.previous_position))*2"
            ],
            [
                "dynamic_accuracy",
                "max(0, utils.calculate_distance(unit.position, unit.previous_position))*3"
            ]
        ]
    }
]