[
    {
        "nid": "Sand Treads_child",
        "name": "Sand Treads_child",
        "desc": "",
        "icon_nid": "processed_ffta2accessories",
        "icon_index": [
            0,
            9
        ],
        "components": [
            [
                "hidden",
                null
            ],
            [
                "movement_type",
                "Sand Treads"
            ],
            [
                "condition",
                "DB.classes.get(unit.klass).movement_group == 'Light Foot'"
            ]
        ]
    }
]