[
    {
        "nid": "Scarlet Seal",
        "name": "Crimson Seal",
        "desc": "Grants +8 STR/MAG/SKL, but loses 10 HP every turn.",
        "icon_nid": "tactics_ogre",
        "icon_index": [
            12,
            8
        ],
        "components": [
            [
                "stat_change",
                [
                    [
                        "STR",
                        8
                    ],
                    [
                        "MAG",
                        8
                    ],
                    [
                        "SKL",
                        8
                    ]
                ]
            ],
            [
                "endstep_damage",
                10
            ]
        ]
    }
]