[
    {
        "nid": "Shadow Strike",
        "name": "Shadow Strike",
        "desc": "Until the next Player Phase, Erskine will attack any enemy unit that waits within 7 spaces from him with a <red>Shadow Blade</>.\nThese attacks can trigger <blue>Cloak & Dagger</>.",
        "icon_nid": "LTSkillIconSheet",
        "icon_index": [
            6,
            1
        ],
        "components": [
            [
                "unit_flickering_tint",
                [
                    170,
                    170,
                    255
                ]
            ],
            [
                "time",
                1
            ],
            [
                "lost_on_end_chapter",
                null
            ]
        ]
    }
]