[
    {
        "nid": "Shield Band Buffs",
        "name": "Shield Band Buffs",
        "desc": "+2 Def.",
        "icon_nid": "Defense Ring",
        "icon_index": [
            0,
            0
        ],
        "components": [
            [
                "stat_change",
                [
                    [
                        "DEF",
                        2
                    ]
                ]
            ]
        ]
    }
]