[
    {
        "nid": "Silence_1",
        "name": "Silence",
        "desc": "Unit cannot use magic.",
        "icon_nid": "Skills",
        "icon_index": [
            9,
            3
        ],
        "components": [
            [
                "negative",
                null
            ],
            [
                "cannot_use_magic_items",
                null
            ],
            [
                "end_time",
                1
            ],
            [
                "unit_anim",
                "MapSilence"
            ],
            [
                "self_nihil",
                [
                    "HoldTheCheese",
                    "Knight_Oath"
                ]
            ]
        ]
    }
]