[
    {
        "nid": "Simple Guard",
        "name": "Simple Guard",
        "desc": "+2 to defensive stats if Pitta has more than one Mana.\nPitta loses <red>(6 Mana Per Turn)</>",
        "icon_nid": "LTSkillIconSheet",
        "icon_index": [
            5,
            11
        ],
        "components": [
            [
                "class_skill",
                null
            ],
            [
                "condition",
                "game.get_unit('Pitta_P').get_mana() > 1"
            ],
            [
                "stat_change",
                [
                    [
                        "DEF",
                        2
                    ],
                    [
                        "RES",
                        2
                    ],
                    [
                        "LCK",
                        2
                    ]
                ]
            ],
            [
                "hidden_if_inactive",
                null
            ]
        ]
    }
]