[
    {
        "nid": "Sword Dancer W",
        "name": "Sword Dancer W <red>(5 Mana)</>",
        "desc": "Strike one foe. The power of this attack increases for each debuff the target has.",
        "icon_nid": "LTSkillIconSheet",
        "icon_index": [
            5,
            3
        ],
        "components": [
            [
                "class_skill",
                null
            ],
            [
                "lost_on_end_chapter",
                null
            ],
            [
                "combat_art",
                "Sword Dancer W_CA"
            ],
            [
                "allowed_weapons",
                "item_system.weapon_type(unit, item) == 'Sword'"
            ],
            [
                "cost_mana",
                5
            ],
            [
                "check_mana",
                4
            ],
            [
                "condition",
                "not 'Dispeller_Child' in [skill.nid for skill in unit.skills]"
            ]
        ]
    }
]