[
    {
        "nid": "The Box Effect_aura_child",
        "name": "The Box",
        "desc": "Unit is rooted and cannot move.",
        "icon_nid": "lord's LT Spritesheet",
        "icon_index": [
            7,
            0
        ],
        "components": [
            [
                "negative",
                null
            ],
            [
                "stat_change",
                [
                    [
                        "MOV",
                        -99
                    ]
                ]
            ],
            [
                "unit_flickering_tint",
                [
                    85,
                    0,
                    127
                ]
            ]
        ]
    }
]