[
    {
        "nid": "Vorpal Weapon_proc",
        "name": "Vorpal Slash",
        "desc": "Active. Attack at +1 max range using MAG. Cannot double at 2 range. ",
        "icon_nid": "LTSkillIconSheet",
        "icon_index": [
            4,
            6
        ],
        "components": [
            [
                "hidden",
                null
            ],
            [
                "dynamic_damage",
                "6 if item_funcs.is_magic(unit, unit.get_weapon(), utils.calculate_distance(unit.position, target.position)) else 0"
            ],
            [
                "dynamic_attack_speed",
                "-99 if utils.calculate_distance(unit.position, target.position) > unit.get_weapon().max_range.value else 0"
            ],
            [
                "limit_maximum_range",
                3
            ],
            [
                "modify_maximum_range",
                1
            ],
            [
                "lost_on_end_combat",
                [
                    [
                        "LostOnSelf (T/F)",
                        "F",
                        "Lost after self combat (e.g. vulnerary)"
                    ]
                ]
            ],
            [
                "alternate_damage_formula",
                "MAGIC_DAMAGE"
            ]
        ]
    }
]