[
    {
        "nid": "WardChild",
        "name": "Warded",
        "desc": "The unit is being Warded by Seliche.\n+8 DEF and +8 RES.",
        "icon_nid": "LTSkillIconSheet",
        "icon_index": [
            2,
            36
        ],
        "components": [
            [
                "stat_change",
                [
                    [
                        "DEF",
                        8
                    ],
                    [
                        "RES",
                        8
                    ]
                ]
            ],
            [
                "lost_on_end_chapter",
                null
            ]
        ]
    }
]