[
    {
        "nid": "Warde",
        "name": "Ward",
        "desc": "Gain +10 RES.",
        "icon_nid": "Skills",
        "icon_index": [
            0,
            0
        ],
        "components": [
            [
                "hidden",
                null
            ],
            [
                "is_terrain",
                null
            ],
            [
                "stat_change",
                [
                    [
                        "RES",
                        10
                    ]
                ]
            ]
        ]
    }
]