[
    {
        "nid": "WarpCormorant",
        "name": "Warp",
        "desc": "Warps to any ally's side.",
        "icon_nid": "Skills",
        "icon_index": [
            7,
            0
        ],
        "components": [
            [
                "witch_warp",
                null
            ],
            [
                "hidden_if_inactive",
                null
            ],
            [
                "condition",
                "unit.nid == 'Cormorant'"
            ]
        ]
    }
]