[
    {
        "nid": "X: Wheel of Fortune Buff",
        "name": "X: Wheel of Fortune Buff",
        "desc": "Good times never seem to last,\nbut tragedies, too, lose impact fast.",
        "icon_nid": "processed_ffta2instruments",
        "icon_index": [
            0,
            1
        ],
        "components": [
            [
                "combined_time",
                1
            ],
            [
                "hit",
                999
            ],
            [
                "avoid",
                -999
            ]
        ]
    }
]