[
    {
        "nid": "XII: The Hanged Man Debuff",
        "name": "XII: The Hanged Man",
        "desc": "When your sins you lament, on your own you must repent.",
        "icon_nid": "processed_ffta2instruments",
        "icon_index": [
            0,
            1
        ],
        "components": [
            [
                "negative",
                null
            ],
            [
                "cannot_use_items",
                null
            ],
            [
                "miracle",
                null
            ],
            [
                "end_time",
                1
            ]
        ]
    }
]