[
    {
        "nid": "XV: The Devil Poem",
        "name": "XV: The Devil",
        "desc": "All things that think to evil walk. Rebuke sin but do not at sinners balk.",
        "icon_nid": "processed_ffta2instruments",
        "icon_index": [
            0,
            13
        ],
        "components": []
    }
]